0.000000	10.986811	NCS
10.986811	13.367286	CS
13.367286	18.677578	NCS
18.677578	20.630789	CS
20.630789	34.303265	NCS
34.303265	39.552519	CS
39.552519	56.460000	NCS
56.460000	58.230097	CS
58.230097	60.183308	NCS
