0.000000	11.559114	NCS
11.559114	13.132605	CS
13.132605	22.634076	NCS
22.634076	25.236389	CS
25.236389	41.697535	NCS
41.697535	43.694659	CS
43.694659	55.980000	NCS
55.980000	57.190378	CS
57.190378	60.065027	NCS
