0.000000	10.927742	NCS
10.927742	13.375556	CS

13.375556	19.407670	NCS

19.407670	20.718999	CS

20.718999	34.968774	NCS

34.968774	39.252449	CS

39.252449	56.649414	NCS

56.649414	57.785899	CS

57.785899	60.233714	NCS
