0.435252	5.310070	CS

5.310070	9.488485	NCS

9.488485	10.446039	CS

10.446039	14.276253	NCS

14.276253	24.722292	CS

24.722292	29.074808	NCS

29.074808	37.779840	CS

37.779840	42.306457	NCS

42.306457	49.879835	CS

49.879835	59.020119	NCS

59.020119	59.455370	CS
