0.000000	8.869500	NCS
8.869500	10.819192	CS
10.819192	18.761789	NCS
18.761789	19.944389	CS
19.944389	27.151857	NCS
27.151857	28.414362	CS
28.414362	49.141824	NCS
49.141824	49.876954	CS
49.876954	60.056903	NCS