0.000000	6.318357	NCS
6.318357	7.596973	CS
7.596973	10.087784	NCS
10.087784	10.843330	CS
10.843330	29.457989	NCS
29.457989	30.188627	CS
30.188627	53.477708	NCS
53.477708	54.490638	CS
54.490638	57.612454	NCS
57.612454	60.111568	CS
