0.000000	6.854400	NCS
6.854400	7.595416	CS
7.595416	13.523546	NCS
13.523546	16.178854	CS
16.178854	22.848000	NCS
22.848000	29.887654	CS
29.887654	51.871135	NCS
51.871135	52.612151	CS
52.612151	60.084065	NCS
