0.317543	2.064031	NCS

2.064031	7.144723	CS

7.779809	10.717084	NCS

10.717084	17.067948	CS

17.623649	20.402152	NCS

20.402152	31.278008	CS

31.278008	35.167912	NCS

35.167912	36.279314	CS

36.279314	60.015670	NCS
