%!PS-Adobe-3.0 EPSF-3.0
%%Creator: (MATLAB, The Mathworks, Inc. Version 9.5.0.944444 \(R2018b\). Operating System: Windows 10)
%%Title: ../results/log_med_psd.eps
%%CreationDate: 2020-02-15T18:55:39
%%Pages: (atend)
%%BoundingBox:    21     3   381   306
%%LanguageLevel: 3
%%EndComments
%%BeginProlog
%%BeginResource: procset (Apache XML Graphics Std ProcSet) 1.2 0
%%Version: 1.2 0
%%Copyright: (Copyright 2001-2003,2010 The Apache Software Foundation. License terms: http://www.apache.org/licenses/LICENSE-2.0)
/bd{bind def}bind def
/ld{load def}bd
/GR/grestore ld
/GS/gsave ld
/RM/rmoveto ld
/C/curveto ld
/t/show ld
/L/lineto ld
/ML/setmiterlimit ld
/CT/concat ld
/f/fill ld
/N/newpath ld
/S/stroke ld
/CC/setcmykcolor ld
/A/ashow ld
/cp/closepath ld
/RC/setrgbcolor ld
/LJ/setlinejoin ld
/GC/setgray ld
/LW/setlinewidth ld
/M/moveto ld
/re {4 2 roll M
1 index 0 rlineto
0 exch rlineto
neg 0 rlineto
cp } bd
/_ctm matrix def
/_tm matrix def
/BT { _ctm currentmatrix pop matrix _tm copy pop 0 0 moveto } bd
/ET { _ctm setmatrix } bd
/iTm { _ctm setmatrix _tm concat } bd
/Tm { _tm astore pop iTm 0 0 moveto } bd
/ux 0.0 def
/uy 0.0 def
/F {
  /Tp exch def
  /Tf exch def
  Tf findfont Tp scalefont setfont
  /cf Tf def  /cs Tp def
} bd
/ULS {currentpoint /uy exch def /ux exch def} bd
/ULE {
  /Tcx currentpoint pop def
  gsave
  newpath
  cf findfont cs scalefont dup
  /FontMatrix get 0 get /Ts exch def /FontInfo get dup
  /UnderlinePosition get Ts mul /To exch def
  /UnderlineThickness get Ts mul /Tt exch def
  ux uy To add moveto  Tcx uy To add lineto
  Tt setlinewidth stroke
  grestore
} bd
/OLE {
  /Tcx currentpoint pop def
  gsave
  newpath
  cf findfont cs scalefont dup
  /FontMatrix get 0 get /Ts exch def /FontInfo get dup
  /UnderlinePosition get Ts mul /To exch def
  /UnderlineThickness get Ts mul /Tt exch def
  ux uy To add cs add moveto Tcx uy To add cs add lineto
  Tt setlinewidth stroke
  grestore
} bd
/SOE {
  /Tcx currentpoint pop def
  gsave
  newpath
  cf findfont cs scalefont dup
  /FontMatrix get 0 get /Ts exch def /FontInfo get dup
  /UnderlinePosition get Ts mul /To exch def
  /UnderlineThickness get Ts mul /Tt exch def
  ux uy To add cs 10 mul 26 idiv add moveto Tcx uy To add cs 10 mul 26 idiv add lineto
  Tt setlinewidth stroke
  grestore
} bd
/QT {
/Y22 exch store
/X22 exch store
/Y21 exch store
/X21 exch store
currentpoint
/Y21 load 2 mul add 3 div exch
/X21 load 2 mul add 3 div exch
/X21 load 2 mul /X22 load add 3 div
/Y21 load 2 mul /Y22 load add 3 div
/X22 load /Y22 load curveto
} bd
/SSPD {
dup length /d exch dict def
{
/v exch def
/k exch def
currentpagedevice k known {
/cpdv currentpagedevice k get def
v cpdv ne {
/upd false def
/nullv v type /nulltype eq def
/nullcpdv cpdv type /nulltype eq def
nullv nullcpdv or
{
/upd true def
} {
/sametype v type cpdv type eq def
sametype {
v type /arraytype eq {
/vlen v length def
/cpdvlen cpdv length def
vlen cpdvlen eq {
0 1 vlen 1 sub {
/i exch def
/obj v i get def
/cpdobj cpdv i get def
obj cpdobj ne {
/upd true def
exit
} if
} for
} {
/upd true def
} ifelse
} {
v type /dicttype eq {
v {
/dv exch def
/dk exch def
/cpddv cpdv dk get def
dv cpddv ne {
/upd true def
exit
} if
} forall
} {
/upd true def
} ifelse
} ifelse
} if
} ifelse
upd true eq {
d k v put
} if
} if
} if
} forall
d length 0 gt {
d setpagedevice
} if
} bd
/RE { % /NewFontName [NewEncodingArray] /FontName RE -
  findfont dup length dict begin
  {
    1 index /FID ne
    {def} {pop pop} ifelse
  } forall
  /Encoding exch def
  /FontName 1 index def
  currentdict definefont pop
  end
} bind def
%%EndResource
%%BeginResource: procset (Apache XML Graphics EPS ProcSet) 1.0 0
%%Version: 1.0 0
%%Copyright: (Copyright 2002-2003 The Apache Software Foundation. License terms: http://www.apache.org/licenses/LICENSE-2.0)
/BeginEPSF { %def
/b4_Inc_state save def         % Save state for cleanup
/dict_count countdictstack def % Count objects on dict stack
/op_count count 1 sub def      % Count objects on operand stack
userdict begin                 % Push userdict on dict stack
/showpage { } def              % Redefine showpage, { } = null proc
0 setgray 0 setlinecap         % Prepare graphics state
1 setlinewidth 0 setlinejoin
10 setmiterlimit [ ] 0 setdash newpath
/languagelevel where           % If level not equal to 1 then
{pop languagelevel             % set strokeadjust and
1 ne                           % overprint to their defaults.
{false setstrokeadjust false setoverprint
} if
} if
} bd
/EndEPSF { %def
count op_count sub {pop} repeat            % Clean up stacks
countdictstack dict_count sub {end} repeat
b4_Inc_state restore
} bd
%%EndResource
%FOPBeginFontDict
%%IncludeResource: font Courier-Oblique
%%IncludeResource: font Courier-BoldOblique
%%IncludeResource: font Courier-Bold
%%IncludeResource: font ZapfDingbats
%%IncludeResource: font Symbol
%%IncludeResource: font Helvetica
%%IncludeResource: font Helvetica-Oblique
%%IncludeResource: font Helvetica-Bold
%%IncludeResource: font Helvetica-BoldOblique
%%IncludeResource: font Times-Roman
%%IncludeResource: font Times-Italic
%%IncludeResource: font Times-Bold
%%IncludeResource: font Times-BoldItalic
%%IncludeResource: font Courier
%FOPEndFontDict
%%BeginResource: encoding WinAnsiEncoding
/WinAnsiEncoding [
/.notdef /.notdef /.notdef /.notdef /.notdef
/.notdef /.notdef /.notdef /.notdef /.notdef
/.notdef /.notdef /.notdef /.notdef /.notdef
/.notdef /.notdef /.notdef /.notdef /.notdef
/.notdef /.notdef /.notdef /.notdef /.notdef
/.notdef /.notdef /.notdef /.notdef /.notdef
/.notdef /.notdef /space /exclam /quotedbl
/numbersign /dollar /percent /ampersand /quotesingle
/parenleft /parenright /asterisk /plus /comma
/hyphen /period /slash /zero /one
/two /three /four /five /six
/seven /eight /nine /colon /semicolon
/less /equal /greater /question /at
/A /B /C /D /E
/F /G /H /I /J
/K /L /M /N /O
/P /Q /R /S /T
/U /V /W /X /Y
/Z /bracketleft /backslash /bracketright /asciicircum
/underscore /quoteleft /a /b /c
/d /e /f /g /h
/i /j /k /l /m
/n /o /p /q /r
/s /t /u /v /w
/x /y /z /braceleft /bar
/braceright /asciitilde /bullet /Euro /bullet
/quotesinglbase /florin /quotedblbase /ellipsis /dagger
/daggerdbl /circumflex /perthousand /Scaron /guilsinglleft
/OE /bullet /Zcaron /bullet /bullet
/quoteleft /quoteright /quotedblleft /quotedblright /bullet
/endash /emdash /asciitilde /trademark /scaron
/guilsinglright /oe /bullet /zcaron /Ydieresis
/space /exclamdown /cent /sterling /currency
/yen /brokenbar /section /dieresis /copyright
/ordfeminine /guillemotleft /logicalnot /sfthyphen /registered
/macron /degree /plusminus /twosuperior /threesuperior
/acute /mu /paragraph /middot /cedilla
/onesuperior /ordmasculine /guillemotright /onequarter /onehalf
/threequarters /questiondown /Agrave /Aacute /Acircumflex
/Atilde /Adieresis /Aring /AE /Ccedilla
/Egrave /Eacute /Ecircumflex /Edieresis /Igrave
/Iacute /Icircumflex /Idieresis /Eth /Ntilde
/Ograve /Oacute /Ocircumflex /Otilde /Odieresis
/multiply /Oslash /Ugrave /Uacute /Ucircumflex
/Udieresis /Yacute /Thorn /germandbls /agrave
/aacute /acircumflex /atilde /adieresis /aring
/ae /ccedilla /egrave /eacute /ecircumflex
/edieresis /igrave /iacute /icircumflex /idieresis
/eth /ntilde /ograve /oacute /ocircumflex
/otilde /odieresis /divide /oslash /ugrave
/uacute /ucircumflex /udieresis /yacute /thorn
/ydieresis
] def
%%EndResource
%FOPBeginFontReencode
/Courier-Oblique findfont
dup length dict begin
  {1 index /FID ne {def} {pop pop} ifelse} forall
  /Encoding WinAnsiEncoding def
  currentdict
end
/Courier-Oblique exch definefont pop
/Courier-BoldOblique findfont
dup length dict begin
  {1 index /FID ne {def} {pop pop} ifelse} forall
  /Encoding WinAnsiEncoding def
  currentdict
end
/Courier-BoldOblique exch definefont pop
/Courier-Bold findfont
dup length dict begin
  {1 index /FID ne {def} {pop pop} ifelse} forall
  /Encoding WinAnsiEncoding def
  currentdict
end
/Courier-Bold exch definefont pop
/Helvetica findfont
dup length dict begin
  {1 index /FID ne {def} {pop pop} ifelse} forall
  /Encoding WinAnsiEncoding def
  currentdict
end
/Helvetica exch definefont pop
/Helvetica-Oblique findfont
dup length dict begin
  {1 index /FID ne {def} {pop pop} ifelse} forall
  /Encoding WinAnsiEncoding def
  currentdict
end
/Helvetica-Oblique exch definefont pop
/Helvetica-Bold findfont
dup length dict begin
  {1 index /FID ne {def} {pop pop} ifelse} forall
  /Encoding WinAnsiEncoding def
  currentdict
end
/Helvetica-Bold exch definefont pop
/Helvetica-BoldOblique findfont
dup length dict begin
  {1 index /FID ne {def} {pop pop} ifelse} forall
  /Encoding WinAnsiEncoding def
  currentdict
end
/Helvetica-BoldOblique exch definefont pop
/Times-Roman findfont
dup length dict begin
  {1 index /FID ne {def} {pop pop} ifelse} forall
  /Encoding WinAnsiEncoding def
  currentdict
end
/Times-Roman exch definefont pop
/Times-Italic findfont
dup length dict begin
  {1 index /FID ne {def} {pop pop} ifelse} forall
  /Encoding WinAnsiEncoding def
  currentdict
end
/Times-Italic exch definefont pop
/Times-Bold findfont
dup length dict begin
  {1 index /FID ne {def} {pop pop} ifelse} forall
  /Encoding WinAnsiEncoding def
  currentdict
end
/Times-Bold exch definefont pop
/Times-BoldItalic findfont
dup length dict begin
  {1 index /FID ne {def} {pop pop} ifelse} forall
  /Encoding WinAnsiEncoding def
  currentdict
end
/Times-BoldItalic exch definefont pop
/Courier findfont
dup length dict begin
  {1 index /FID ne {def} {pop pop} ifelse} forall
  /Encoding WinAnsiEncoding def
  currentdict
end
/Courier exch definefont pop
%FOPEndFontReencode
%%EndProlog
%%Page: 1 1
%%PageBoundingBox: 0 0 420 315
%%BeginPageSetup
[1 0 0 -1 0 315] CT
%%EndPageSetup
GS
[0.75 0 0 0.75 0 0] CT
1 GC
N
0 0 560 420 re
f
GR
GS
[0.75 0 0 0.75 0 0] CT
1 GC
N
0 0 560 420 re
f
GR
GS
[0.75 0 0 0.75 0 0] CT
1 GC
N
73 374 M
507 374 L
507 31 L
73 31 L
cp
f
GR
GS
[0.75 0 0 0.75 0 0] CT
0.149 GC
2 setlinecap
1 LJ
0.667 LW
N
73 374 M
507 374 L
S
GR
GS
[0.75 0 0 0.75 0 0] CT
0.149 GC
2 setlinecap
1 LJ
0.667 LW
N
73 31 M
507 31 L
S
GR
GS
[0.75 0 0 0.75 0 0] CT
0.149 GC
2 setlinecap
1 LJ
0.667 LW
N
73 374 M
73 369.66 L
S
GR
GS
[0.75 0 0 0.75 0 0] CT
0.149 GC
2 setlinecap
1 LJ
0.667 LW
N
118.684 374 M
118.684 369.66 L
S
GR
GS
[0.75 0 0 0.75 0 0] CT
0.149 GC
2 setlinecap
1 LJ
0.667 LW
N
164.368 374 M
164.368 369.66 L
S
GR
GS
[0.75 0 0 0.75 0 0] CT
0.149 GC
2 setlinecap
1 LJ
0.667 LW
N
210.053 374 M
210.053 369.66 L
S
GR
GS
[0.75 0 0 0.75 0 0] CT
0.149 GC
2 setlinecap
1 LJ
0.667 LW
N
255.737 374 M
255.737 369.66 L
S
GR
GS
[0.75 0 0 0.75 0 0] CT
0.149 GC
2 setlinecap
1 LJ
0.667 LW
N
301.421 374 M
301.421 369.66 L
S
GR
GS
[0.75 0 0 0.75 0 0] CT
0.149 GC
2 setlinecap
1 LJ
0.667 LW
N
347.105 374 M
347.105 369.66 L
S
GR
GS
[0.75 0 0 0.75 0 0] CT
0.149 GC
2 setlinecap
1 LJ
0.667 LW
N
392.789 374 M
392.789 369.66 L
S
GR
GS
[0.75 0 0 0.75 0 0] CT
0.149 GC
2 setlinecap
1 LJ
0.667 LW
N
438.474 374 M
438.474 369.66 L
S
GR
GS
[0.75 0 0 0.75 0 0] CT
0.149 GC
2 setlinecap
1 LJ
0.667 LW
N
484.158 374 M
484.158 369.66 L
S
GR
GS
[0.75 0 0 0.75 0 0] CT
0.149 GC
2 setlinecap
1 LJ
0.667 LW
N
73 31 M
73 35.34 L
S
GR
GS
[0.75 0 0 0.75 0 0] CT
0.149 GC
2 setlinecap
1 LJ
0.667 LW
N
118.684 31 M
118.684 35.34 L
S
GR
GS
[0.75 0 0 0.75 0 0] CT
0.149 GC
2 setlinecap
1 LJ
0.667 LW
N
164.368 31 M
164.368 35.34 L
S
GR
GS
[0.75 0 0 0.75 0 0] CT
0.149 GC
2 setlinecap
1 LJ
0.667 LW
N
210.053 31 M
210.053 35.34 L
S
GR
GS
[0.75 0 0 0.75 0 0] CT
0.149 GC
2 setlinecap
1 LJ
0.667 LW
N
255.737 31 M
255.737 35.34 L
S
GR
GS
[0.75 0 0 0.75 0 0] CT
0.149 GC
2 setlinecap
1 LJ
0.667 LW
N
301.421 31 M
301.421 35.34 L
S
GR
GS
[0.75 0 0 0.75 0 0] CT
0.149 GC
2 setlinecap
1 LJ
0.667 LW
N
347.105 31 M
347.105 35.34 L
S
GR
GS
[0.75 0 0 0.75 0 0] CT
0.149 GC
2 setlinecap
1 LJ
0.667 LW
N
392.789 31 M
392.789 35.34 L
S
GR
GS
[0.75 0 0 0.75 0 0] CT
0.149 GC
2 setlinecap
1 LJ
0.667 LW
N
438.474 31 M
438.474 35.34 L
S
GR
GS
[0.75 0 0 0.75 0 0] CT
0.149 GC
2 setlinecap
1 LJ
0.667 LW
N
484.158 31 M
484.158 35.34 L
S
GR
GS
[0.75 0 0 0.75 54.75 284.49998] CT
0.149 GC
/Helvetica 13.333 F
GS
[1 0 0 1 0 0] CT
-11.5 14 moveto 
1 -1 scale
(100) t 
GR
GR
GS
[0.75 0 0 0.75 89.01316 284.49998] CT
0.149 GC
/Helvetica 13.333 F
GS
[1 0 0 1 0 0] CT
-11.5 14 moveto 
1 -1 scale
(300) t 
GR
GR
GS
[0.75 0 0 0.75 123.27632 284.49998] CT
0.149 GC
/Helvetica 13.333 F
GS
[1 0 0 1 0 0] CT
-11.5 14 moveto 
1 -1 scale
(500) t 
GR
GR
GS
[0.75 0 0 0.75 157.53947 284.49998] CT
0.149 GC
/Helvetica 13.333 F
GS
[1 0 0 1 0 0] CT
-11.5 14 moveto 
1 -1 scale
(700) t 
GR
GR
GS
[0.75 0 0 0.75 191.80264 284.49998] CT
0.149 GC
/Helvetica 13.333 F
GS
[1 0 0 1 0 0] CT
-11.5 14 moveto 
1 -1 scale
(900) t 
GR
GR
GS
[0.75 0 0 0.75 226.06579 284.49998] CT
0.149 GC
/Helvetica 13.333 F
GS
[1 0 0 1 0 0] CT
-15 14 moveto 
1 -1 scale
(1100) t 
GR
GR
GS
[0.75 0 0 0.75 260.32894 284.49998] CT
0.149 GC
/Helvetica 13.333 F
GS
[1 0 0 1 0 0] CT
-15 14 moveto 
1 -1 scale
(1300) t 
GR
GR
GS
[0.75 0 0 0.75 294.59209 284.49998] CT
0.149 GC
/Helvetica 13.333 F
GS
[1 0 0 1 0 0] CT
-15 14 moveto 
1 -1 scale
(1500) t 
GR
GR
GS
[0.75 0 0 0.75 328.85527 284.49998] CT
0.149 GC
/Helvetica 13.333 F
GS
[1 0 0 1 0 0] CT
-15 14 moveto 
1 -1 scale
(1700) t 
GR
GR
GS
[0.75 0 0 0.75 363.11842 284.49998] CT
0.149 GC
/Helvetica 13.333 F
GS
[1 0 0 1 0 0] CT
-15 14 moveto 
1 -1 scale
(1900) t 
GR
GR
GS
[0.75 0 0 0.75 217.50014 298.25002] CT
0.149 GC
/Helvetica 14.667 F
GS
[1 0 0 1 0 0] CT
-48.5 15 moveto 
1 -1 scale
(frequency \(Hz\)) t 
GR
GR
GS
[0.75 0 0 0.75 0 0] CT
0.149 GC
2 setlinecap
1 LJ
0.667 LW
N
73 374 M
73 31 L
S
GR
GS
[0.75 0 0 0.75 0 0] CT
0.149 GC
2 setlinecap
1 LJ
0.667 LW
N
507 374 M
507 31 L
S
GR
GS
[0.75 0 0 0.75 0 0] CT
0.149 GC
2 setlinecap
1 LJ
0.667 LW
N
73 374 M
77.34 374 L
S
GR
GS
[0.75 0 0 0.75 0 0] CT
0.149 GC
2 setlinecap
1 LJ
0.667 LW
N
73 335.889 M
77.34 335.889 L
S
GR
GS
[0.75 0 0 0.75 0 0] CT
0.149 GC
2 setlinecap
1 LJ
0.667 LW
N
73 297.778 M
77.34 297.778 L
S
GR
GS
[0.75 0 0 0.75 0 0] CT
0.149 GC
2 setlinecap
1 LJ
0.667 LW
N
73 259.667 M
77.34 259.667 L
S
GR
GS
[0.75 0 0 0.75 0 0] CT
0.149 GC
2 setlinecap
1 LJ
0.667 LW
N
73 221.556 M
77.34 221.556 L
S
GR
GS
[0.75 0 0 0.75 0 0] CT
0.149 GC
2 setlinecap
1 LJ
0.667 LW
N
73 183.444 M
77.34 183.444 L
S
GR
GS
[0.75 0 0 0.75 0 0] CT
0.149 GC
2 setlinecap
1 LJ
0.667 LW
N
73 145.333 M
77.34 145.333 L
S
GR
GS
[0.75 0 0 0.75 0 0] CT
0.149 GC
2 setlinecap
1 LJ
0.667 LW
N
73 107.222 M
77.34 107.222 L
S
GR
GS
[0.75 0 0 0.75 0 0] CT
0.149 GC
2 setlinecap
1 LJ
0.667 LW
N
73 69.111 M
77.34 69.111 L
S
GR
GS
[0.75 0 0 0.75 0 0] CT
0.149 GC
2 setlinecap
1 LJ
0.667 LW
N
73 31 M
77.34 31 L
S
GR
GS
[0.75 0 0 0.75 0 0] CT
0.149 GC
2 setlinecap
1 LJ
0.667 LW
N
507 374 M
502.66 374 L
S
GR
GS
[0.75 0 0 0.75 0 0] CT
0.149 GC
2 setlinecap
1 LJ
0.667 LW
N
507 335.889 M
502.66 335.889 L
S
GR
GS
[0.75 0 0 0.75 0 0] CT
0.149 GC
2 setlinecap
1 LJ
0.667 LW
N
507 297.778 M
502.66 297.778 L
S
GR
GS
[0.75 0 0 0.75 0 0] CT
0.149 GC
2 setlinecap
1 LJ
0.667 LW
N
507 259.667 M
502.66 259.667 L
S
GR
GS
[0.75 0 0 0.75 0 0] CT
0.149 GC
2 setlinecap
1 LJ
0.667 LW
N
507 221.556 M
502.66 221.556 L
S
GR
GS
[0.75 0 0 0.75 0 0] CT
0.149 GC
2 setlinecap
1 LJ
0.667 LW
N
507 183.444 M
502.66 183.444 L
S
GR
GS
[0.75 0 0 0.75 0 0] CT
0.149 GC
2 setlinecap
1 LJ
0.667 LW
N
507 145.333 M
502.66 145.333 L
S
GR
GS
[0.75 0 0 0.75 0 0] CT
0.149 GC
2 setlinecap
1 LJ
0.667 LW
N
507 107.222 M
502.66 107.222 L
S
GR
GS
[0.75 0 0 0.75 0 0] CT
0.149 GC
2 setlinecap
1 LJ
0.667 LW
N
507 69.111 M
502.66 69.111 L
S
GR
GS
[0.75 0 0 0.75 0 0] CT
0.149 GC
2 setlinecap
1 LJ
0.667 LW
N
507 31 M
502.66 31 L
S
GR
GS
[0.75 0 0 0.75 50.75 280.5] CT
0.149 GC
/Helvetica 13.333 F
GS
[1 0 0 1 0 0] CT
-20 5.5 moveto 
1 -1 scale
(-60) t 
GR
GR
GS
[0.75 0 0 0.75 50.75 251.91666] CT
0.149 GC
/Helvetica 13.333 F
GS
[1 0 0 1 0 0] CT
-20 5.5 moveto 
1 -1 scale
(-55) t 
GR
GR
GS
[0.75 0 0 0.75 50.75 223.33333] CT
0.149 GC
/Helvetica 13.333 F
GS
[1 0 0 1 0 0] CT
-20 5.5 moveto 
1 -1 scale
(-50) t 
GR
GR
GS
[0.75 0 0 0.75 50.75 194.74999] CT
0.149 GC
/Helvetica 13.333 F
GS
[1 0 0 1 0 0] CT
-20 5.5 moveto 
1 -1 scale
(-45) t 
GR
GR
GS
[0.75 0 0 0.75 50.75 166.16667] CT
0.149 GC
/Helvetica 13.333 F
GS
[1 0 0 1 0 0] CT
-20 5.5 moveto 
1 -1 scale
(-40) t 
GR
GR
GS
[0.75 0 0 0.75 50.75 137.58333] CT
0.149 GC
/Helvetica 13.333 F
GS
[1 0 0 1 0 0] CT
-20 5.5 moveto 
1 -1 scale
(-35) t 
GR
GR
GS
[0.75 0 0 0.75 50.75 109] CT
0.149 GC
/Helvetica 13.333 F
GS
[1 0 0 1 0 0] CT
-20 5.5 moveto 
1 -1 scale
(-30) t 
GR
GR
GS
[0.75 0 0 0.75 50.75 80.41667] CT
0.149 GC
/Helvetica 13.333 F
GS
[1 0 0 1 0 0] CT
-20 5.5 moveto 
1 -1 scale
(-25) t 
GR
GR
GS
[0.75 0 0 0.75 50.75 51.83334] CT
0.149 GC
/Helvetica 13.333 F
GS
[1 0 0 1 0 0] CT
-20 5.5 moveto 
1 -1 scale
(-20) t 
GR
GR
GS
[0.75 0 0 0.75 50.75 23.25] CT
0.149 GC
/Helvetica 13.333 F
GS
[1 0 0 1 0 0] CT
-20 5.5 moveto 
1 -1 scale
(-15) t 
GR
GR
GS
[0 -0.75 0.75 0 32.75 151.87487] CT
0.149 GC
/Helvetica 14.667 F
GS
[1 0 0 1 0 0] CT
-81.5 -4 moveto 
1 -1 scale
(Normalized PSD \(dB/Hz\)) t 
GR
GR
GS
[0.75 0 0 0.75 217.50021 21.1875] CT
/Helvetica-Bold 14.667 F
GS
[1 0 0 1 0 0] CT
-156 -4 moveto 
1 -1 scale
(Logarithm of Median Power Spectral Density) t 
GR
GR
GS
[0.75 0 0 0.75 0 0] CT
0 0.447 0.741 RC
1 LJ
0.667 LW
N
72.948 56.068 M
73.357 58.27 L
75.141 65.24 L
76.926 80.216 L
78.711 86.248 L
80.495 94.697 L
82.28 102.298 L
84.064 107.982 L
85.849 111.42 L
87.633 113.749 L
89.418 117.882 L
91.202 117.261 L
92.987 124.418 L
94.771 126.528 L
96.556 125.441 L
98.34 130.719 L
100.125 132.25 L
101.91 133.804 L
103.694 138.427 L
105.479 139.115 L
107.263 142.112 L
109.048 139.566 L
110.832 144.191 L
112.617 147.146 L
114.401 147.455 L
116.186 149.632 L
117.97 149.282 L
119.755 154.767 L
121.539 153.371 L
123.324 158.004 L
125.109 153.212 L
126.893 161.948 L
128.678 152.784 L
130.462 168.485 L
132.247 166.209 L
134.031 163.853 L
135.816 166.564 L
137.6 169.535 L
139.385 170.463 L
141.169 174.02 L
142.954 173.06 L
144.738 180.374 L
146.523 178.328 L
148.308 180.573 L
150.092 186.764 L
151.877 185.173 L
153.661 189.132 L
155.446 194.179 L
157.23 192.351 L
159.015 197.904 L
160.799 197.58 L
162.584 198.754 L
164.368 199.273 L
166.153 196.403 L
167.938 202.393 L
169.722 204.23 L
171.507 209.145 L
173.291 216.984 L
175.076 218.824 L
176.86 217.102 L
178.645 214.423 L
180.429 217.559 L
182.214 216.907 L
183.998 220.068 L
185.783 222.873 L
187.567 225.579 L
189.352 228.918 L
191.137 226.936 L
192.921 232.607 L
194.706 231.953 L
196.49 233.434 L
198.275 232.974 L
200.059 235.761 L
201.844 234.288 L
203.628 232.442 L
205.413 236.282 L
207.197 235.89 L
208.982 243.596 L
210.766 245.135 L
212.551 247.773 L
214.336 249.696 L
216.12 248.297 L
217.905 243.99 L
219.689 248.616 L
221.474 248.361 L
223.258 249.615 L
225.043 251.842 L
226.827 249.236 L
228.612 253.987 L
230.396 258.271 L
232.181 255.388 L
233.965 258.08 L
235.75 258.497 L
237.535 258.5 L
239.319 258.989 L
241.104 260.433 L
242.888 262.13 L
244.673 258.465 L
246.457 260.198 L
248.242 263.421 L
250.026 263.676 L
251.811 265.188 L
253.595 266.839 L
255.38 266.337 L
257.164 266.604 L
258.949 263.642 L
260.734 267.532 L
262.518 264.42 L
264.303 264.863 L
266.087 269.115 L
267.872 271.375 L
269.656 267.165 L
271.441 271.148 L
273.225 270.527 L
275.01 270.919 L
276.794 273.26 L
278.579 273.347 L
280.363 270.184 L
282.148 275.211 L
283.933 274.119 L
285.717 275.531 L
287.502 273.778 L
289.286 273.901 L
291.071 277.46 L
292.855 274.716 L
294.64 282.222 L
296.424 279.726 L
298.209 278.767 L
299.993 279.686 L
301.778 279.963 L
303.563 280.261 L
305.347 279.511 L
307.132 282.704 L
308.916 284.138 L
310.701 284.135 L
312.485 287.238 L
314.27 285.019 L
316.054 286.794 L
317.839 285.788 L
319.623 286.42 L
321.408 287.581 L
323.192 288.571 L
324.977 290.306 L
326.762 290.395 L
328.546 289.602 L
330.331 291.363 L
332.115 290.069 L
333.9 292.54 L
335.684 292.09 L
337.469 294.623 L
339.253 293.211 L
341.038 293.483 L
342.822 293.421 L
344.607 294.085 L
346.391 294.709 L
348.176 297.481 L
349.961 296.456 L
351.745 299.68 L
353.53 299.374 L
355.314 296.961 L
357.099 299.162 L
358.883 298.043 L
360.668 300.403 L
362.452 300.592 L
364.237 301.334 L
366.021 299.364 L
367.806 299.394 L
369.59 302.681 L
371.375 302.489 L
373.16 304.553 L
374.944 303.453 L
376.729 302.87 L
378.513 303.512 L
380.298 303.6 L
382.082 302.414 L
383.867 304.021 L
385.651 304.281 L
387.436 305.816 L
389.22 305.409 L
391.005 307.565 L
392.789 307.873 L
394.574 309.033 L
396.359 306.532 L
398.143 307.565 L
399.928 307.811 L
401.712 307.848 L
403.497 307.852 L
405.281 309.674 L
407.066 310.011 L
408.85 307.57 L
410.635 311.484 L
412.419 310.899 L
414.204 309.763 L
415.988 312.715 L
417.773 311.286 L
419.558 313.355 L
421.342 314.702 L
423.127 310.898 L
424.911 311.811 L
426.696 311.529 L
428.48 315.234 L
430.265 315.347 L
432.049 315.388 L
433.834 314.768 L
435.618 315.731 L
437.403 315.403 L
439.188 315.278 L
440.972 312.883 L
442.757 315.591 L
444.541 314.447 L
446.326 317.733 L
448.11 318.177 L
449.895 316.666 L
451.679 319.711 L
453.464 318.761 L
455.248 316.645 L
457.033 316.136 L
458.817 316.914 L
460.602 318.248 L
462.387 316.597 L
464.171 317.926 L
465.956 320.804 L
467.74 321.832 L
469.525 322.125 L
471.309 322.613 L
473.094 320.777 L
474.878 322.27 L
476.663 321.206 L
478.447 322.14 L
480.232 320.986 L
482.016 320.571 L
483.801 322.629 L
485.586 322.217 L
487.37 323.725 L
489.155 326.409 L
490.939 324.112 L
492.724 324.468 L
494.508 323.83 L
496.293 326.175 L
498.077 324.233 L
499.862 324.418 L
501.646 323.932 L
503.431 325.982 L
505.215 326.107 L
507 327.176 L
S
GR
GS
[0.75 0 0 0.75 0 0] CT
0.851 0.325 0.098 RC
1 LJ
0.667 LW
N
72.948 61.35 M
73.357 63.408 L
75.141 72.128 L
76.926 77.018 L
78.711 86.311 L
80.495 91.095 L
82.28 94.988 L
84.064 104.644 L
85.849 106.988 L
87.633 109.624 L
89.418 113.693 L
91.202 119.702 L
92.987 116.093 L
94.771 117.511 L
96.556 123.273 L
98.34 121.681 L
100.125 125.8 L
101.91 125.529 L
103.694 127.252 L
105.479 135.291 L
107.263 136.928 L
109.048 136.217 L
110.832 141.826 L
112.617 145.663 L
114.401 139.82 L
116.186 145.298 L
117.97 144.343 L
119.755 151.747 L
121.539 149.435 L
123.324 150.082 L
125.109 155.611 L
126.893 155.941 L
128.678 157.585 L
130.462 156.635 L
132.247 159.959 L
134.031 170.556 L
135.816 173.108 L
137.6 166.401 L
139.385 168.427 L
141.169 172.456 L
142.954 172.041 L
144.738 175.003 L
146.523 176.182 L
148.308 181.572 L
150.092 177.773 L
151.877 189.944 L
153.661 181.592 L
155.446 187.225 L
157.23 193.926 L
159.015 191.416 L
160.799 187.043 L
162.584 191.565 L
164.368 194.979 L
166.153 194.927 L
167.938 196.829 L
169.722 202.406 L
171.507 195.196 L
173.291 194.503 L
175.076 191.011 L
176.86 196.958 L
178.645 204.58 L
180.429 200.744 L
182.214 202.662 L
183.998 201.917 L
185.783 206.967 L
187.567 215.125 L
189.352 209.382 L
191.137 214.592 L
192.921 220.921 L
194.706 220.662 L
196.49 212.63 L
198.275 223.615 L
200.059 223.033 L
201.844 218.343 L
203.628 220.07 L
205.413 230.253 L
207.197 231.79 L
208.982 232.865 L
210.766 234.223 L
212.551 238.723 L
214.336 239.294 L
216.12 240.184 L
217.905 246.964 L
219.689 241.676 L
221.474 248.598 L
223.258 248.358 L
225.043 249.507 L
226.827 250.758 L
228.612 258.425 L
230.396 255.283 L
232.181 252.967 L
233.965 264.298 L
235.75 256.709 L
237.535 255.187 L
239.319 261.675 L
241.104 264.653 L
242.888 260.686 L
244.673 262.952 L
246.457 267.224 L
248.242 269.643 L
250.026 271.387 L
251.811 272.136 L
253.595 271.766 L
255.38 264.995 L
257.164 269.266 L
258.949 270.895 L
260.734 269.585 L
262.518 278.891 L
264.303 276.684 L
266.087 271.781 L
267.872 276.785 L
269.656 281.816 L
271.441 280.603 L
273.225 278.9 L
275.01 276.179 L
276.794 282.169 L
278.579 280.276 L
280.363 284.422 L
282.148 284.757 L
283.933 283.605 L
285.717 287.021 L
287.502 286.485 L
289.286 287.793 L
291.071 287.106 L
292.855 288.955 L
294.64 288.319 L
296.424 290.966 L
298.209 289.926 L
299.993 290.85 L
301.778 293.067 L
303.563 292.879 L
305.347 292.005 L
307.132 302.538 L
308.916 297.52 L
310.701 294.254 L
312.485 295.932 L
314.27 295.22 L
316.054 297.554 L
317.839 298.082 L
319.623 297.274 L
321.408 299.318 L
323.192 299.178 L
324.977 299.876 L
326.762 302.181 L
328.546 299.949 L
330.331 302.745 L
332.115 301.045 L
333.9 300.518 L
335.684 301.219 L
337.469 301.462 L
339.253 300.723 L
341.038 302.833 L
342.822 304.766 L
344.607 309.366 L
346.391 310.306 L
348.176 310.182 L
349.961 308.608 L
351.745 305.418 L
353.53 307.16 L
355.314 307.507 L
357.099 309.251 L
358.883 310.275 L
360.668 313.934 L
362.452 313.621 L
364.237 317.975 L
366.021 315.837 L
367.806 317.061 L
369.59 315.391 L
371.375 311.167 L
373.16 312.16 L
374.944 315.031 L
376.729 314.754 L
378.513 315.64 L
380.298 318.664 L
382.082 320.297 L
383.867 323.637 L
385.651 319.7 L
387.436 319.087 L
389.22 318.351 L
391.005 317.682 L
392.789 318.897 L
394.574 318.054 L
396.359 321.745 L
398.143 321.443 L
399.928 325.636 L
401.712 324.654 L
403.497 326.171 L
405.281 327.023 L
407.066 323.077 L
408.85 321.597 L
410.635 321.156 L
412.419 320.94 L
414.204 321.224 L
415.988 322.11 L
417.773 324.12 L
419.558 329.055 L
421.342 330.389 L
423.127 328.457 L
424.911 328.534 L
426.696 325.236 L
428.48 325.469 L
430.265 323.895 L
432.049 326.708 L
433.834 325.828 L
435.618 330.225 L
437.403 329.313 L
439.188 333.026 L
440.972 331.127 L
442.757 331.395 L
444.541 330.234 L
446.326 327.268 L
448.11 328.261 L
449.895 329.917 L
451.679 328.415 L
453.464 330.868 L
455.248 331.421 L
457.033 333.233 L
458.817 335.381 L
460.602 336.02 L
462.387 335.655 L
464.171 333.153 L
465.956 331.604 L
467.74 333.529 L
469.525 333.11 L
471.309 331.158 L
473.094 334.432 L
474.878 336.544 L
476.663 339.452 L
478.447 337.952 L
480.232 340.643 L
482.016 337.416 L
483.801 335.833 L
485.586 334.343 L
487.37 333.586 L
489.155 334.259 L
490.939 335.97 L
492.724 334.73 L
494.508 341.008 L
496.293 339.105 L
498.077 341.142 L
499.862 340.698 L
501.646 339.156 L
503.431 335.794 L
505.215 334.417 L
507 334.897 L
S
GR
GS
[0.75 0 0 0.75 0 0] CT
1 GC
N
496 78 M
496 42 L
400 42 L
400 78 L
cp
f
GR
GS
[0.75 0 0 0.75 335.25 38.89726] CT
/Helvetica 12 F
GS
[1 0 0 1 0 0] CT
0 5 moveto 
1 -1 scale
(pre term) t 
GR
GR
GS
[0.75 0 0 0.75 0 0] CT
0 0.447 0.741 RC
1 LJ
0.667 LW
N
404 51.863 M
444 51.863 L
S
GR
GS
[0.75 0 0 0.75 335.25 51.10274] CT
/Helvetica 12 F
GS
[1 0 0 1 0 0] CT
0 5 moveto 
1 -1 scale
(full term) t 
GR
GR
GS
[0.75 0 0 0.75 0 0] CT
0.851 0.325 0.098 RC
1 LJ
0.667 LW
N
404 68.137 M
444 68.137 L
S
GR
GS
[0.75 0 0 0.75 0 0] CT
0.149 GC
10.0 ML
0.667 LW
N
400 78 M
400 42 L
496 42 L
496 78 L
cp
S
GR
%%Trailer
%%Pages: 1
%%EOF
