%!PS-Adobe-3.0 EPSF-3.0
%%Creator: (MATLAB, The Mathworks, Inc. Version 9.5.0.944444 \(R2018b\). Operating System: Windows 10)
%%Title: ../results/log_med_psd_intqrtl.eps
%%CreationDate: 2020-02-15T18:55:39
%%Pages: (atend)
%%BoundingBox:    21     3   381   306
%%LanguageLevel: 3
%%EndComments
%%BeginProlog
%%BeginResource: procset (Apache XML Graphics Std ProcSet) 1.2 0
%%Version: 1.2 0
%%Copyright: (Copyright 2001-2003,2010 The Apache Software Foundation. License terms: http://www.apache.org/licenses/LICENSE-2.0)
/bd{bind def}bind def
/ld{load def}bd
/GR/grestore ld
/GS/gsave ld
/RM/rmoveto ld
/C/curveto ld
/t/show ld
/L/lineto ld
/ML/setmiterlimit ld
/CT/concat ld
/f/fill ld
/N/newpath ld
/S/stroke ld
/CC/setcmykcolor ld
/A/ashow ld
/cp/closepath ld
/RC/setrgbcolor ld
/LJ/setlinejoin ld
/GC/setgray ld
/LW/setlinewidth ld
/M/moveto ld
/re {4 2 roll M
1 index 0 rlineto
0 exch rlineto
neg 0 rlineto
cp } bd
/_ctm matrix def
/_tm matrix def
/BT { _ctm currentmatrix pop matrix _tm copy pop 0 0 moveto } bd
/ET { _ctm setmatrix } bd
/iTm { _ctm setmatrix _tm concat } bd
/Tm { _tm astore pop iTm 0 0 moveto } bd
/ux 0.0 def
/uy 0.0 def
/F {
  /Tp exch def
  /Tf exch def
  Tf findfont Tp scalefont setfont
  /cf Tf def  /cs Tp def
} bd
/ULS {currentpoint /uy exch def /ux exch def} bd
/ULE {
  /Tcx currentpoint pop def
  gsave
  newpath
  cf findfont cs scalefont dup
  /FontMatrix get 0 get /Ts exch def /FontInfo get dup
  /UnderlinePosition get Ts mul /To exch def
  /UnderlineThickness get Ts mul /Tt exch def
  ux uy To add moveto  Tcx uy To add lineto
  Tt setlinewidth stroke
  grestore
} bd
/OLE {
  /Tcx currentpoint pop def
  gsave
  newpath
  cf findfont cs scalefont dup
  /FontMatrix get 0 get /Ts exch def /FontInfo get dup
  /UnderlinePosition get Ts mul /To exch def
  /UnderlineThickness get Ts mul /Tt exch def
  ux uy To add cs add moveto Tcx uy To add cs add lineto
  Tt setlinewidth stroke
  grestore
} bd
/SOE {
  /Tcx currentpoint pop def
  gsave
  newpath
  cf findfont cs scalefont dup
  /FontMatrix get 0 get /Ts exch def /FontInfo get dup
  /UnderlinePosition get Ts mul /To exch def
  /UnderlineThickness get Ts mul /Tt exch def
  ux uy To add cs 10 mul 26 idiv add moveto Tcx uy To add cs 10 mul 26 idiv add lineto
  Tt setlinewidth stroke
  grestore
} bd
/QT {
/Y22 exch store
/X22 exch store
/Y21 exch store
/X21 exch store
currentpoint
/Y21 load 2 mul add 3 div exch
/X21 load 2 mul add 3 div exch
/X21 load 2 mul /X22 load add 3 div
/Y21 load 2 mul /Y22 load add 3 div
/X22 load /Y22 load curveto
} bd
/SSPD {
dup length /d exch dict def
{
/v exch def
/k exch def
currentpagedevice k known {
/cpdv currentpagedevice k get def
v cpdv ne {
/upd false def
/nullv v type /nulltype eq def
/nullcpdv cpdv type /nulltype eq def
nullv nullcpdv or
{
/upd true def
} {
/sametype v type cpdv type eq def
sametype {
v type /arraytype eq {
/vlen v length def
/cpdvlen cpdv length def
vlen cpdvlen eq {
0 1 vlen 1 sub {
/i exch def
/obj v i get def
/cpdobj cpdv i get def
obj cpdobj ne {
/upd true def
exit
} if
} for
} {
/upd true def
} ifelse
} {
v type /dicttype eq {
v {
/dv exch def
/dk exch def
/cpddv cpdv dk get def
dv cpddv ne {
/upd true def
exit
} if
} forall
} {
/upd true def
} ifelse
} ifelse
} if
} ifelse
upd true eq {
d k v put
} if
} if
} if
} forall
d length 0 gt {
d setpagedevice
} if
} bd
/RE { % /NewFontName [NewEncodingArray] /FontName RE -
  findfont dup length dict begin
  {
    1 index /FID ne
    {def} {pop pop} ifelse
  } forall
  /Encoding exch def
  /FontName 1 index def
  currentdict definefont pop
  end
} bind def
%%EndResource
%%BeginResource: procset (Apache XML Graphics EPS ProcSet) 1.0 0
%%Version: 1.0 0
%%Copyright: (Copyright 2002-2003 The Apache Software Foundation. License terms: http://www.apache.org/licenses/LICENSE-2.0)
/BeginEPSF { %def
/b4_Inc_state save def         % Save state for cleanup
/dict_count countdictstack def % Count objects on dict stack
/op_count count 1 sub def      % Count objects on operand stack
userdict begin                 % Push userdict on dict stack
/showpage { } def              % Redefine showpage, { } = null proc
0 setgray 0 setlinecap         % Prepare graphics state
1 setlinewidth 0 setlinejoin
10 setmiterlimit [ ] 0 setdash newpath
/languagelevel where           % If level not equal to 1 then
{pop languagelevel             % set strokeadjust and
1 ne                           % overprint to their defaults.
{false setstrokeadjust false setoverprint
} if
} if
} bd
/EndEPSF { %def
count op_count sub {pop} repeat            % Clean up stacks
countdictstack dict_count sub {end} repeat
b4_Inc_state restore
} bd
%%EndResource
%FOPBeginFontDict
%%IncludeResource: font Courier-Oblique
%%IncludeResource: font Courier-BoldOblique
%%IncludeResource: font Courier-Bold
%%IncludeResource: font ZapfDingbats
%%IncludeResource: font Symbol
%%IncludeResource: font Helvetica
%%IncludeResource: font Helvetica-Oblique
%%IncludeResource: font Helvetica-Bold
%%IncludeResource: font Helvetica-BoldOblique
%%IncludeResource: font Times-Roman
%%IncludeResource: font Times-Italic
%%IncludeResource: font Times-Bold
%%IncludeResource: font Times-BoldItalic
%%IncludeResource: font Courier
%FOPEndFontDict
%%BeginResource: encoding WinAnsiEncoding
/WinAnsiEncoding [
/.notdef /.notdef /.notdef /.notdef /.notdef
/.notdef /.notdef /.notdef /.notdef /.notdef
/.notdef /.notdef /.notdef /.notdef /.notdef
/.notdef /.notdef /.notdef /.notdef /.notdef
/.notdef /.notdef /.notdef /.notdef /.notdef
/.notdef /.notdef /.notdef /.notdef /.notdef
/.notdef /.notdef /space /exclam /quotedbl
/numbersign /dollar /percent /ampersand /quotesingle
/parenleft /parenright /asterisk /plus /comma
/hyphen /period /slash /zero /one
/two /three /four /five /six
/seven /eight /nine /colon /semicolon
/less /equal /greater /question /at
/A /B /C /D /E
/F /G /H /I /J
/K /L /M /N /O
/P /Q /R /S /T
/U /V /W /X /Y
/Z /bracketleft /backslash /bracketright /asciicircum
/underscore /quoteleft /a /b /c
/d /e /f /g /h
/i /j /k /l /m
/n /o /p /q /r
/s /t /u /v /w
/x /y /z /braceleft /bar
/braceright /asciitilde /bullet /Euro /bullet
/quotesinglbase /florin /quotedblbase /ellipsis /dagger
/daggerdbl /circumflex /perthousand /Scaron /guilsinglleft
/OE /bullet /Zcaron /bullet /bullet
/quoteleft /quoteright /quotedblleft /quotedblright /bullet
/endash /emdash /asciitilde /trademark /scaron
/guilsinglright /oe /bullet /zcaron /Ydieresis
/space /exclamdown /cent /sterling /currency
/yen /brokenbar /section /dieresis /copyright
/ordfeminine /guillemotleft /logicalnot /sfthyphen /registered
/macron /degree /plusminus /twosuperior /threesuperior
/acute /mu /paragraph /middot /cedilla
/onesuperior /ordmasculine /guillemotright /onequarter /onehalf
/threequarters /questiondown /Agrave /Aacute /Acircumflex
/Atilde /Adieresis /Aring /AE /Ccedilla
/Egrave /Eacute /Ecircumflex /Edieresis /Igrave
/Iacute /Icircumflex /Idieresis /Eth /Ntilde
/Ograve /Oacute /Ocircumflex /Otilde /Odieresis
/multiply /Oslash /Ugrave /Uacute /Ucircumflex
/Udieresis /Yacute /Thorn /germandbls /agrave
/aacute /acircumflex /atilde /adieresis /aring
/ae /ccedilla /egrave /eacute /ecircumflex
/edieresis /igrave /iacute /icircumflex /idieresis
/eth /ntilde /ograve /oacute /ocircumflex
/otilde /odieresis /divide /oslash /ugrave
/uacute /ucircumflex /udieresis /yacute /thorn
/ydieresis
] def
%%EndResource
%FOPBeginFontReencode
/Courier-Oblique findfont
dup length dict begin
  {1 index /FID ne {def} {pop pop} ifelse} forall
  /Encoding WinAnsiEncoding def
  currentdict
end
/Courier-Oblique exch definefont pop
/Courier-BoldOblique findfont
dup length dict begin
  {1 index /FID ne {def} {pop pop} ifelse} forall
  /Encoding WinAnsiEncoding def
  currentdict
end
/Courier-BoldOblique exch definefont pop
/Courier-Bold findfont
dup length dict begin
  {1 index /FID ne {def} {pop pop} ifelse} forall
  /Encoding WinAnsiEncoding def
  currentdict
end
/Courier-Bold exch definefont pop
/Helvetica findfont
dup length dict begin
  {1 index /FID ne {def} {pop pop} ifelse} forall
  /Encoding WinAnsiEncoding def
  currentdict
end
/Helvetica exch definefont pop
/Helvetica-Oblique findfont
dup length dict begin
  {1 index /FID ne {def} {pop pop} ifelse} forall
  /Encoding WinAnsiEncoding def
  currentdict
end
/Helvetica-Oblique exch definefont pop
/Helvetica-Bold findfont
dup length dict begin
  {1 index /FID ne {def} {pop pop} ifelse} forall
  /Encoding WinAnsiEncoding def
  currentdict
end
/Helvetica-Bold exch definefont pop
/Helvetica-BoldOblique findfont
dup length dict begin
  {1 index /FID ne {def} {pop pop} ifelse} forall
  /Encoding WinAnsiEncoding def
  currentdict
end
/Helvetica-BoldOblique exch definefont pop
/Times-Roman findfont
dup length dict begin
  {1 index /FID ne {def} {pop pop} ifelse} forall
  /Encoding WinAnsiEncoding def
  currentdict
end
/Times-Roman exch definefont pop
/Times-Italic findfont
dup length dict begin
  {1 index /FID ne {def} {pop pop} ifelse} forall
  /Encoding WinAnsiEncoding def
  currentdict
end
/Times-Italic exch definefont pop
/Times-Bold findfont
dup length dict begin
  {1 index /FID ne {def} {pop pop} ifelse} forall
  /Encoding WinAnsiEncoding def
  currentdict
end
/Times-Bold exch definefont pop
/Times-BoldItalic findfont
dup length dict begin
  {1 index /FID ne {def} {pop pop} ifelse} forall
  /Encoding WinAnsiEncoding def
  currentdict
end
/Times-BoldItalic exch definefont pop
/Courier findfont
dup length dict begin
  {1 index /FID ne {def} {pop pop} ifelse} forall
  /Encoding WinAnsiEncoding def
  currentdict
end
/Courier exch definefont pop
%FOPEndFontReencode
%%EndProlog
%%Page: 1 1
%%PageBoundingBox: 0 0 420 315
%%BeginPageSetup
[1 0 0 -1 0 315] CT
%%EndPageSetup
GS
[0.75 0 0 0.75 0 0] CT
1 GC
N
0 0 560 420 re
f
GR
GS
[0.75 0 0 0.75 0 0] CT
1 GC
N
0 0 560 420 re
f
GR
GS
[0.75 0 0 0.75 0 0] CT
1 GC
N
73 374 M
507 374 L
507 31 L
73 31 L
cp
f
GR
GS
[0.75 0 0 0.75 0 0] CT
0.149 GC
2 setlinecap
1 LJ
0.667 LW
N
73 374 M
507 374 L
S
GR
GS
[0.75 0 0 0.75 0 0] CT
0.149 GC
2 setlinecap
1 LJ
0.667 LW
N
73 374 M
73 369.66 L
S
GR
GS
[0.75 0 0 0.75 0 0] CT
0.149 GC
2 setlinecap
1 LJ
0.667 LW
N
118.684 374 M
118.684 369.66 L
S
GR
GS
[0.75 0 0 0.75 0 0] CT
0.149 GC
2 setlinecap
1 LJ
0.667 LW
N
164.368 374 M
164.368 369.66 L
S
GR
GS
[0.75 0 0 0.75 0 0] CT
0.149 GC
2 setlinecap
1 LJ
0.667 LW
N
210.053 374 M
210.053 369.66 L
S
GR
GS
[0.75 0 0 0.75 0 0] CT
0.149 GC
2 setlinecap
1 LJ
0.667 LW
N
255.737 374 M
255.737 369.66 L
S
GR
GS
[0.75 0 0 0.75 0 0] CT
0.149 GC
2 setlinecap
1 LJ
0.667 LW
N
301.421 374 M
301.421 369.66 L
S
GR
GS
[0.75 0 0 0.75 0 0] CT
0.149 GC
2 setlinecap
1 LJ
0.667 LW
N
347.105 374 M
347.105 369.66 L
S
GR
GS
[0.75 0 0 0.75 0 0] CT
0.149 GC
2 setlinecap
1 LJ
0.667 LW
N
392.789 374 M
392.789 369.66 L
S
GR
GS
[0.75 0 0 0.75 0 0] CT
0.149 GC
2 setlinecap
1 LJ
0.667 LW
N
438.474 374 M
438.474 369.66 L
S
GR
GS
[0.75 0 0 0.75 0 0] CT
0.149 GC
2 setlinecap
1 LJ
0.667 LW
N
484.158 374 M
484.158 369.66 L
S
GR
GS
[0.75 0 0 0.75 54.75 284.49998] CT
0.149 GC
/Helvetica 13.333 F
GS
[1 0 0 1 0 0] CT
-11.5 14 moveto 
1 -1 scale
(100) t 
GR
GR
GS
[0.75 0 0 0.75 89.01316 284.49998] CT
0.149 GC
/Helvetica 13.333 F
GS
[1 0 0 1 0 0] CT
-11.5 14 moveto 
1 -1 scale
(300) t 
GR
GR
GS
[0.75 0 0 0.75 123.27632 284.49998] CT
0.149 GC
/Helvetica 13.333 F
GS
[1 0 0 1 0 0] CT
-11.5 14 moveto 
1 -1 scale
(500) t 
GR
GR
GS
[0.75 0 0 0.75 157.53947 284.49998] CT
0.149 GC
/Helvetica 13.333 F
GS
[1 0 0 1 0 0] CT
-11.5 14 moveto 
1 -1 scale
(700) t 
GR
GR
GS
[0.75 0 0 0.75 191.80264 284.49998] CT
0.149 GC
/Helvetica 13.333 F
GS
[1 0 0 1 0 0] CT
-11.5 14 moveto 
1 -1 scale
(900) t 
GR
GR
GS
[0.75 0 0 0.75 226.06579 284.49998] CT
0.149 GC
/Helvetica 13.333 F
GS
[1 0 0 1 0 0] CT
-15 14 moveto 
1 -1 scale
(1100) t 
GR
GR
GS
[0.75 0 0 0.75 260.32894 284.49998] CT
0.149 GC
/Helvetica 13.333 F
GS
[1 0 0 1 0 0] CT
-15 14 moveto 
1 -1 scale
(1300) t 
GR
GR
GS
[0.75 0 0 0.75 294.59209 284.49998] CT
0.149 GC
/Helvetica 13.333 F
GS
[1 0 0 1 0 0] CT
-15 14 moveto 
1 -1 scale
(1500) t 
GR
GR
GS
[0.75 0 0 0.75 328.85527 284.49998] CT
0.149 GC
/Helvetica 13.333 F
GS
[1 0 0 1 0 0] CT
-15 14 moveto 
1 -1 scale
(1700) t 
GR
GR
GS
[0.75 0 0 0.75 363.11842 284.49998] CT
0.149 GC
/Helvetica 13.333 F
GS
[1 0 0 1 0 0] CT
-15 14 moveto 
1 -1 scale
(1900) t 
GR
GR
GS
[0.75 0 0 0.75 217.50014 298.25002] CT
0.149 GC
/Helvetica 14.667 F
GS
[1 0 0 1 0 0] CT
-48.5 15 moveto 
1 -1 scale
(frequency \(Hz\)) t 
GR
GR
GS
[0.75 0 0 0.75 0 0] CT
0.149 GC
2 setlinecap
1 LJ
0.667 LW
N
73 374 M
73 31 L
S
GR
GS
[0.75 0 0 0.75 0 0] CT
0.149 GC
2 setlinecap
1 LJ
0.667 LW
N
73 374 M
77.34 374 L
S
GR
GS
[0.75 0 0 0.75 0 0] CT
0.149 GC
2 setlinecap
1 LJ
0.667 LW
N
73 335.889 M
77.34 335.889 L
S
GR
GS
[0.75 0 0 0.75 0 0] CT
0.149 GC
2 setlinecap
1 LJ
0.667 LW
N
73 297.778 M
77.34 297.778 L
S
GR
GS
[0.75 0 0 0.75 0 0] CT
0.149 GC
2 setlinecap
1 LJ
0.667 LW
N
73 259.667 M
77.34 259.667 L
S
GR
GS
[0.75 0 0 0.75 0 0] CT
0.149 GC
2 setlinecap
1 LJ
0.667 LW
N
73 221.556 M
77.34 221.556 L
S
GR
GS
[0.75 0 0 0.75 0 0] CT
0.149 GC
2 setlinecap
1 LJ
0.667 LW
N
73 183.444 M
77.34 183.444 L
S
GR
GS
[0.75 0 0 0.75 0 0] CT
0.149 GC
2 setlinecap
1 LJ
0.667 LW
N
73 145.333 M
77.34 145.333 L
S
GR
GS
[0.75 0 0 0.75 0 0] CT
0.149 GC
2 setlinecap
1 LJ
0.667 LW
N
73 107.222 M
77.34 107.222 L
S
GR
GS
[0.75 0 0 0.75 0 0] CT
0.149 GC
2 setlinecap
1 LJ
0.667 LW
N
73 69.111 M
77.34 69.111 L
S
GR
GS
[0.75 0 0 0.75 0 0] CT
0.149 GC
2 setlinecap
1 LJ
0.667 LW
N
73 31 M
77.34 31 L
S
GR
GS
[0.75 0 0 0.75 50.75 280.5] CT
0.149 GC
/Helvetica 13.333 F
GS
[1 0 0 1 0 0] CT
-20 5.5 moveto 
1 -1 scale
(-60) t 
GR
GR
GS
[0.75 0 0 0.75 50.75 251.91666] CT
0.149 GC
/Helvetica 13.333 F
GS
[1 0 0 1 0 0] CT
-20 5.5 moveto 
1 -1 scale
(-55) t 
GR
GR
GS
[0.75 0 0 0.75 50.75 223.33333] CT
0.149 GC
/Helvetica 13.333 F
GS
[1 0 0 1 0 0] CT
-20 5.5 moveto 
1 -1 scale
(-50) t 
GR
GR
GS
[0.75 0 0 0.75 50.75 194.74999] CT
0.149 GC
/Helvetica 13.333 F
GS
[1 0 0 1 0 0] CT
-20 5.5 moveto 
1 -1 scale
(-45) t 
GR
GR
GS
[0.75 0 0 0.75 50.75 166.16667] CT
0.149 GC
/Helvetica 13.333 F
GS
[1 0 0 1 0 0] CT
-20 5.5 moveto 
1 -1 scale
(-40) t 
GR
GR
GS
[0.75 0 0 0.75 50.75 137.58333] CT
0.149 GC
/Helvetica 13.333 F
GS
[1 0 0 1 0 0] CT
-20 5.5 moveto 
1 -1 scale
(-35) t 
GR
GR
GS
[0.75 0 0 0.75 50.75 109] CT
0.149 GC
/Helvetica 13.333 F
GS
[1 0 0 1 0 0] CT
-20 5.5 moveto 
1 -1 scale
(-30) t 
GR
GR
GS
[0.75 0 0 0.75 50.75 80.41667] CT
0.149 GC
/Helvetica 13.333 F
GS
[1 0 0 1 0 0] CT
-20 5.5 moveto 
1 -1 scale
(-25) t 
GR
GR
GS
[0.75 0 0 0.75 50.75 51.83334] CT
0.149 GC
/Helvetica 13.333 F
GS
[1 0 0 1 0 0] CT
-20 5.5 moveto 
1 -1 scale
(-20) t 
GR
GR
GS
[0.75 0 0 0.75 50.75 23.25] CT
0.149 GC
/Helvetica 13.333 F
GS
[1 0 0 1 0 0] CT
-20 5.5 moveto 
1 -1 scale
(-15) t 
GR
GR
GS
[0 -0.75 0.75 0 32.75 151.87487] CT
0.149 GC
/Helvetica 14.667 F
GS
[1 0 0 1 0 0] CT
-81.5 -4 moveto 
1 -1 scale
(Normalized PSD \(dB/Hz\)) t 
GR
GR
GS
[0.75 0 0 0.75 217.50021 21.1875] CT
/Helvetica-Bold 14.667 F
GS
[1 0 0 1 0 0] CT
-81.5 -4 moveto 
1 -1 scale
(Power Spectral Density) t 
GR
GR
GS
[0.75 0 0 0.75 0 0] CT
0.8 0.8 1 RC
N
248.242 270.796 M
250.026 274.968 L
251.811 275.037 L
253.595 270.174 L
255.38 272.706 L
257.164 276.625 L
258.949 272.076 L
260.734 275.046 L
262.518 274.954 L
264.303 272.76 L
266.087 277.739 L
267.872 276.633 L
269.656 277.774 L
271.441 281.339 L
273.225 280.431 L
275.01 278.303 L
276.794 283.87 L
278.579 283.871 L
280.363 280.819 L
282.148 279.859 L
283.933 281.156 L
285.717 283.81 L
287.502 281.258 L
289.286 286.376 L
291.071 288.748 L
292.855 281.768 L
294.64 286.169 L
296.424 289.373 L
298.209 288.427 L
299.993 287.851 L
301.778 287.275 L
303.563 290.791 L
305.347 292.723 L
307.132 292.533 L
308.916 293.335 L
310.701 289.166 L
312.485 294.688 L
314.27 294.051 L
316.054 296.77 L
317.839 296.785 L
319.623 294.045 L
321.408 294.128 L
323.192 295.438 L
324.977 295.228 L
326.762 300.234 L
328.546 299.888 L
330.331 297.775 L
332.115 298.3 L
333.9 296.063 L
335.684 298.472 L
337.469 301.567 L
339.253 302.855 L
341.038 301.696 L
342.822 305.259 L
344.607 303.301 L
346.391 302.577 L
348.176 302.778 L
349.961 304.105 L
351.745 309.218 L
353.53 308.53 L
355.314 309.457 L
357.099 308.781 L
358.883 304.313 L
360.668 312.452 L
362.452 309.263 L
364.237 311.808 L
366.021 310.472 L
367.806 311.722 L
369.59 314.02 L
371.375 312.002 L
373.16 312.35 L
374.944 310.061 L
376.729 311.576 L
378.513 312.193 L
380.298 316.17 L
382.082 314.016 L
383.867 315.936 L
385.651 321.846 L
387.436 318.075 L
389.22 312.799 L
391.005 317.636 L
392.789 317.259 L
394.574 319.036 L
396.359 315.908 L
398.143 317.318 L
399.928 321.128 L
401.712 321.74 L
403.497 317.911 L
405.281 317.966 L
407.066 317.493 L
408.85 319.11 L
410.635 322.246 L
412.419 323.007 L
414.204 318.043 L
415.988 324.046 L
417.773 323.116 L
419.558 322.628 L
421.342 321.108 L
423.127 323.663 L
424.911 322.94 L
426.696 324.295 L
428.48 325.294 L
430.265 320.484 L
432.049 325.916 L
433.834 323.818 L
435.618 326.44 L
437.403 330.815 L
439.188 328.839 L
440.972 333.514 L
442.757 327.233 L
444.541 328.546 L
446.326 324.823 L
448.11 325.958 L
449.895 328.363 L
451.679 328.901 L
453.464 329.502 L
455.248 327.009 L
457.033 331.639 L
458.817 332.373 L
460.602 334.221 L
462.387 330.01 L
464.171 330.694 L
465.956 330.682 L
467.74 327.98 L
469.525 331.646 L
471.309 328.997 L
473.094 332.903 L
474.878 334.697 L
476.663 336.372 L
478.447 335.437 L
480.232 335.055 L
482.016 335.671 L
483.801 334.346 L
485.586 331.695 L
487.37 332.973 L
489.155 333.528 L
490.939 334.913 L
492.724 334.146 L
494.508 338.635 L
496.293 337.522 L
498.077 341.447 L
499.862 340.004 L
501.646 339.238 L
503.431 338.287 L
505.215 335.964 L
507 336.247 L
507 310.754 L
505.215 310.494 L
503.431 310.394 L
501.646 303.012 L
499.862 311.922 L
498.077 309.054 L
496.293 309.473 L
494.508 305.863 L
492.724 301.86 L
490.939 306.721 L
489.155 308.348 L
487.37 308.658 L
485.586 307.13 L
483.801 307.961 L
482.016 307.201 L
480.232 305.844 L
478.447 310.452 L
476.663 306.242 L
474.878 306.474 L
473.094 308.328 L
471.309 304.604 L
469.525 305.104 L
467.74 301.368 L
465.956 304.69 L
464.171 306.714 L
462.387 307.949 L
460.602 305.011 L
458.817 308.357 L
457.033 308.99 L
455.248 301.375 L
453.464 300.321 L
451.679 301.1 L
449.895 302.396 L
448.11 300.79 L
446.326 300.889 L
444.541 301.156 L
442.757 303.307 L
440.972 303.562 L
439.188 304.587 L
437.403 308.247 L
435.618 299.702 L
433.834 304.271 L
432.049 300.126 L
430.265 298.812 L
428.48 296.893 L
426.696 301.077 L
424.911 298.692 L
423.127 297.98 L
421.342 299.952 L
419.558 298.993 L
417.773 294.044 L
415.988 297.53 L
414.204 294.183 L
412.419 295.848 L
410.635 295.519 L
408.85 290.166 L
407.066 295.466 L
405.281 296.577 L
403.497 294.518 L
401.712 297.962 L
399.928 297.338 L
398.143 299.091 L
396.359 292.849 L
394.574 291.017 L
392.789 288.181 L
391.005 289.444 L
389.22 291.544 L
387.436 294.454 L
385.651 297.536 L
383.867 297.017 L
382.082 295.587 L
380.298 296.799 L
378.513 290.009 L
376.729 288.427 L
374.944 287.406 L
373.16 285.116 L
371.375 287.908 L
369.59 286.632 L
367.806 293.403 L
366.021 293.151 L
364.237 293.144 L
362.452 292.522 L
360.668 288.678 L
358.883 284.886 L
357.099 281.821 L
355.314 281.12 L
353.53 279.962 L
351.745 284.387 L
349.961 286.808 L
348.176 290.119 L
346.391 287.748 L
344.607 287.531 L
342.822 286.535 L
341.038 287.465 L
339.253 280.8 L
337.469 279.176 L
335.684 279.734 L
333.9 278.567 L
332.115 281.723 L
330.331 282.251 L
328.546 281.964 L
326.762 280.853 L
324.977 282.941 L
323.192 281.968 L
321.408 280.104 L
319.623 273.959 L
317.839 274.473 L
316.054 274.006 L
314.27 274.097 L
312.485 275.109 L
310.701 279.492 L
308.916 278.383 L
307.132 276.563 L
305.347 273.445 L
303.563 275.328 L
301.778 272.894 L
299.993 269.882 L
298.209 270.584 L
296.424 265.836 L
294.64 267.476 L
292.855 269.87 L
291.071 268.826 L
289.286 267.529 L
287.502 266.819 L
285.717 268.548 L
283.933 267.083 L
282.148 263.696 L
280.363 262.755 L
278.579 258.217 L
276.794 261.783 L
275.01 264.592 L
273.225 258.285 L
271.441 261.427 L
269.656 262.842 L
267.872 260.825 L
266.087 260.401 L
264.303 258.045 L
262.518 257.458 L
260.734 253.789 L
258.949 254.413 L
257.164 254.307 L
255.38 258.458 L
253.595 255.738 L
251.811 256.545 L
250.026 255.607 L
248.242 257.54 L
246.457 252.829 L
244.673 256.308 L
242.888 251.172 L
241.104 248.09 L
239.319 248.006 L
237.535 245.436 L
235.75 249.031 L
233.965 246.526 L
232.181 249.453 L
230.396 249.884 L
228.612 241.459 L
226.827 241.253 L
225.043 239.778 L
223.258 237.981 L
221.474 241.434 L
219.689 237.297 L
217.905 235.329 L
216.12 238.755 L
214.336 234.083 L
212.551 235.81 L
210.766 235.534 L
208.982 232.651 L
207.197 228.948 L
205.413 229.325 L
203.628 228.77 L
201.844 227.593 L
200.059 220.731 L
198.275 223.084 L
196.49 226.76 L
194.706 224.993 L
192.921 223.122 L
191.137 219.114 L
189.352 216.88 L
187.567 213.454 L
185.783 212.253 L
183.998 214.102 L
182.214 210.979 L
180.429 212.247 L
178.645 208.98 L
176.86 199.351 L
175.076 204.43 L
173.291 204.949 L
171.507 202.802 L
169.722 194.536 L
167.938 191.942 L
166.153 188.534 L
164.368 187.791 L
162.584 190.992 L
160.799 189.387 L
159.015 184.484 L
157.23 184.555 L
155.446 185.069 L
153.661 177.627 L
151.877 175.866 L
150.092 174.545 L
148.308 171.87 L
146.523 169.738 L
144.738 171.511 L
142.954 163.433 L
141.169 164.497 L
139.385 157.149 L
137.6 159.251 L
135.816 144.916 L
134.031 143.146 L
132.247 151.148 L
130.462 147.726 L
128.678 140.501 L
126.893 136.9 L
125.109 130.535 L
123.324 142.136 L
121.539 140.949 L
119.755 136.801 L
117.97 122.097 L
116.186 138.484 L
114.401 133.223 L
112.617 138.559 L
110.832 125.278 L
109.048 130.292 L
107.263 123.724 L
105.479 121.18 L
103.694 125.932 L
101.91 118.86 L
100.125 117.232 L
98.34 115.595 L
96.556 113.623 L
94.771 122.113 L
92.987 114.036 L
91.202 110.176 L
89.418 106.541 L
87.633 110.079 L
85.849 102.924 L
84.064 96.842 L
82.28 92.013 L
80.495 84.916 L
78.711 80.814 L
76.926 70.945 L
75.141 59.411 L
73.357 53.225 L
72.948 50.206 L
72.948 54.193 L
72.948 66.519 L
73.357 69.212 L
75.141 77.991 L
76.926 86.08 L
78.711 92.841 L
80.495 102.925 L
82.28 111.125 L
84.064 117.138 L
85.849 121.909 L
87.633 117.238 L
89.418 127.387 L
91.202 127.498 L
92.987 132.83 L
94.771 131.971 L
96.556 137.184 L
98.34 138.274 L
100.125 138.376 L
101.91 141.544 L
103.694 144.547 L
105.479 142.209 L
107.263 148.781 L
109.048 147.752 L
110.832 153.891 L
112.617 154.315 L
114.401 153.952 L
116.186 154.338 L
117.97 163.126 L
119.755 161.255 L
121.539 164.813 L
123.324 164.336 L
125.109 168.814 L
126.893 169.751 L
128.678 168.241 L
130.462 171.707 L
132.247 176.136 L
134.031 180.657 L
135.816 175.091 L
137.6 182.632 L
139.385 184.682 L
141.169 186.852 L
142.954 181.503 L
144.738 185.622 L
146.523 189.375 L
148.308 194.376 L
150.092 194.948 L
151.877 199.884 L
153.661 201.805 L
155.446 200.446 L
157.23 205.678 L
159.015 205.938 L
160.799 206.672 L
162.584 207.59 L
164.368 209.343 L
166.153 210.174 L
167.938 213.761 L
169.722 215.417 L
171.507 221.997 L
173.291 221.676 L
175.076 228.164 L
176.86 228.039 L
178.645 223.384 L
180.429 228.189 L
182.214 225.992 L
183.998 231.622 L
185.783 231.168 L
187.567 231.383 L
189.352 235.964 L
191.137 237.436 L
192.921 241.999 L
194.706 241.965 L
196.49 242.837 L
198.275 242.876 L
200.059 247.254 L
201.844 245.97 L
203.628 241.64 L
205.413 251.19 L
207.197 252.679 L
208.982 253.831 L
210.766 252.733 L
212.551 257.629 L
214.336 260.226 L
216.12 255.411 L
217.905 260.175 L
219.689 257.188 L
221.474 257.102 L
223.258 259.704 L
225.043 260.405 L
226.827 262.489 L
228.612 262.651 L
230.396 269.524 L
232.181 267.4 L
233.965 267.815 L
235.75 269.298 L
237.535 264.835 L
239.319 266.788 L
241.104 267.559 L
242.888 270.682 L
244.673 268.672 L
246.457 268.263 L
cp
f
GR
GS
[0.75 0 0 0.75 0 0] CT
0.549 0.549 1 RC
1 LJ
0.667 LW
N
72.948 66.519 M
73.357 69.212 L
75.141 77.991 L
76.926 86.08 L
78.711 92.841 L
80.495 102.925 L
82.28 111.125 L
84.064 117.138 L
85.849 121.909 L
87.633 117.238 L
89.418 127.387 L
91.202 127.498 L
92.987 132.83 L
94.771 131.971 L
96.556 137.184 L
98.34 138.274 L
100.125 138.376 L
101.91 141.544 L
103.694 144.547 L
105.479 142.209 L
107.263 148.781 L
109.048 147.752 L
110.832 153.891 L
112.617 154.315 L
114.401 153.952 L
116.186 154.338 L
117.97 163.126 L
119.755 161.255 L
121.539 164.813 L
123.324 164.336 L
125.109 168.814 L
126.893 169.751 L
128.678 168.241 L
130.462 171.707 L
132.247 176.136 L
134.031 180.657 L
135.816 175.091 L
137.6 182.632 L
139.385 184.682 L
141.169 186.852 L
142.954 181.503 L
144.738 185.622 L
146.523 189.375 L
148.308 194.376 L
150.092 194.948 L
151.877 199.884 L
153.661 201.805 L
155.446 200.446 L
157.23 205.678 L
159.015 205.938 L
160.799 206.672 L
162.584 207.59 L
164.368 209.343 L
166.153 210.174 L
167.938 213.761 L
169.722 215.417 L
171.507 221.997 L
173.291 221.676 L
175.076 228.164 L
176.86 228.039 L
178.645 223.384 L
180.429 228.189 L
182.214 225.992 L
183.998 231.622 L
185.783 231.168 L
187.567 231.383 L
189.352 235.964 L
191.137 237.436 L
192.921 241.999 L
194.706 241.965 L
196.49 242.837 L
198.275 242.876 L
200.059 247.254 L
201.844 245.97 L
203.628 241.64 L
205.413 251.19 L
207.197 252.679 L
208.982 253.831 L
210.766 252.733 L
212.551 257.629 L
214.336 260.226 L
216.12 255.411 L
217.905 260.175 L
219.689 257.188 L
221.474 257.102 L
223.258 259.704 L
225.043 260.405 L
226.827 262.489 L
228.612 262.651 L
230.396 269.524 L
232.181 267.4 L
233.965 267.815 L
235.75 269.298 L
237.535 264.835 L
239.319 266.788 L
241.104 267.559 L
242.888 270.682 L
244.673 268.672 L
246.457 268.263 L
248.242 270.796 L
250.026 274.968 L
251.811 275.037 L
253.595 270.174 L
255.38 272.706 L
257.164 276.625 L
258.949 272.076 L
260.734 275.046 L
262.518 274.954 L
264.303 272.76 L
266.087 277.739 L
267.872 276.633 L
269.656 277.774 L
271.441 281.339 L
273.225 280.431 L
275.01 278.303 L
276.794 283.87 L
278.579 283.871 L
280.363 280.819 L
282.148 279.859 L
283.933 281.156 L
285.717 283.81 L
287.502 281.258 L
289.286 286.376 L
291.071 288.748 L
292.855 281.768 L
294.64 286.169 L
296.424 289.373 L
298.209 288.427 L
299.993 287.851 L
301.778 287.275 L
303.563 290.791 L
305.347 292.723 L
307.132 292.533 L
308.916 293.335 L
310.701 289.166 L
312.485 294.688 L
314.27 294.051 L
316.054 296.77 L
317.839 296.785 L
319.623 294.045 L
321.408 294.128 L
323.192 295.438 L
324.977 295.228 L
326.762 300.234 L
328.546 299.888 L
330.331 297.775 L
332.115 298.3 L
333.9 296.063 L
335.684 298.472 L
337.469 301.567 L
339.253 302.855 L
341.038 301.696 L
342.822 305.259 L
344.607 303.301 L
346.391 302.577 L
348.176 302.778 L
349.961 304.105 L
351.745 309.218 L
353.53 308.53 L
355.314 309.457 L
357.099 308.781 L
358.883 304.313 L
360.668 312.452 L
362.452 309.263 L
364.237 311.808 L
366.021 310.472 L
367.806 311.722 L
369.59 314.02 L
371.375 312.002 L
373.16 312.35 L
374.944 310.061 L
376.729 311.576 L
378.513 312.193 L
380.298 316.17 L
382.082 314.016 L
383.867 315.936 L
385.651 321.846 L
387.436 318.075 L
389.22 312.799 L
391.005 317.636 L
392.789 317.259 L
394.574 319.036 L
396.359 315.908 L
398.143 317.318 L
399.928 321.128 L
401.712 321.74 L
403.497 317.911 L
405.281 317.966 L
407.066 317.493 L
408.85 319.11 L
410.635 322.246 L
412.419 323.007 L
414.204 318.043 L
415.988 324.046 L
417.773 323.116 L
419.558 322.628 L
421.342 321.108 L
423.127 323.663 L
424.911 322.94 L
426.696 324.295 L
428.48 325.294 L
430.265 320.484 L
432.049 325.916 L
433.834 323.818 L
435.618 326.44 L
437.403 330.815 L
439.188 328.839 L
440.972 333.514 L
442.757 327.233 L
444.541 328.546 L
446.326 324.823 L
448.11 325.958 L
449.895 328.363 L
451.679 328.901 L
453.464 329.502 L
455.248 327.009 L
457.033 331.639 L
458.817 332.373 L
460.602 334.221 L
462.387 330.01 L
464.171 330.694 L
465.956 330.682 L
467.74 327.98 L
469.525 331.646 L
471.309 328.997 L
473.094 332.903 L
474.878 334.697 L
476.663 336.372 L
478.447 335.437 L
480.232 335.055 L
482.016 335.671 L
483.801 334.346 L
485.586 331.695 L
487.37 332.973 L
489.155 333.528 L
490.939 334.913 L
492.724 334.146 L
494.508 338.635 L
496.293 337.522 L
498.077 341.447 L
499.862 340.004 L
501.646 339.238 L
503.431 338.287 L
505.215 335.964 L
507 336.247 L
S
GR
GS
[0.75 0 0 0.75 0 0] CT
0.549 0.549 1 RC
1 LJ
0.667 LW
N
72.948 50.206 M
73.357 53.225 L
75.141 59.411 L
76.926 70.945 L
78.711 80.814 L
80.495 84.916 L
82.28 92.013 L
84.064 96.842 L
85.849 102.924 L
87.633 110.079 L
89.418 106.541 L
91.202 110.176 L
92.987 114.036 L
94.771 122.113 L
96.556 113.623 L
98.34 115.595 L
100.125 117.232 L
101.91 118.86 L
103.694 125.932 L
105.479 121.18 L
107.263 123.724 L
109.048 130.292 L
110.832 125.278 L
112.617 138.559 L
114.401 133.223 L
116.186 138.484 L
117.97 122.097 L
119.755 136.801 L
121.539 140.949 L
123.324 142.136 L
125.109 130.535 L
126.893 136.9 L
128.678 140.501 L
130.462 147.726 L
132.247 151.148 L
134.031 143.146 L
135.816 144.916 L
137.6 159.251 L
139.385 157.149 L
141.169 164.497 L
142.954 163.433 L
144.738 171.511 L
146.523 169.738 L
148.308 171.87 L
150.092 174.545 L
151.877 175.866 L
153.661 177.627 L
155.446 185.069 L
157.23 184.555 L
159.015 184.484 L
160.799 189.387 L
162.584 190.992 L
164.368 187.791 L
166.153 188.534 L
167.938 191.942 L
169.722 194.536 L
171.507 202.802 L
173.291 204.949 L
175.076 204.43 L
176.86 199.351 L
178.645 208.98 L
180.429 212.247 L
182.214 210.979 L
183.998 214.102 L
185.783 212.253 L
187.567 213.454 L
189.352 216.88 L
191.137 219.114 L
192.921 223.122 L
194.706 224.993 L
196.49 226.76 L
198.275 223.084 L
200.059 220.731 L
201.844 227.593 L
203.628 228.77 L
205.413 229.325 L
207.197 228.948 L
208.982 232.651 L
210.766 235.534 L
212.551 235.81 L
214.336 234.083 L
216.12 238.755 L
217.905 235.329 L
219.689 237.297 L
221.474 241.434 L
223.258 237.981 L
225.043 239.778 L
226.827 241.253 L
228.612 241.459 L
230.396 249.884 L
232.181 249.453 L
233.965 246.526 L
235.75 249.031 L
237.535 245.436 L
239.319 248.006 L
241.104 248.09 L
242.888 251.172 L
244.673 256.308 L
246.457 252.829 L
248.242 257.54 L
250.026 255.607 L
251.811 256.545 L
253.595 255.738 L
255.38 258.458 L
257.164 254.307 L
258.949 254.413 L
260.734 253.789 L
262.518 257.458 L
264.303 258.045 L
266.087 260.401 L
267.872 260.825 L
269.656 262.842 L
271.441 261.427 L
273.225 258.285 L
275.01 264.592 L
276.794 261.783 L
278.579 258.217 L
280.363 262.755 L
282.148 263.696 L
283.933 267.083 L
285.717 268.548 L
287.502 266.819 L
289.286 267.529 L
291.071 268.826 L
292.855 269.87 L
294.64 267.476 L
296.424 265.836 L
298.209 270.584 L
299.993 269.882 L
301.778 272.894 L
303.563 275.328 L
305.347 273.445 L
307.132 276.563 L
308.916 278.383 L
310.701 279.492 L
312.485 275.109 L
314.27 274.097 L
316.054 274.006 L
317.839 274.473 L
319.623 273.959 L
321.408 280.104 L
323.192 281.968 L
324.977 282.941 L
326.762 280.853 L
328.546 281.964 L
330.331 282.251 L
332.115 281.723 L
333.9 278.567 L
335.684 279.734 L
337.469 279.176 L
339.253 280.8 L
341.038 287.465 L
342.822 286.535 L
344.607 287.531 L
346.391 287.748 L
348.176 290.119 L
349.961 286.808 L
351.745 284.387 L
353.53 279.962 L
355.314 281.12 L
357.099 281.821 L
358.883 284.886 L
360.668 288.678 L
362.452 292.522 L
364.237 293.144 L
366.021 293.151 L
367.806 293.403 L
369.59 286.632 L
371.375 287.908 L
373.16 285.116 L
374.944 287.406 L
376.729 288.427 L
378.513 290.009 L
380.298 296.799 L
382.082 295.587 L
383.867 297.017 L
385.651 297.536 L
387.436 294.454 L
389.22 291.544 L
391.005 289.444 L
392.789 288.181 L
394.574 291.017 L
396.359 292.849 L
398.143 299.091 L
399.928 297.338 L
401.712 297.962 L
403.497 294.518 L
405.281 296.577 L
407.066 295.466 L
408.85 290.166 L
410.635 295.519 L
412.419 295.848 L
414.204 294.183 L
415.988 297.53 L
417.773 294.044 L
419.558 298.993 L
421.342 299.952 L
423.127 297.98 L
424.911 298.692 L
426.696 301.077 L
428.48 296.893 L
430.265 298.812 L
432.049 300.126 L
433.834 304.271 L
435.618 299.702 L
437.403 308.247 L
439.188 304.587 L
440.972 303.562 L
442.757 303.307 L
444.541 301.156 L
446.326 300.889 L
448.11 300.79 L
449.895 302.396 L
451.679 301.1 L
453.464 300.321 L
455.248 301.375 L
457.033 308.99 L
458.817 308.357 L
460.602 305.011 L
462.387 307.949 L
464.171 306.714 L
465.956 304.69 L
467.74 301.368 L
469.525 305.104 L
471.309 304.604 L
473.094 308.328 L
474.878 306.474 L
476.663 306.242 L
478.447 310.452 L
480.232 305.844 L
482.016 307.201 L
483.801 307.961 L
485.586 307.13 L
487.37 308.658 L
489.155 308.348 L
490.939 306.721 L
492.724 301.86 L
494.508 305.863 L
496.293 309.473 L
498.077 309.054 L
499.862 311.922 L
501.646 303.012 L
503.431 310.394 L
505.215 310.494 L
507 310.754 L
S
GR
GS
[0.75 0 0 0.75 0 0] CT
0 0 1 RC
1 LJ
0.667 LW
N
72.948 56.068 M
73.357 58.27 L
75.141 65.24 L
76.926 80.216 L
78.711 86.248 L
80.495 94.697 L
82.28 102.298 L
84.064 107.982 L
85.849 111.42 L
87.633 113.749 L
89.418 117.882 L
91.202 117.261 L
92.987 124.418 L
94.771 126.528 L
96.556 125.441 L
98.34 130.719 L
100.125 132.25 L
101.91 133.804 L
103.694 138.427 L
105.479 139.115 L
107.263 142.112 L
109.048 139.566 L
110.832 144.191 L
112.617 147.146 L
114.401 147.455 L
116.186 149.632 L
117.97 149.282 L
119.755 154.767 L
121.539 153.371 L
123.324 158.004 L
125.109 153.212 L
126.893 161.948 L
128.678 152.784 L
130.462 168.485 L
132.247 166.209 L
134.031 163.853 L
135.816 166.564 L
137.6 169.535 L
139.385 170.463 L
141.169 174.02 L
142.954 173.06 L
144.738 180.374 L
146.523 178.328 L
148.308 180.573 L
150.092 186.764 L
151.877 185.173 L
153.661 189.132 L
155.446 194.179 L
157.23 192.351 L
159.015 197.904 L
160.799 197.58 L
162.584 198.754 L
164.368 199.273 L
166.153 196.403 L
167.938 202.393 L
169.722 204.23 L
171.507 209.145 L
173.291 216.984 L
175.076 218.824 L
176.86 217.102 L
178.645 214.423 L
180.429 217.559 L
182.214 216.907 L
183.998 220.068 L
185.783 222.873 L
187.567 225.579 L
189.352 228.918 L
191.137 226.936 L
192.921 232.607 L
194.706 231.953 L
196.49 233.434 L
198.275 232.974 L
200.059 235.761 L
201.844 234.288 L
203.628 232.442 L
205.413 236.282 L
207.197 235.89 L
208.982 243.596 L
210.766 245.135 L
212.551 247.773 L
214.336 249.696 L
216.12 248.297 L
217.905 243.99 L
219.689 248.616 L
221.474 248.361 L
223.258 249.615 L
225.043 251.842 L
226.827 249.236 L
228.612 253.987 L
230.396 258.271 L
232.181 255.388 L
233.965 258.08 L
235.75 258.497 L
237.535 258.5 L
239.319 258.989 L
241.104 260.433 L
242.888 262.13 L
244.673 258.465 L
246.457 260.198 L
248.242 263.421 L
250.026 263.676 L
251.811 265.188 L
253.595 266.839 L
255.38 266.337 L
257.164 266.604 L
258.949 263.642 L
260.734 267.532 L
262.518 264.42 L
264.303 264.863 L
266.087 269.115 L
267.872 271.375 L
269.656 267.165 L
271.441 271.148 L
273.225 270.527 L
275.01 270.919 L
276.794 273.26 L
278.579 273.347 L
280.363 270.184 L
282.148 275.211 L
283.933 274.119 L
285.717 275.531 L
287.502 273.778 L
289.286 273.901 L
291.071 277.46 L
292.855 274.716 L
294.64 282.222 L
296.424 279.726 L
298.209 278.767 L
299.993 279.686 L
301.778 279.963 L
303.563 280.261 L
305.347 279.511 L
307.132 282.704 L
308.916 284.138 L
310.701 284.135 L
312.485 287.238 L
314.27 285.019 L
316.054 286.794 L
317.839 285.788 L
319.623 286.42 L
321.408 287.581 L
323.192 288.571 L
324.977 290.306 L
326.762 290.395 L
328.546 289.602 L
330.331 291.363 L
332.115 290.069 L
333.9 292.54 L
335.684 292.09 L
337.469 294.623 L
339.253 293.211 L
341.038 293.483 L
342.822 293.421 L
344.607 294.085 L
346.391 294.709 L
348.176 297.481 L
349.961 296.456 L
351.745 299.68 L
353.53 299.374 L
355.314 296.961 L
357.099 299.162 L
358.883 298.043 L
360.668 300.403 L
362.452 300.592 L
364.237 301.334 L
366.021 299.364 L
367.806 299.394 L
369.59 302.681 L
371.375 302.489 L
373.16 304.553 L
374.944 303.453 L
376.729 302.87 L
378.513 303.512 L
380.298 303.6 L
382.082 302.414 L
383.867 304.021 L
385.651 304.281 L
387.436 305.816 L
389.22 305.409 L
391.005 307.565 L
392.789 307.873 L
394.574 309.033 L
396.359 306.532 L
398.143 307.565 L
399.928 307.811 L
401.712 307.848 L
403.497 307.852 L
405.281 309.674 L
407.066 310.011 L
408.85 307.57 L
410.635 311.484 L
412.419 310.899 L
414.204 309.763 L
415.988 312.715 L
417.773 311.286 L
419.558 313.355 L
421.342 314.702 L
423.127 310.898 L
424.911 311.811 L
426.696 311.529 L
428.48 315.234 L
430.265 315.347 L
432.049 315.388 L
433.834 314.768 L
435.618 315.731 L
437.403 315.403 L
439.188 315.278 L
440.972 312.883 L
442.757 315.591 L
444.541 314.447 L
446.326 317.733 L
448.11 318.177 L
449.895 316.666 L
451.679 319.711 L
453.464 318.761 L
455.248 316.645 L
457.033 316.136 L
458.817 316.914 L
460.602 318.248 L
462.387 316.597 L
464.171 317.926 L
465.956 320.804 L
467.74 321.832 L
469.525 322.125 L
471.309 322.613 L
473.094 320.777 L
474.878 322.27 L
476.663 321.206 L
478.447 322.14 L
480.232 320.986 L
482.016 320.571 L
483.801 322.629 L
485.586 322.217 L
487.37 323.725 L
489.155 326.409 L
490.939 324.112 L
492.724 324.468 L
494.508 323.83 L
496.293 326.175 L
498.077 324.233 L
499.862 324.418 L
501.646 323.932 L
503.431 325.982 L
505.215 326.107 L
507 327.176 L
S
GR
GS
[0.75 0 0 0.75 0 0] CT
1 0.8 0.8 RC
N
237.535 249.09 M
235.75 246.569 L
233.965 250.321 L
232.181 243.866 L
230.396 243.16 L
228.612 244.774 L
226.827 238.766 L
225.043 240.621 L
223.258 233.342 L
221.474 235.221 L
219.689 231.67 L
217.905 230.34 L
216.12 228.527 L
214.336 224.711 L
212.551 225.557 L
210.766 222.484 L
208.982 213.01 L
207.197 216.424 L
205.413 209.457 L
203.628 197.914 L
201.844 204.781 L
200.059 200.966 L
198.275 198.951 L
196.49 193.496 L
194.706 191.328 L
192.921 195.424 L
191.137 190.246 L
189.352 188.269 L
187.567 183.232 L
185.783 179.44 L
183.998 184.83 L
182.214 184.969 L
180.429 176.602 L
178.645 171.973 L
176.86 186.766 L
175.076 164.385 L
173.291 166.822 L
171.507 171.931 L
169.722 172.359 L
167.938 173.538 L
166.153 171.106 L
164.368 161.588 L
162.584 180.772 L
160.799 173.478 L
159.015 178.746 L
157.23 165.083 L
155.446 167.039 L
153.661 161.647 L
151.877 170.091 L
150.092 157.895 L
148.308 160.547 L
146.523 165.556 L
144.738 161.169 L
142.954 157.342 L
141.169 155.883 L
139.385 149.004 L
137.6 150.279 L
135.816 153.111 L
134.031 150.363 L
132.247 143.225 L
130.462 138.506 L
128.678 140.111 L
126.893 139.161 L
125.109 136.521 L
123.324 137.027 L
121.539 131.275 L
119.755 132.766 L
117.97 136.738 L
116.186 137.223 L
114.401 131.59 L
112.617 133.805 L
110.832 130.51 L
109.048 127.654 L
107.263 127.806 L
105.479 125.635 L
103.694 116.434 L
101.91 119.285 L
100.125 114.014 L
98.34 115.311 L
96.556 111.683 L
94.771 107.66 L
92.987 100.859 L
91.202 110.499 L
89.418 106.445 L
87.633 100.021 L
85.849 95.971 L
84.064 99.519 L
82.28 89.109 L
80.495 82.109 L
78.711 78.377 L
76.926 71.251 L
75.141 60.958 L
73.357 54.145 L
72.948 51.74 L
72.948 56.338 L
72.948 67.855 L
73.357 69.081 L
75.141 84.69 L
76.926 89.848 L
78.711 95.939 L
80.495 99.548 L
82.28 109.179 L
84.064 112.535 L
85.849 115.951 L
87.633 122.188 L
89.418 118.754 L
91.202 124.331 L
92.987 125.261 L
94.771 128.05 L
96.556 131.136 L
98.34 136.518 L
100.125 137.158 L
101.91 136.964 L
103.694 145.387 L
105.479 146.128 L
107.263 149.262 L
109.048 147.655 L
110.832 155.531 L
112.617 156.272 L
114.401 158.614 L
116.186 161.875 L
117.97 163.527 L
119.755 165.667 L
121.539 168.352 L
123.324 163.552 L
125.109 169.152 L
126.893 177.545 L
128.678 172.865 L
130.462 176.526 L
132.247 178.62 L
134.031 183.621 L
135.816 189.24 L
137.6 184.202 L
139.385 186.405 L
141.169 188.103 L
142.954 196.982 L
144.738 195.566 L
146.523 194.022 L
148.308 199.424 L
150.092 202.585 L
151.877 200.005 L
153.661 200.161 L
155.446 203.158 L
157.23 203.106 L
159.015 202.559 L
160.799 202.951 L
162.584 213.917 L
164.368 216.121 L
166.153 212.383 L
167.938 210.164 L
169.722 214.448 L
171.507 214.369 L
173.291 218.562 L
175.076 214.303 L
176.86 216.504 L
178.645 225.745 L
180.429 236.14 L
182.214 230.574 L
183.998 228.249 L
185.783 225.128 L
187.567 229.001 L
189.352 242.619 L
191.137 235.244 L
192.921 244.782 L
194.706 239.467 L
196.49 242.899 L
198.275 242.045 L
200.059 244.686 L
201.844 251.677 L
203.628 255.079 L
205.413 253.157 L
207.197 258.105 L
208.982 258.813 L
210.766 256.734 L
212.551 256.424 L
214.336 260.817 L
216.12 264.76 L
217.905 264.54 L
219.689 263.468 L
221.474 265.075 L
223.258 261.294 L
225.043 265.426 L
226.827 266.011 L
228.612 274.526 L
230.396 268.658 L
232.181 273.788 L
233.965 274.353 L
235.75 269.459 L
237.535 274.599 L
239.319 274.31 L
241.104 276.122 L
242.888 278.831 L
244.673 275.704 L
246.457 281.869 L
248.242 282.578 L
250.026 287.444 L
251.811 283.684 L
253.595 281.637 L
255.38 283.171 L
257.164 286.009 L
258.949 283.881 L
260.734 281.04 L
262.518 284.961 L
264.303 287.485 L
266.087 285.417 L
267.872 287.498 L
269.656 295.279 L
271.441 294.175 L
273.225 294.86 L
275.01 292.013 L
276.794 293.884 L
278.579 295.783 L
280.363 291.471 L
282.148 299.149 L
283.933 301.784 L
285.717 299.627 L
287.502 301.251 L
289.286 303.839 L
291.071 301.878 L
292.855 303.457 L
294.64 300.131 L
296.424 299.248 L
298.209 301.271 L
299.993 308.193 L
301.778 303.405 L
303.563 310.577 L
305.347 308.934 L
307.132 316.145 L
308.916 311.239 L
310.701 308.218 L
312.485 315.18 L
314.27 314.527 L
316.054 313.078 L
317.839 315.973 L
319.623 310.878 L
321.408 318.425 L
323.192 321.276 L
324.977 318.24 L
326.762 318.587 L
328.546 320.366 L
330.331 321.033 L
332.115 319.965 L
333.9 323.361 L
335.684 322.715 L
337.469 323.801 L
339.253 320.189 L
341.038 323.235 L
342.822 329.288 L
344.607 325.098 L
346.391 322.436 L
348.176 326.913 L
349.961 324.129 L
351.745 322.981 L
353.53 326.058 L
355.314 329.091 L
357.099 326.984 L
358.883 327.831 L
360.668 331.874 L
362.452 331.042 L
364.237 331.402 L
366.021 330.953 L
367.806 332.048 L
369.59 331.096 L
371.375 328.727 L
373.16 330.159 L
374.944 331.968 L
376.729 335.269 L
378.513 330.636 L
380.298 331.615 L
382.082 336.56 L
383.867 337.335 L
385.651 334.739 L
387.436 334.678 L
389.22 337.784 L
391.005 334.278 L
392.789 333.74 L
394.574 335.378 L
396.359 340.066 L
398.143 337.961 L
399.928 339.701 L
401.712 342.179 L
403.497 340.576 L
405.281 341.902 L
407.066 339.498 L
408.85 340.518 L
410.635 338.574 L
412.419 340.696 L
414.204 342.822 L
415.988 343.647 L
417.773 340.738 L
419.558 342.878 L
421.342 342.666 L
423.127 343.582 L
424.911 342.29 L
426.696 344.179 L
428.48 343.214 L
430.265 342.222 L
432.049 346.132 L
433.834 346 L
435.618 345.948 L
437.403 346.813 L
439.188 346.577 L
440.972 346.226 L
442.757 347.194 L
444.541 347.548 L
446.326 347.921 L
448.11 346.816 L
449.895 346.555 L
451.679 346.426 L
453.464 349.938 L
455.248 351.398 L
457.033 350.325 L
458.817 349.072 L
460.602 350.432 L
462.387 349.942 L
464.171 349.925 L
465.956 351.574 L
467.74 350.348 L
469.525 348.988 L
471.309 348.959 L
473.094 352.41 L
474.878 352.106 L
476.663 352.514 L
478.447 354.763 L
480.232 351.2 L
482.016 351.821 L
483.801 354.949 L
485.586 355.766 L
487.37 352.052 L
489.155 352.755 L
490.939 353.173 L
492.724 355.195 L
494.508 357.708 L
496.293 357.001 L
498.077 354.454 L
499.862 355.323 L
501.646 356.438 L
503.431 355.038 L
505.215 355.576 L
507 352.747 L
507 322.769 L
505.215 322.752 L
503.431 326.56 L
501.646 324.624 L
499.862 325.542 L
498.077 326.985 L
496.293 326.164 L
494.508 326.183 L
492.724 322.281 L
490.939 323.043 L
489.155 318.395 L
487.37 322.38 L
485.586 323.206 L
483.801 321.552 L
482.016 325.749 L
480.232 324.048 L
478.447 325.978 L
476.663 323.105 L
474.878 325.537 L
473.094 322.381 L
471.309 319.489 L
469.525 318.779 L
467.74 317.9 L
465.956 320.861 L
464.171 321.167 L
462.387 319.642 L
460.602 321.967 L
458.817 322.493 L
457.033 318.801 L
455.248 319.109 L
453.464 317.572 L
451.679 318.701 L
449.895 315.405 L
448.11 313.55 L
446.326 317.579 L
444.541 319.565 L
442.757 318.028 L
440.972 319.246 L
439.188 318.967 L
437.403 319.443 L
435.618 319.551 L
433.834 312.076 L
432.049 313.393 L
430.265 314.314 L
428.48 311.74 L
426.696 313.285 L
424.911 315.898 L
423.127 315.421 L
421.342 314.534 L
419.558 314.579 L
417.773 313.154 L
415.988 310.433 L
414.204 311.714 L
412.419 312.308 L
410.635 308.035 L
408.85 309.283 L
407.066 309.487 L
405.281 311.903 L
403.497 311.894 L
401.712 310.742 L
399.928 313.134 L
398.143 310.268 L
396.359 308.358 L
394.574 306.122 L
392.789 304.878 L
391.005 305.283 L
389.22 305.255 L
387.436 307.72 L
385.651 308.225 L
383.867 310.035 L
382.082 308.885 L
380.298 305.629 L
378.513 303.63 L
376.729 302.174 L
374.944 302.46 L
373.16 301.73 L
371.375 301.472 L
369.59 302.785 L
367.806 301.693 L
366.021 305.261 L
364.237 303.103 L
362.452 302.974 L
360.668 300.325 L
358.883 297.764 L
357.099 297.354 L
355.314 294.616 L
353.53 295.181 L
351.745 294.853 L
349.961 297.348 L
348.176 300.451 L
346.391 301.14 L
344.607 296.176 L
342.822 299.098 L
341.038 296.126 L
339.253 293.819 L
337.469 290.498 L
335.684 292.213 L
333.9 293.046 L
332.115 290.995 L
330.331 293.825 L
328.546 296.406 L
326.762 288.066 L
324.977 290.194 L
323.192 294.461 L
321.408 287.869 L
319.623 287.233 L
317.839 284.934 L
316.054 285.669 L
314.27 284.974 L
312.485 288.008 L
310.701 283.352 L
308.916 285.609 L
307.132 284.813 L
305.347 288.466 L
303.563 280.355 L
301.778 276.809 L
299.993 276.852 L
298.209 277.512 L
296.424 277.147 L
294.64 276.832 L
292.855 274.919 L
291.071 271.055 L
289.286 266.864 L
287.502 276.368 L
285.717 270.632 L
283.933 273.832 L
282.148 275.377 L
280.363 273.132 L
278.579 270.527 L
276.794 271.812 L
275.01 268.626 L
273.225 266.982 L
271.441 262.218 L
269.656 271.571 L
267.872 258.891 L
266.087 260.877 L
264.303 260.052 L
262.518 264.783 L
260.734 258.583 L
258.949 261.528 L
257.164 256.999 L
255.38 257.996 L
253.595 258.413 L
251.811 253.715 L
250.026 255.695 L
248.242 252.858 L
246.457 254.714 L
244.673 253.35 L
242.888 253.582 L
241.104 250.455 L
239.319 248.534 L
cp
f
GR
GS
[0.75 0 0 0.75 0 0] CT
1 0.549 0.549 RC
1 LJ
0.667 LW
N
72.948 67.855 M
73.357 69.081 L
75.141 84.69 L
76.926 89.848 L
78.711 95.939 L
80.495 99.548 L
82.28 109.179 L
84.064 112.535 L
85.849 115.951 L
87.633 122.188 L
89.418 118.754 L
91.202 124.331 L
92.987 125.261 L
94.771 128.05 L
96.556 131.136 L
98.34 136.518 L
100.125 137.158 L
101.91 136.964 L
103.694 145.387 L
105.479 146.128 L
107.263 149.262 L
109.048 147.655 L
110.832 155.531 L
112.617 156.272 L
114.401 158.614 L
116.186 161.875 L
117.97 163.527 L
119.755 165.667 L
121.539 168.352 L
123.324 163.552 L
125.109 169.152 L
126.893 177.545 L
128.678 172.865 L
130.462 176.526 L
132.247 178.62 L
134.031 183.621 L
135.816 189.24 L
137.6 184.202 L
139.385 186.405 L
141.169 188.103 L
142.954 196.982 L
144.738 195.566 L
146.523 194.022 L
148.308 199.424 L
150.092 202.585 L
151.877 200.005 L
153.661 200.161 L
155.446 203.158 L
157.23 203.106 L
159.015 202.559 L
160.799 202.951 L
162.584 213.917 L
164.368 216.121 L
166.153 212.383 L
167.938 210.164 L
169.722 214.448 L
171.507 214.369 L
173.291 218.562 L
175.076 214.303 L
176.86 216.504 L
178.645 225.745 L
180.429 236.14 L
182.214 230.574 L
183.998 228.249 L
185.783 225.128 L
187.567 229.001 L
189.352 242.619 L
191.137 235.244 L
192.921 244.782 L
194.706 239.467 L
196.49 242.899 L
198.275 242.045 L
200.059 244.686 L
201.844 251.677 L
203.628 255.079 L
205.413 253.157 L
207.197 258.105 L
208.982 258.813 L
210.766 256.734 L
212.551 256.424 L
214.336 260.817 L
216.12 264.76 L
217.905 264.54 L
219.689 263.468 L
221.474 265.075 L
223.258 261.294 L
225.043 265.426 L
226.827 266.011 L
228.612 274.526 L
230.396 268.658 L
232.181 273.788 L
233.965 274.353 L
235.75 269.459 L
237.535 274.599 L
239.319 274.31 L
241.104 276.122 L
242.888 278.831 L
244.673 275.704 L
246.457 281.869 L
248.242 282.578 L
250.026 287.444 L
251.811 283.684 L
253.595 281.637 L
255.38 283.171 L
257.164 286.009 L
258.949 283.881 L
260.734 281.04 L
262.518 284.961 L
264.303 287.485 L
266.087 285.417 L
267.872 287.498 L
269.656 295.279 L
271.441 294.175 L
273.225 294.86 L
275.01 292.013 L
276.794 293.884 L
278.579 295.783 L
280.363 291.471 L
282.148 299.149 L
283.933 301.784 L
285.717 299.627 L
287.502 301.251 L
289.286 303.839 L
291.071 301.878 L
292.855 303.457 L
294.64 300.131 L
296.424 299.248 L
298.209 301.271 L
299.993 308.193 L
301.778 303.405 L
303.563 310.577 L
305.347 308.934 L
307.132 316.145 L
308.916 311.239 L
310.701 308.218 L
312.485 315.18 L
314.27 314.527 L
316.054 313.078 L
317.839 315.973 L
319.623 310.878 L
321.408 318.425 L
323.192 321.276 L
324.977 318.24 L
326.762 318.587 L
328.546 320.366 L
330.331 321.033 L
332.115 319.965 L
333.9 323.361 L
335.684 322.715 L
337.469 323.801 L
339.253 320.189 L
341.038 323.235 L
342.822 329.288 L
344.607 325.098 L
346.391 322.436 L
348.176 326.913 L
349.961 324.129 L
351.745 322.981 L
353.53 326.058 L
355.314 329.091 L
357.099 326.984 L
358.883 327.831 L
360.668 331.874 L
362.452 331.042 L
364.237 331.402 L
366.021 330.953 L
367.806 332.048 L
369.59 331.096 L
371.375 328.727 L
373.16 330.159 L
374.944 331.968 L
376.729 335.269 L
378.513 330.636 L
380.298 331.615 L
382.082 336.56 L
383.867 337.335 L
385.651 334.739 L
387.436 334.678 L
389.22 337.784 L
391.005 334.278 L
392.789 333.74 L
394.574 335.378 L
396.359 340.066 L
398.143 337.961 L
399.928 339.701 L
401.712 342.179 L
403.497 340.576 L
405.281 341.902 L
407.066 339.498 L
408.85 340.518 L
410.635 338.574 L
412.419 340.696 L
414.204 342.822 L
415.988 343.647 L
417.773 340.738 L
419.558 342.878 L
421.342 342.666 L
423.127 343.582 L
424.911 342.29 L
426.696 344.179 L
428.48 343.214 L
430.265 342.222 L
432.049 346.132 L
433.834 346 L
435.618 345.948 L
437.403 346.813 L
439.188 346.577 L
440.972 346.226 L
442.757 347.194 L
444.541 347.548 L
446.326 347.921 L
448.11 346.816 L
449.895 346.555 L
451.679 346.426 L
453.464 349.938 L
455.248 351.398 L
457.033 350.325 L
458.817 349.072 L
460.602 350.432 L
462.387 349.942 L
464.171 349.925 L
465.956 351.574 L
467.74 350.348 L
469.525 348.988 L
471.309 348.959 L
473.094 352.41 L
474.878 352.106 L
476.663 352.514 L
478.447 354.763 L
480.232 351.2 L
482.016 351.821 L
483.801 354.949 L
485.586 355.766 L
487.37 352.052 L
489.155 352.755 L
490.939 353.173 L
492.724 355.195 L
494.508 357.708 L
496.293 357.001 L
498.077 354.454 L
499.862 355.323 L
501.646 356.438 L
503.431 355.038 L
505.215 355.576 L
507 352.747 L
S
GR
GS
[0.75 0 0 0.75 0 0] CT
1 0.549 0.549 RC
1 LJ
0.667 LW
N
72.948 51.74 M
73.357 54.145 L
75.141 60.958 L
76.926 71.251 L
78.711 78.377 L
80.495 82.109 L
82.28 89.109 L
84.064 99.519 L
85.849 95.971 L
87.633 100.021 L
89.418 106.445 L
91.202 110.499 L
92.987 100.859 L
94.771 107.66 L
96.556 111.683 L
98.34 115.311 L
100.125 114.014 L
101.91 119.285 L
103.694 116.434 L
105.479 125.635 L
107.263 127.806 L
109.048 127.654 L
110.832 130.51 L
112.617 133.805 L
114.401 131.59 L
116.186 137.223 L
117.97 136.738 L
119.755 132.766 L
121.539 131.275 L
123.324 137.027 L
125.109 136.521 L
126.893 139.161 L
128.678 140.111 L
130.462 138.506 L
132.247 143.225 L
134.031 150.363 L
135.816 153.111 L
137.6 150.279 L
139.385 149.004 L
141.169 155.883 L
142.954 157.342 L
144.738 161.169 L
146.523 165.556 L
148.308 160.547 L
150.092 157.895 L
151.877 170.091 L
153.661 161.647 L
155.446 167.039 L
157.23 165.083 L
159.015 178.746 L
160.799 173.478 L
162.584 180.772 L
164.368 161.588 L
166.153 171.106 L
167.938 173.538 L
169.722 172.359 L
171.507 171.931 L
173.291 166.822 L
175.076 164.385 L
176.86 186.766 L
178.645 171.973 L
180.429 176.602 L
182.214 184.969 L
183.998 184.83 L
185.783 179.44 L
187.567 183.232 L
189.352 188.269 L
191.137 190.246 L
192.921 195.424 L
194.706 191.328 L
196.49 193.496 L
198.275 198.951 L
200.059 200.966 L
201.844 204.781 L
203.628 197.914 L
205.413 209.457 L
207.197 216.424 L
208.982 213.01 L
210.766 222.484 L
212.551 225.557 L
214.336 224.711 L
216.12 228.527 L
217.905 230.34 L
219.689 231.67 L
221.474 235.221 L
223.258 233.342 L
225.043 240.621 L
226.827 238.766 L
228.612 244.774 L
230.396 243.16 L
232.181 243.866 L
233.965 250.321 L
235.75 246.569 L
237.535 249.09 L
239.319 248.534 L
241.104 250.455 L
242.888 253.582 L
244.673 253.35 L
246.457 254.714 L
248.242 252.858 L
250.026 255.695 L
251.811 253.715 L
253.595 258.413 L
255.38 257.996 L
257.164 256.999 L
258.949 261.528 L
260.734 258.583 L
262.518 264.783 L
264.303 260.052 L
266.087 260.877 L
267.872 258.891 L
269.656 271.571 L
271.441 262.218 L
273.225 266.982 L
275.01 268.626 L
276.794 271.812 L
278.579 270.527 L
280.363 273.132 L
282.148 275.377 L
283.933 273.832 L
285.717 270.632 L
287.502 276.368 L
289.286 266.864 L
291.071 271.055 L
292.855 274.919 L
294.64 276.832 L
296.424 277.147 L
298.209 277.512 L
299.993 276.852 L
301.778 276.809 L
303.563 280.355 L
305.347 288.466 L
307.132 284.813 L
308.916 285.609 L
310.701 283.352 L
312.485 288.008 L
314.27 284.974 L
316.054 285.669 L
317.839 284.934 L
319.623 287.233 L
321.408 287.869 L
323.192 294.461 L
324.977 290.194 L
326.762 288.066 L
328.546 296.406 L
330.331 293.825 L
332.115 290.995 L
333.9 293.046 L
335.684 292.213 L
337.469 290.498 L
339.253 293.819 L
341.038 296.126 L
342.822 299.098 L
344.607 296.176 L
346.391 301.14 L
348.176 300.451 L
349.961 297.348 L
351.745 294.853 L
353.53 295.181 L
355.314 294.616 L
357.099 297.354 L
358.883 297.764 L
360.668 300.325 L
362.452 302.974 L
364.237 303.103 L
366.021 305.261 L
367.806 301.693 L
369.59 302.785 L
371.375 301.472 L
373.16 301.73 L
374.944 302.46 L
376.729 302.174 L
378.513 303.63 L
380.298 305.629 L
382.082 308.885 L
383.867 310.035 L
385.651 308.225 L
387.436 307.72 L
389.22 305.255 L
391.005 305.283 L
392.789 304.878 L
394.574 306.122 L
396.359 308.358 L
398.143 310.268 L
399.928 313.134 L
401.712 310.742 L
403.497 311.894 L
405.281 311.903 L
407.066 309.487 L
408.85 309.283 L
410.635 308.035 L
412.419 312.308 L
414.204 311.714 L
415.988 310.433 L
417.773 313.154 L
419.558 314.579 L
421.342 314.534 L
423.127 315.421 L
424.911 315.898 L
426.696 313.285 L
428.48 311.74 L
430.265 314.314 L
432.049 313.393 L
433.834 312.076 L
435.618 319.551 L
437.403 319.443 L
439.188 318.967 L
440.972 319.246 L
442.757 318.028 L
444.541 319.565 L
446.326 317.579 L
448.11 313.55 L
449.895 315.405 L
451.679 318.701 L
453.464 317.572 L
455.248 319.109 L
457.033 318.801 L
458.817 322.493 L
460.602 321.967 L
462.387 319.642 L
464.171 321.167 L
465.956 320.861 L
467.74 317.9 L
469.525 318.779 L
471.309 319.489 L
473.094 322.381 L
474.878 325.537 L
476.663 323.105 L
478.447 325.978 L
480.232 324.048 L
482.016 325.749 L
483.801 321.552 L
485.586 323.206 L
487.37 322.38 L
489.155 318.395 L
490.939 323.043 L
492.724 322.281 L
494.508 326.183 L
496.293 326.164 L
498.077 326.985 L
499.862 325.542 L
501.646 324.624 L
503.431 326.56 L
505.215 322.752 L
507 322.769 L
S
GR
GS
[0.75 0 0 0.75 0 0] CT
1 0 0 RC
1 LJ
0.667 LW
N
72.948 61.351 M
73.357 63.41 L
75.141 72.15 L
76.926 77.018 L
78.711 86.312 L
80.495 91.152 L
82.28 95.009 L
84.064 104.646 L
85.849 106.989 L
87.633 109.625 L
89.418 113.694 L
91.202 119.713 L
92.987 116.183 L
94.771 117.516 L
96.556 123.281 L
98.34 121.737 L
100.125 125.801 L
101.91 125.553 L
103.694 127.253 L
105.479 135.298 L
107.263 136.928 L
109.048 136.253 L
110.832 141.831 L
112.617 145.663 L
114.401 139.84 L
116.186 145.304 L
117.97 144.516 L
119.755 151.75 L
121.539 149.442 L
123.324 150.082 L
125.109 155.657 L
126.893 156.013 L
128.678 157.591 L
130.462 156.646 L
132.247 160.024 L
134.031 170.556 L
135.816 173.108 L
137.6 166.677 L
139.385 168.526 L
141.169 172.489 L
142.954 172.386 L
144.738 175.003 L
146.523 176.182 L
148.308 181.572 L
150.092 177.782 L
151.877 189.978 L
153.661 181.715 L
155.446 187.404 L
157.23 193.927 L
159.015 191.416 L
160.799 187.097 L
162.584 191.569 L
164.368 194.98 L
166.153 194.928 L
167.938 196.899 L
169.722 202.421 L
171.507 195.298 L
173.291 194.532 L
175.076 191.011 L
176.86 196.999 L
178.645 204.669 L
180.429 200.78 L
182.214 202.675 L
183.998 202.027 L
185.783 206.968 L
187.567 215.155 L
189.352 209.387 L
191.137 214.691 L
192.921 220.929 L
194.706 220.718 L
196.49 213.058 L
198.275 223.626 L
200.059 223.043 L
201.844 218.348 L
203.628 220.076 L
205.413 230.557 L
207.197 231.878 L
208.982 232.933 L
210.766 234.25 L
212.551 238.726 L
214.336 239.371 L
216.12 240.195 L
217.905 246.966 L
219.689 241.695 L
221.474 248.604 L
223.258 248.358 L
225.043 249.51 L
226.827 250.759 L
228.612 258.428 L
230.396 255.304 L
232.181 252.967 L
233.965 264.321 L
235.75 256.734 L
237.535 255.192 L
239.319 261.676 L
241.104 264.692 L
242.888 260.686 L
244.673 262.963 L
246.457 267.238 L
248.242 269.644 L
250.026 271.388 L
251.811 272.142 L
253.595 271.851 L
255.38 264.999 L
257.164 269.291 L
258.949 270.898 L
260.734 269.6 L
262.518 278.925 L
264.303 276.684 L
266.087 271.782 L
267.872 276.812 L
269.656 281.833 L
271.441 280.613 L
273.225 278.939 L
275.01 276.204 L
276.794 282.169 L
278.579 280.288 L
280.363 284.427 L
282.148 284.81 L
283.933 283.622 L
285.717 287.024 L
287.502 286.485 L
289.286 287.808 L
291.071 287.108 L
292.855 288.955 L
294.64 288.329 L
296.424 290.967 L
298.209 289.926 L
299.993 290.851 L
301.778 293.083 L
303.563 292.884 L
305.347 292.025 L
307.132 302.542 L
308.916 297.541 L
310.701 294.256 L
312.485 295.932 L
314.27 295.237 L
316.054 297.555 L
317.839 298.084 L
319.623 297.275 L
321.408 299.321 L
323.192 299.182 L
324.977 299.877 L
326.762 302.437 L
328.546 299.95 L
330.331 302.777 L
332.115 301.05 L
333.9 300.521 L
335.684 301.254 L
337.469 301.465 L
339.253 300.724 L
341.038 302.834 L
342.822 304.806 L
344.607 309.456 L
346.391 310.306 L
348.176 310.2 L
349.961 308.624 L
351.745 305.418 L
353.53 307.16 L
355.314 307.517 L
357.099 309.263 L
358.883 310.299 L
360.668 313.954 L
362.452 313.655 L
364.237 317.975 L
366.021 315.919 L
367.806 317.064 L
369.59 315.465 L
371.375 311.169 L
373.16 312.172 L
374.944 315.032 L
376.729 314.754 L
378.513 315.644 L
380.298 318.667 L
382.082 320.303 L
383.867 323.651 L
385.651 319.715 L
387.436 319.092 L
389.22 318.351 L
391.005 317.682 L
392.789 318.9 L
394.574 318.055 L
396.359 321.751 L
398.143 321.444 L
399.928 325.641 L
401.712 324.672 L
403.497 326.171 L
405.281 327.023 L
407.066 323.077 L
408.85 321.763 L
410.635 321.217 L
412.419 320.962 L
414.204 321.224 L
415.988 322.123 L
417.773 324.134 L
419.558 329.057 L
421.342 330.405 L
423.127 328.482 L
424.911 328.54 L
426.696 325.298 L
428.48 325.563 L
430.265 324.053 L
432.049 326.787 L
433.834 325.848 L
435.618 330.277 L
437.403 329.316 L
439.188 333.046 L
440.972 331.192 L
442.757 331.438 L
444.541 330.271 L
446.326 327.304 L
448.11 328.292 L
449.895 329.919 L
451.679 328.433 L
453.464 330.924 L
455.248 331.438 L
457.033 333.234 L
458.817 335.422 L
460.602 336.04 L
462.387 335.657 L
464.171 333.161 L
465.956 331.675 L
467.74 333.531 L
469.525 333.135 L
471.309 331.177 L
473.094 334.48 L
474.878 336.544 L
476.663 339.461 L
478.447 337.97 L
480.232 340.647 L
482.016 337.432 L
483.801 335.922 L
485.586 334.343 L
487.37 333.676 L
489.155 334.302 L
490.939 336.066 L
492.724 334.762 L
494.508 341.009 L
496.293 339.11 L
498.077 341.176 L
499.862 340.698 L
501.646 339.163 L
503.431 335.836 L
505.215 334.422 L
507 334.901 L
S
GR
GS
[0.75 0 0 0.75 0 0] CT
1 GC
N
496 78 M
496 42 L
400 42 L
400 78 L
cp
f
GR
GS
[0.75 0 0 0.75 335.25 38.89726] CT
/Helvetica 12 F
GS
[1 0 0 1 0 0] CT
0 5 moveto 
1 -1 scale
(pre term) t 
GR
GR
GS
[0.75 0 0 0.75 0 0] CT
0 0 1 RC
1 LJ
0.667 LW
N
404 51.863 M
444 51.863 L
S
GR
GS
[0.75 0 0 0.75 335.25 51.10274] CT
/Helvetica 12 F
GS
[1 0 0 1 0 0] CT
0 5 moveto 
1 -1 scale
(full term) t 
GR
GR
GS
[0.75 0 0 0.75 0 0] CT
1 0 0 RC
1 LJ
0.667 LW
N
404 68.137 M
444 68.137 L
S
GR
GS
[0.75 0 0 0.75 0 0] CT
0.149 GC
10.0 ML
0.667 LW
N
400 78 M
400 42 L
496 42 L
496 78 L
cp
S
GR
%%Trailer
%%Pages: 1
%%EOF
