%!PS-Adobe-3.0 EPSF-3.0
%%Creator: (MATLAB, The Mathworks, Inc. Version 9.5.0.944444 \(R2018b\). Operating System: Windows 10)
%%Title: ../results/med_psd_intqrtl.eps
%%CreationDate: 2020-02-15T18:55:38
%%Pages: (atend)
%%BoundingBox:    11     3   381   306
%%LanguageLevel: 3
%%EndComments
%%BeginProlog
%%BeginResource: procset (Apache XML Graphics Std ProcSet) 1.2 0
%%Version: 1.2 0
%%Copyright: (Copyright 2001-2003,2010 The Apache Software Foundation. License terms: http://www.apache.org/licenses/LICENSE-2.0)
/bd{bind def}bind def
/ld{load def}bd
/GR/grestore ld
/GS/gsave ld
/RM/rmoveto ld
/C/curveto ld
/t/show ld
/L/lineto ld
/ML/setmiterlimit ld
/CT/concat ld
/f/fill ld
/N/newpath ld
/S/stroke ld
/CC/setcmykcolor ld
/A/ashow ld
/cp/closepath ld
/RC/setrgbcolor ld
/LJ/setlinejoin ld
/GC/setgray ld
/LW/setlinewidth ld
/M/moveto ld
/re {4 2 roll M
1 index 0 rlineto
0 exch rlineto
neg 0 rlineto
cp } bd
/_ctm matrix def
/_tm matrix def
/BT { _ctm currentmatrix pop matrix _tm copy pop 0 0 moveto } bd
/ET { _ctm setmatrix } bd
/iTm { _ctm setmatrix _tm concat } bd
/Tm { _tm astore pop iTm 0 0 moveto } bd
/ux 0.0 def
/uy 0.0 def
/F {
  /Tp exch def
  /Tf exch def
  Tf findfont Tp scalefont setfont
  /cf Tf def  /cs Tp def
} bd
/ULS {currentpoint /uy exch def /ux exch def} bd
/ULE {
  /Tcx currentpoint pop def
  gsave
  newpath
  cf findfont cs scalefont dup
  /FontMatrix get 0 get /Ts exch def /FontInfo get dup
  /UnderlinePosition get Ts mul /To exch def
  /UnderlineThickness get Ts mul /Tt exch def
  ux uy To add moveto  Tcx uy To add lineto
  Tt setlinewidth stroke
  grestore
} bd
/OLE {
  /Tcx currentpoint pop def
  gsave
  newpath
  cf findfont cs scalefont dup
  /FontMatrix get 0 get /Ts exch def /FontInfo get dup
  /UnderlinePosition get Ts mul /To exch def
  /UnderlineThickness get Ts mul /Tt exch def
  ux uy To add cs add moveto Tcx uy To add cs add lineto
  Tt setlinewidth stroke
  grestore
} bd
/SOE {
  /Tcx currentpoint pop def
  gsave
  newpath
  cf findfont cs scalefont dup
  /FontMatrix get 0 get /Ts exch def /FontInfo get dup
  /UnderlinePosition get Ts mul /To exch def
  /UnderlineThickness get Ts mul /Tt exch def
  ux uy To add cs 10 mul 26 idiv add moveto Tcx uy To add cs 10 mul 26 idiv add lineto
  Tt setlinewidth stroke
  grestore
} bd
/QT {
/Y22 exch store
/X22 exch store
/Y21 exch store
/X21 exch store
currentpoint
/Y21 load 2 mul add 3 div exch
/X21 load 2 mul add 3 div exch
/X21 load 2 mul /X22 load add 3 div
/Y21 load 2 mul /Y22 load add 3 div
/X22 load /Y22 load curveto
} bd
/SSPD {
dup length /d exch dict def
{
/v exch def
/k exch def
currentpagedevice k known {
/cpdv currentpagedevice k get def
v cpdv ne {
/upd false def
/nullv v type /nulltype eq def
/nullcpdv cpdv type /nulltype eq def
nullv nullcpdv or
{
/upd true def
} {
/sametype v type cpdv type eq def
sametype {
v type /arraytype eq {
/vlen v length def
/cpdvlen cpdv length def
vlen cpdvlen eq {
0 1 vlen 1 sub {
/i exch def
/obj v i get def
/cpdobj cpdv i get def
obj cpdobj ne {
/upd true def
exit
} if
} for
} {
/upd true def
} ifelse
} {
v type /dicttype eq {
v {
/dv exch def
/dk exch def
/cpddv cpdv dk get def
dv cpddv ne {
/upd true def
exit
} if
} forall
} {
/upd true def
} ifelse
} ifelse
} if
} ifelse
upd true eq {
d k v put
} if
} if
} if
} forall
d length 0 gt {
d setpagedevice
} if
} bd
/RE { % /NewFontName [NewEncodingArray] /FontName RE -
  findfont dup length dict begin
  {
    1 index /FID ne
    {def} {pop pop} ifelse
  } forall
  /Encoding exch def
  /FontName 1 index def
  currentdict definefont pop
  end
} bind def
%%EndResource
%%BeginResource: procset (Apache XML Graphics EPS ProcSet) 1.0 0
%%Version: 1.0 0
%%Copyright: (Copyright 2002-2003 The Apache Software Foundation. License terms: http://www.apache.org/licenses/LICENSE-2.0)
/BeginEPSF { %def
/b4_Inc_state save def         % Save state for cleanup
/dict_count countdictstack def % Count objects on dict stack
/op_count count 1 sub def      % Count objects on operand stack
userdict begin                 % Push userdict on dict stack
/showpage { } def              % Redefine showpage, { } = null proc
0 setgray 0 setlinecap         % Prepare graphics state
1 setlinewidth 0 setlinejoin
10 setmiterlimit [ ] 0 setdash newpath
/languagelevel where           % If level not equal to 1 then
{pop languagelevel             % set strokeadjust and
1 ne                           % overprint to their defaults.
{false setstrokeadjust false setoverprint
} if
} if
} bd
/EndEPSF { %def
count op_count sub {pop} repeat            % Clean up stacks
countdictstack dict_count sub {end} repeat
b4_Inc_state restore
} bd
%%EndResource
%FOPBeginFontDict
%%IncludeResource: font Courier-Oblique
%%IncludeResource: font Courier-BoldOblique
%%IncludeResource: font Courier-Bold
%%IncludeResource: font ZapfDingbats
%%IncludeResource: font Symbol
%%IncludeResource: font Helvetica
%%IncludeResource: font Helvetica-Oblique
%%IncludeResource: font Helvetica-Bold
%%IncludeResource: font Helvetica-BoldOblique
%%IncludeResource: font Times-Roman
%%IncludeResource: font Times-Italic
%%IncludeResource: font Times-Bold
%%IncludeResource: font Times-BoldItalic
%%IncludeResource: font Courier
%FOPEndFontDict
%%BeginResource: encoding WinAnsiEncoding
/WinAnsiEncoding [
/.notdef /.notdef /.notdef /.notdef /.notdef
/.notdef /.notdef /.notdef /.notdef /.notdef
/.notdef /.notdef /.notdef /.notdef /.notdef
/.notdef /.notdef /.notdef /.notdef /.notdef
/.notdef /.notdef /.notdef /.notdef /.notdef
/.notdef /.notdef /.notdef /.notdef /.notdef
/.notdef /.notdef /space /exclam /quotedbl
/numbersign /dollar /percent /ampersand /quotesingle
/parenleft /parenright /asterisk /plus /comma
/hyphen /period /slash /zero /one
/two /three /four /five /six
/seven /eight /nine /colon /semicolon
/less /equal /greater /question /at
/A /B /C /D /E
/F /G /H /I /J
/K /L /M /N /O
/P /Q /R /S /T
/U /V /W /X /Y
/Z /bracketleft /backslash /bracketright /asciicircum
/underscore /quoteleft /a /b /c
/d /e /f /g /h
/i /j /k /l /m
/n /o /p /q /r
/s /t /u /v /w
/x /y /z /braceleft /bar
/braceright /asciitilde /bullet /Euro /bullet
/quotesinglbase /florin /quotedblbase /ellipsis /dagger
/daggerdbl /circumflex /perthousand /Scaron /guilsinglleft
/OE /bullet /Zcaron /bullet /bullet
/quoteleft /quoteright /quotedblleft /quotedblright /bullet
/endash /emdash /asciitilde /trademark /scaron
/guilsinglright /oe /bullet /zcaron /Ydieresis
/space /exclamdown /cent /sterling /currency
/yen /brokenbar /section /dieresis /copyright
/ordfeminine /guillemotleft /logicalnot /sfthyphen /registered
/macron /degree /plusminus /twosuperior /threesuperior
/acute /mu /paragraph /middot /cedilla
/onesuperior /ordmasculine /guillemotright /onequarter /onehalf
/threequarters /questiondown /Agrave /Aacute /Acircumflex
/Atilde /Adieresis /Aring /AE /Ccedilla
/Egrave /Eacute /Ecircumflex /Edieresis /Igrave
/Iacute /Icircumflex /Idieresis /Eth /Ntilde
/Ograve /Oacute /Ocircumflex /Otilde /Odieresis
/multiply /Oslash /Ugrave /Uacute /Ucircumflex
/Udieresis /Yacute /Thorn /germandbls /agrave
/aacute /acircumflex /atilde /adieresis /aring
/ae /ccedilla /egrave /eacute /ecircumflex
/edieresis /igrave /iacute /icircumflex /idieresis
/eth /ntilde /ograve /oacute /ocircumflex
/otilde /odieresis /divide /oslash /ugrave
/uacute /ucircumflex /udieresis /yacute /thorn
/ydieresis
] def
%%EndResource
%FOPBeginFontReencode
/Courier-Oblique findfont
dup length dict begin
  {1 index /FID ne {def} {pop pop} ifelse} forall
  /Encoding WinAnsiEncoding def
  currentdict
end
/Courier-Oblique exch definefont pop
/Courier-BoldOblique findfont
dup length dict begin
  {1 index /FID ne {def} {pop pop} ifelse} forall
  /Encoding WinAnsiEncoding def
  currentdict
end
/Courier-BoldOblique exch definefont pop
/Courier-Bold findfont
dup length dict begin
  {1 index /FID ne {def} {pop pop} ifelse} forall
  /Encoding WinAnsiEncoding def
  currentdict
end
/Courier-Bold exch definefont pop
/Helvetica findfont
dup length dict begin
  {1 index /FID ne {def} {pop pop} ifelse} forall
  /Encoding WinAnsiEncoding def
  currentdict
end
/Helvetica exch definefont pop
/Helvetica-Oblique findfont
dup length dict begin
  {1 index /FID ne {def} {pop pop} ifelse} forall
  /Encoding WinAnsiEncoding def
  currentdict
end
/Helvetica-Oblique exch definefont pop
/Helvetica-Bold findfont
dup length dict begin
  {1 index /FID ne {def} {pop pop} ifelse} forall
  /Encoding WinAnsiEncoding def
  currentdict
end
/Helvetica-Bold exch definefont pop
/Helvetica-BoldOblique findfont
dup length dict begin
  {1 index /FID ne {def} {pop pop} ifelse} forall
  /Encoding WinAnsiEncoding def
  currentdict
end
/Helvetica-BoldOblique exch definefont pop
/Times-Roman findfont
dup length dict begin
  {1 index /FID ne {def} {pop pop} ifelse} forall
  /Encoding WinAnsiEncoding def
  currentdict
end
/Times-Roman exch definefont pop
/Times-Italic findfont
dup length dict begin
  {1 index /FID ne {def} {pop pop} ifelse} forall
  /Encoding WinAnsiEncoding def
  currentdict
end
/Times-Italic exch definefont pop
/Times-Bold findfont
dup length dict begin
  {1 index /FID ne {def} {pop pop} ifelse} forall
  /Encoding WinAnsiEncoding def
  currentdict
end
/Times-Bold exch definefont pop
/Times-BoldItalic findfont
dup length dict begin
  {1 index /FID ne {def} {pop pop} ifelse} forall
  /Encoding WinAnsiEncoding def
  currentdict
end
/Times-BoldItalic exch definefont pop
/Courier findfont
dup length dict begin
  {1 index /FID ne {def} {pop pop} ifelse} forall
  /Encoding WinAnsiEncoding def
  currentdict
end
/Courier exch definefont pop
%FOPEndFontReencode
%%EndProlog
%%Page: 1 1
%%PageBoundingBox: 0 0 420 315
%%BeginPageSetup
[1 0 0 -1 0 315] CT
%%EndPageSetup
GS
[0.75 0 0 0.75 0 0] CT
1 GC
N
0 0 560 420 re
f
GR
GS
[0.75 0 0 0.75 0 0] CT
1 GC
N
0 0 560 420 re
f
GR
GS
[0.75 0 0 0.75 0 0] CT
1 GC
N
73 374 M
507 374 L
507 31 L
73 31 L
cp
f
GR
GS
[0.75 0 0 0.75 0 0] CT
0.149 GC
2 setlinecap
1 LJ
0.667 LW
N
73 374 M
507 374 L
S
GR
GS
[0.75 0 0 0.75 0 0] CT
0.149 GC
2 setlinecap
1 LJ
0.667 LW
N
73 374 M
73 369.66 L
S
GR
GS
[0.75 0 0 0.75 0 0] CT
0.149 GC
2 setlinecap
1 LJ
0.667 LW
N
118.684 374 M
118.684 369.66 L
S
GR
GS
[0.75 0 0 0.75 0 0] CT
0.149 GC
2 setlinecap
1 LJ
0.667 LW
N
164.368 374 M
164.368 369.66 L
S
GR
GS
[0.75 0 0 0.75 0 0] CT
0.149 GC
2 setlinecap
1 LJ
0.667 LW
N
210.053 374 M
210.053 369.66 L
S
GR
GS
[0.75 0 0 0.75 0 0] CT
0.149 GC
2 setlinecap
1 LJ
0.667 LW
N
255.737 374 M
255.737 369.66 L
S
GR
GS
[0.75 0 0 0.75 0 0] CT
0.149 GC
2 setlinecap
1 LJ
0.667 LW
N
301.421 374 M
301.421 369.66 L
S
GR
GS
[0.75 0 0 0.75 0 0] CT
0.149 GC
2 setlinecap
1 LJ
0.667 LW
N
347.105 374 M
347.105 369.66 L
S
GR
GS
[0.75 0 0 0.75 0 0] CT
0.149 GC
2 setlinecap
1 LJ
0.667 LW
N
392.789 374 M
392.789 369.66 L
S
GR
GS
[0.75 0 0 0.75 0 0] CT
0.149 GC
2 setlinecap
1 LJ
0.667 LW
N
438.474 374 M
438.474 369.66 L
S
GR
GS
[0.75 0 0 0.75 0 0] CT
0.149 GC
2 setlinecap
1 LJ
0.667 LW
N
484.158 374 M
484.158 369.66 L
S
GR
GS
[0.75 0 0 0.75 54.75 284.50001] CT
0.149 GC
/Helvetica 13.333 F
GS
[1 0 0 1 0 0] CT
-11.5 14 moveto 
1 -1 scale
(100) t 
GR
GR
GS
[0.75 0 0 0.75 89.01316 284.50001] CT
0.149 GC
/Helvetica 13.333 F
GS
[1 0 0 1 0 0] CT
-11.5 14 moveto 
1 -1 scale
(300) t 
GR
GR
GS
[0.75 0 0 0.75 123.27632 284.50001] CT
0.149 GC
/Helvetica 13.333 F
GS
[1 0 0 1 0 0] CT
-11.5 14 moveto 
1 -1 scale
(500) t 
GR
GR
GS
[0.75 0 0 0.75 157.53947 284.50001] CT
0.149 GC
/Helvetica 13.333 F
GS
[1 0 0 1 0 0] CT
-11.5 14 moveto 
1 -1 scale
(700) t 
GR
GR
GS
[0.75 0 0 0.75 191.80264 284.50001] CT
0.149 GC
/Helvetica 13.333 F
GS
[1 0 0 1 0 0] CT
-11.5 14 moveto 
1 -1 scale
(900) t 
GR
GR
GS
[0.75 0 0 0.75 226.06579 284.50001] CT
0.149 GC
/Helvetica 13.333 F
GS
[1 0 0 1 0 0] CT
-15 14 moveto 
1 -1 scale
(1100) t 
GR
GR
GS
[0.75 0 0 0.75 260.32894 284.50001] CT
0.149 GC
/Helvetica 13.333 F
GS
[1 0 0 1 0 0] CT
-15 14 moveto 
1 -1 scale
(1300) t 
GR
GR
GS
[0.75 0 0 0.75 294.59209 284.50001] CT
0.149 GC
/Helvetica 13.333 F
GS
[1 0 0 1 0 0] CT
-15 14 moveto 
1 -1 scale
(1500) t 
GR
GR
GS
[0.75 0 0 0.75 328.85527 284.50001] CT
0.149 GC
/Helvetica 13.333 F
GS
[1 0 0 1 0 0] CT
-15 14 moveto 
1 -1 scale
(1700) t 
GR
GR
GS
[0.75 0 0 0.75 363.11842 284.50001] CT
0.149 GC
/Helvetica 13.333 F
GS
[1 0 0 1 0 0] CT
-15 14 moveto 
1 -1 scale
(1900) t 
GR
GR
GS
[0.75 0 0 0.75 217.50014 298.24999] CT
0.149 GC
/Helvetica 14.667 F
GS
[1 0 0 1 0 0] CT
-48.5 15 moveto 
1 -1 scale
(frequency \(Hz\)) t 
GR
GR
GS
[0.75 0 0 0.75 0 0] CT
0.149 GC
2 setlinecap
1 LJ
0.667 LW
N
73 374 M
73 31 L
S
GR
GS
[0.75 0 0 0.75 0 0] CT
0.149 GC
2 setlinecap
1 LJ
0.667 LW
N
73 374 M
77.34 374 L
S
GR
GS
[0.75 0 0 0.75 0 0] CT
0.149 GC
2 setlinecap
1 LJ
0.667 LW
N
73 335.889 M
77.34 335.889 L
S
GR
GS
[0.75 0 0 0.75 0 0] CT
0.149 GC
2 setlinecap
1 LJ
0.667 LW
N
73 297.778 M
77.34 297.778 L
S
GR
GS
[0.75 0 0 0.75 0 0] CT
0.149 GC
2 setlinecap
1 LJ
0.667 LW
N
73 259.667 M
77.34 259.667 L
S
GR
GS
[0.75 0 0 0.75 0 0] CT
0.149 GC
2 setlinecap
1 LJ
0.667 LW
N
73 221.556 M
77.34 221.556 L
S
GR
GS
[0.75 0 0 0.75 0 0] CT
0.149 GC
2 setlinecap
1 LJ
0.667 LW
N
73 183.444 M
77.34 183.444 L
S
GR
GS
[0.75 0 0 0.75 0 0] CT
0.149 GC
2 setlinecap
1 LJ
0.667 LW
N
73 145.333 M
77.34 145.333 L
S
GR
GS
[0.75 0 0 0.75 0 0] CT
0.149 GC
2 setlinecap
1 LJ
0.667 LW
N
73 107.222 M
77.34 107.222 L
S
GR
GS
[0.75 0 0 0.75 0 0] CT
0.149 GC
2 setlinecap
1 LJ
0.667 LW
N
73 69.111 M
77.34 69.111 L
S
GR
GS
[0.75 0 0 0.75 0 0] CT
0.149 GC
2 setlinecap
1 LJ
0.667 LW
N
73 31 M
77.34 31 L
S
GR
GS
[0.75 0 0 0.75 50.75 280.5] CT
0.149 GC
/Helvetica 13.333 F
GS
[1 0 0 1 0 0] CT
-8 5.5 moveto 
1 -1 scale
(0) t 
GR
GR
GS
[0.75 0 0 0.75 50.75 251.91666] CT
0.149 GC
/Helvetica 13.333 F
GS
[1 0 0 1 0 0] CT
-34 5.5 moveto 
1 -1 scale
(0.002) t 
GR
GR
GS
[0.75 0 0 0.75 50.75 223.33333] CT
0.149 GC
/Helvetica 13.333 F
GS
[1 0 0 1 0 0] CT
-34 5.5 moveto 
1 -1 scale
(0.004) t 
GR
GR
GS
[0.75 0 0 0.75 50.75 194.74999] CT
0.149 GC
/Helvetica 13.333 F
GS
[1 0 0 1 0 0] CT
-34 5.5 moveto 
1 -1 scale
(0.006) t 
GR
GR
GS
[0.75 0 0 0.75 50.75 166.16666] CT
0.149 GC
/Helvetica 13.333 F
GS
[1 0 0 1 0 0] CT
-34 5.5 moveto 
1 -1 scale
(0.008) t 
GR
GR
GS
[0.75 0 0 0.75 50.75 137.58333] CT
0.149 GC
/Helvetica 13.333 F
GS
[1 0 0 1 0 0] CT
-26 5.5 moveto 
1 -1 scale
(0.01) t 
GR
GR
GS
[0.75 0 0 0.75 50.75 109] CT
0.149 GC
/Helvetica 13.333 F
GS
[1 0 0 1 0 0] CT
-34 5.5 moveto 
1 -1 scale
(0.012) t 
GR
GR
GS
[0.75 0 0 0.75 50.75 80.41666] CT
0.149 GC
/Helvetica 13.333 F
GS
[1 0 0 1 0 0] CT
-34 5.5 moveto 
1 -1 scale
(0.014) t 
GR
GR
GS
[0.75 0 0 0.75 50.75 51.83332] CT
0.149 GC
/Helvetica 13.333 F
GS
[1 0 0 1 0 0] CT
-34 5.5 moveto 
1 -1 scale
(0.016) t 
GR
GR
GS
[0.75 0 0 0.75 50.75 23.25001] CT
0.149 GC
/Helvetica 13.333 F
GS
[1 0 0 1 0 0] CT
-34 5.5 moveto 
1 -1 scale
(0.018) t 
GR
GR
GS
[0 -0.75 0.75 0 22.25 151.87489] CT
0.149 GC
/Helvetica 14.667 F
GS
[1 0 0 1 0 0] CT
-54.5 -4 moveto 
1 -1 scale
(Normalized PSD) t 
GR
GR
GS
[0.75 0 0 0.75 217.50021 21.18752] CT
/Helvetica-Bold 14.667 F
GS
[1 0 0 1 0 0] CT
-81.5 -4 moveto 
1 -1 scale
(Power Spectral Density) t 
GR
GR
GS
[0.75 0 0 0.75 0 0] CT
0.8 0.8 1 RC
N
72.948 165.353 M
73.357 184.026 L
75.141 227.766 L
76.926 259.851 L
78.711 280.883 L
80.495 305.348 L
82.28 320.439 L
84.064 329.339 L
85.849 335.33 L
87.633 329.47 L
89.418 341.216 L
91.202 341.337 L
92.987 346.192 L
94.771 345.465 L
96.556 349.618 L
98.34 350.413 L
100.125 350.487 L
101.91 352.633 L
103.694 354.486 L
105.479 353.058 L
107.263 356.829 L
109.048 356.286 L
110.832 359.285 L
112.617 359.473 L
114.401 359.312 L
116.186 359.483 L
117.97 362.865 L
119.755 362.22 L
121.539 363.42 L
123.324 363.262 L
125.109 364.624 L
126.893 364.881 L
128.678 364.461 L
130.462 365.409 L
132.247 366.485 L
134.031 367.444 L
135.816 366.204 L
137.6 367.819 L
139.385 368.178 L
141.169 368.563 L
142.954 367.61 L
144.738 368.355 L
146.523 368.962 L
148.308 369.668 L
150.092 369.741 L
151.877 370.322 L
153.661 370.538 L
155.446 370.394 L
157.23 370.922 L
159.015 370.943 L
160.799 371.003 L
162.584 371.094 L
164.368 371.242 L
166.153 371.311 L
167.938 371.588 L
169.722 371.705 L
171.507 372.112 L
173.291 372.101 L
175.076 372.439 L
176.86 372.433 L
178.645 372.196 L
180.429 372.439 L
182.214 372.333 L
183.998 372.593 L
185.783 372.574 L
187.567 372.584 L
189.352 372.767 L
191.137 372.82 L
192.921 372.972 L
194.706 372.971 L
196.49 372.998 L
198.275 372.999 L
200.059 373.123 L
201.844 373.088 L
203.628 372.961 L
205.413 373.213 L
207.197 373.256 L
208.982 373.281 L
210.766 373.256 L
212.551 373.359 L
214.336 373.407 L
216.12 373.315 L
217.905 373.407 L
219.689 373.351 L
221.474 373.349 L
223.258 373.398 L
225.043 373.41 L
226.827 373.447 L
228.612 373.449 L
230.396 373.551 L
232.181 373.523 L
233.965 373.529 L
235.75 373.549 L
237.535 373.485 L
239.319 373.514 L
241.104 373.524 L
242.888 373.568 L
244.673 373.541 L
246.457 373.535 L
248.242 373.569 L
250.026 373.62 L
251.811 373.621 L
253.595 373.561 L
255.38 373.594 L
257.164 373.639 L
258.949 373.585 L
260.734 373.621 L
262.518 373.62 L
264.303 373.593 L
266.087 373.651 L
267.872 373.639 L
269.656 373.651 L
271.441 373.686 L
273.225 373.678 L
275.01 373.657 L
276.794 373.709 L
278.579 373.708 L
280.363 373.682 L
282.148 373.672 L
283.933 373.685 L
285.717 373.709 L
287.502 373.686 L
289.286 373.731 L
291.071 373.75 L
292.855 373.691 L
294.64 373.729 L
296.424 373.754 L
298.209 373.747 L
299.993 373.743 L
301.778 373.738 L
303.563 373.765 L
305.347 373.778 L
307.132 373.777 L
308.916 373.782 L
310.701 373.753 L
312.485 373.791 L
314.27 373.786 L
316.054 373.804 L
317.839 373.803 L
319.623 373.787 L
321.408 373.787 L
323.192 373.795 L
324.977 373.794 L
326.762 373.823 L
328.546 373.821 L
330.331 373.809 L
332.115 373.812 L
333.9 373.799 L
335.684 373.813 L
337.469 373.83 L
339.253 373.837 L
341.038 373.831 L
342.822 373.848 L
344.607 373.839 L
346.391 373.835 L
348.176 373.836 L
349.961 373.843 L
351.745 373.865 L
353.53 373.862 L
355.314 373.866 L
357.099 373.863 L
358.883 373.843 L
360.668 373.878 L
362.452 373.865 L
364.237 373.875 L
366.021 373.87 L
367.806 373.875 L
369.59 373.882 L
371.375 373.876 L
373.16 373.877 L
374.944 373.868 L
376.729 373.874 L
378.513 373.877 L
380.298 373.89 L
382.082 373.883 L
383.867 373.889 L
385.651 373.908 L
387.436 373.897 L
389.22 373.879 L
391.005 373.895 L
392.789 373.894 L
394.574 373.9 L
396.359 373.89 L
398.143 373.894 L
399.928 373.906 L
401.712 373.908 L
403.497 373.896 L
405.281 373.896 L
407.066 373.895 L
408.85 373.9 L
410.635 373.909 L
412.419 373.911 L
414.204 373.897 L
415.988 373.914 L
417.773 373.911 L
419.558 373.91 L
421.342 373.906 L
423.127 373.913 L
424.911 373.911 L
426.696 373.914 L
428.48 373.917 L
430.265 373.904 L
432.049 373.919 L
433.834 373.913 L
435.618 373.92 L
437.403 373.93 L
439.188 373.925 L
440.972 373.935 L
442.757 373.922 L
444.541 373.925 L
446.326 373.916 L
448.11 373.918 L
449.895 373.924 L
451.679 373.926 L
453.464 373.927 L
455.248 373.921 L
457.033 373.931 L
458.817 373.933 L
460.602 373.937 L
462.387 373.928 L
464.171 373.93 L
465.956 373.929 L
467.74 373.923 L
469.525 373.931 L
471.309 373.926 L
473.094 373.934 L
474.878 373.938 L
476.663 373.941 L
478.447 373.939 L
480.232 373.938 L
482.016 373.939 L
483.801 373.937 L
485.586 373.932 L
487.37 373.934 L
489.155 373.935 L
490.939 373.938 L
492.724 373.936 L
494.508 373.944 L
496.293 373.943 L
498.077 373.949 L
499.862 373.947 L
501.646 373.946 L
503.431 373.944 L
505.215 373.94 L
507 373.94 L
507 373.871 L
505.215 373.87 L
503.431 373.869 L
501.646 373.836 L
499.862 373.875 L
498.077 373.864 L
496.293 373.866 L
494.508 373.851 L
492.724 373.831 L
490.939 373.855 L
489.155 373.861 L
487.37 373.862 L
485.586 373.856 L
483.801 373.86 L
482.016 373.857 L
480.232 373.85 L
478.447 373.87 L
476.663 373.852 L
474.878 373.853 L
473.094 373.861 L
471.309 373.845 L
469.525 373.847 L
467.74 373.827 L
465.956 373.844 L
464.171 373.853 L
462.387 373.86 L
460.602 373.847 L
458.817 373.861 L
457.033 373.864 L
455.248 373.829 L
453.464 373.823 L
451.679 373.827 L
449.895 373.834 L
448.11 373.825 L
446.326 373.825 L
444.541 373.826 L
442.757 373.838 L
440.972 373.84 L
439.188 373.845 L
437.403 373.861 L
435.618 373.819 L
433.834 373.843 L
432.049 373.822 L
430.265 373.815 L
428.48 373.803 L
426.696 373.826 L
424.911 373.814 L
423.127 373.81 L
421.342 373.821 L
419.558 373.816 L
417.773 373.784 L
415.988 373.807 L
414.204 373.785 L
412.419 373.798 L
410.635 373.795 L
408.85 373.758 L
407.066 373.794 L
405.281 373.802 L
403.497 373.789 L
401.712 373.81 L
399.928 373.807 L
398.143 373.817 L
396.359 373.777 L
394.574 373.765 L
392.789 373.742 L
391.005 373.752 L
389.22 373.768 L
387.436 373.788 L
385.651 373.808 L
383.867 373.805 L
382.082 373.796 L
380.298 373.804 L
378.513 373.757 L
376.729 373.745 L
374.944 373.738 L
373.16 373.718 L
371.375 373.742 L
369.59 373.73 L
367.806 373.783 L
366.021 373.781 L
364.237 373.781 L
362.452 373.777 L
360.668 373.748 L
358.883 373.717 L
357.099 373.688 L
355.314 373.681 L
353.53 373.67 L
351.745 373.713 L
349.961 373.734 L
348.176 373.76 L
346.391 373.742 L
344.607 373.74 L
342.822 373.732 L
341.038 373.74 L
339.253 373.68 L
337.469 373.664 L
335.684 373.671 L
333.9 373.655 L
332.115 373.69 L
330.331 373.694 L
328.546 373.692 L
326.762 373.682 L
324.977 373.701 L
323.192 373.693 L
321.408 373.675 L
319.623 373.608 L
317.839 373.614 L
316.054 373.609 L
314.27 373.606 L
312.485 373.62 L
310.701 373.669 L
308.916 373.658 L
307.132 373.638 L
305.347 373.602 L
303.563 373.624 L
301.778 373.596 L
299.993 373.556 L
298.209 373.566 L
296.424 373.499 L
294.64 373.524 L
292.855 373.557 L
291.071 373.543 L
289.286 373.525 L
287.502 373.514 L
285.717 373.539 L
283.933 373.518 L
282.148 373.466 L
280.363 373.451 L
278.579 373.368 L
276.794 373.435 L
275.01 373.481 L
273.225 373.371 L
271.441 373.429 L
269.656 373.452 L
267.872 373.418 L
266.087 373.411 L
264.303 373.367 L
262.518 373.355 L
260.734 373.28 L
258.949 373.293 L
257.164 373.291 L
255.38 373.375 L
253.595 373.321 L
251.811 373.337 L
250.026 373.318 L
248.242 373.357 L
246.457 373.259 L
244.673 373.333 L
242.888 373.22 L
241.104 373.145 L
239.319 373.143 L
237.535 373.073 L
235.75 373.169 L
233.965 373.103 L
232.181 373.18 L
230.396 373.19 L
228.612 372.955 L
226.827 372.948 L
225.043 372.9 L
223.258 372.839 L
221.474 372.955 L
219.689 372.816 L
217.905 372.743 L
216.12 372.867 L
214.336 372.695 L
212.551 372.761 L
210.766 372.75 L
208.982 372.637 L
207.197 372.475 L
205.413 372.493 L
203.628 372.468 L
201.844 372.412 L
200.059 372.046 L
198.275 372.179 L
196.49 372.371 L
194.706 372.282 L
192.921 372.181 L
191.137 371.948 L
189.352 371.805 L
187.567 371.557 L
185.783 371.476 L
183.998 371.613 L
182.214 371.376 L
180.429 371.473 L
178.645 371.212 L
176.86 370.272 L
175.076 370.803 L
173.291 370.85 L
171.507 370.641 L
169.722 369.687 L
167.938 369.338 L
166.153 368.814 L
164.368 368.71 L
162.584 369.202 L
160.799 368.964 L
159.015 368.16 L
157.23 368.173 L
155.446 368.256 L
153.661 366.799 L
151.877 366.406 L
150.092 366.088 L
148.308 365.452 L
146.523 364.871 L
144.738 365.359 L
142.954 362.969 L
141.169 363.311 L
139.385 360.626 L
137.6 361.477 L
135.816 354.646 L
134.031 353.543 L
132.247 358.014 L
130.462 356.271 L
128.678 351.767 L
126.893 349.339 L
125.109 343.897 L
123.324 353.002 L
121.539 352.167 L
119.755 349.339 L
117.97 335.513 L
116.186 350.56 L
114.401 346.504 L
112.617 350.581 L
110.832 339.07 L
109.048 343.983 L
107.263 337.39 L
105.479 334.43 L
103.694 339.722 L
101.91 331.603 L
100.125 329.059 L
98.34 327.187 L
96.556 324.279 L
94.771 335.571 L
92.987 324.913 L
91.202 318.858 L
89.418 312.29 L
87.633 318.716 L
85.849 305.385 L
84.064 291.529 L
82.28 278.596 L
80.495 255.77 L
78.711 240.174 L
76.926 193.626 L
75.141 118.564 L
73.357 66.076 L
72.948 31.577 L
72.948 74.413 L
cp
f
GR
GS
[0.75 0 0 0.75 0 0] CT
0.549 0.549 1 RC
1 LJ
0.667 LW
N
72.948 165.353 M
73.357 184.026 L
75.141 227.766 L
76.926 259.851 L
78.711 280.883 L
80.495 305.348 L
82.28 320.439 L
84.064 329.339 L
85.849 335.33 L
87.633 329.47 L
89.418 341.216 L
91.202 341.337 L
92.987 346.192 L
94.771 345.465 L
96.556 349.618 L
98.34 350.413 L
100.125 350.487 L
101.91 352.633 L
103.694 354.486 L
105.479 353.058 L
107.263 356.829 L
109.048 356.286 L
110.832 359.285 L
112.617 359.473 L
114.401 359.312 L
116.186 359.483 L
117.97 362.865 L
119.755 362.22 L
121.539 363.42 L
123.324 363.262 L
125.109 364.624 L
126.893 364.881 L
128.678 364.461 L
130.462 365.409 L
132.247 366.485 L
134.031 367.444 L
135.816 366.204 L
137.6 367.819 L
139.385 368.178 L
141.169 368.563 L
142.954 367.61 L
144.738 368.355 L
146.523 368.962 L
148.308 369.668 L
150.092 369.741 L
151.877 370.322 L
153.661 370.538 L
155.446 370.394 L
157.23 370.922 L
159.015 370.943 L
160.799 371.003 L
162.584 371.094 L
164.368 371.242 L
166.153 371.311 L
167.938 371.588 L
169.722 371.705 L
171.507 372.112 L
173.291 372.101 L
175.076 372.439 L
176.86 372.433 L
178.645 372.196 L
180.429 372.439 L
182.214 372.333 L
183.998 372.593 L
185.783 372.574 L
187.567 372.584 L
189.352 372.767 L
191.137 372.82 L
192.921 372.972 L
194.706 372.971 L
196.49 372.998 L
198.275 372.999 L
200.059 373.123 L
201.844 373.088 L
203.628 372.961 L
205.413 373.213 L
207.197 373.256 L
208.982 373.281 L
210.766 373.256 L
212.551 373.359 L
214.336 373.407 L
216.12 373.315 L
217.905 373.407 L
219.689 373.351 L
221.474 373.349 L
223.258 373.398 L
225.043 373.41 L
226.827 373.447 L
228.612 373.449 L
230.396 373.551 L
232.181 373.523 L
233.965 373.529 L
235.75 373.549 L
237.535 373.485 L
239.319 373.514 L
241.104 373.524 L
242.888 373.568 L
244.673 373.541 L
246.457 373.535 L
248.242 373.569 L
250.026 373.62 L
251.811 373.621 L
253.595 373.561 L
255.38 373.594 L
257.164 373.639 L
258.949 373.585 L
260.734 373.621 L
262.518 373.62 L
264.303 373.593 L
266.087 373.651 L
267.872 373.639 L
269.656 373.651 L
271.441 373.686 L
273.225 373.678 L
275.01 373.657 L
276.794 373.709 L
278.579 373.708 L
280.363 373.682 L
282.148 373.672 L
283.933 373.685 L
285.717 373.709 L
287.502 373.686 L
289.286 373.731 L
291.071 373.75 L
292.855 373.691 L
294.64 373.729 L
296.424 373.754 L
298.209 373.747 L
299.993 373.743 L
301.778 373.738 L
303.563 373.765 L
305.347 373.778 L
307.132 373.777 L
308.916 373.782 L
310.701 373.753 L
312.485 373.791 L
314.27 373.786 L
316.054 373.804 L
317.839 373.803 L
319.623 373.787 L
321.408 373.787 L
323.192 373.795 L
324.977 373.794 L
326.762 373.823 L
328.546 373.821 L
330.331 373.809 L
332.115 373.812 L
333.9 373.799 L
335.684 373.813 L
337.469 373.83 L
339.253 373.837 L
341.038 373.831 L
342.822 373.848 L
344.607 373.839 L
346.391 373.835 L
348.176 373.836 L
349.961 373.843 L
351.745 373.865 L
353.53 373.862 L
355.314 373.866 L
357.099 373.863 L
358.883 373.843 L
360.668 373.878 L
362.452 373.865 L
364.237 373.875 L
366.021 373.87 L
367.806 373.875 L
369.59 373.882 L
371.375 373.876 L
373.16 373.877 L
374.944 373.868 L
376.729 373.874 L
378.513 373.877 L
380.298 373.89 L
382.082 373.883 L
383.867 373.889 L
385.651 373.908 L
387.436 373.897 L
389.22 373.879 L
391.005 373.895 L
392.789 373.894 L
394.574 373.9 L
396.359 373.89 L
398.143 373.894 L
399.928 373.906 L
401.712 373.908 L
403.497 373.896 L
405.281 373.896 L
407.066 373.895 L
408.85 373.9 L
410.635 373.909 L
412.419 373.911 L
414.204 373.897 L
415.988 373.914 L
417.773 373.911 L
419.558 373.91 L
421.342 373.906 L
423.127 373.913 L
424.911 373.911 L
426.696 373.914 L
428.48 373.917 L
430.265 373.904 L
432.049 373.919 L
433.834 373.913 L
435.618 373.92 L
437.403 373.93 L
439.188 373.925 L
440.972 373.935 L
442.757 373.922 L
444.541 373.925 L
446.326 373.916 L
448.11 373.918 L
449.895 373.924 L
451.679 373.926 L
453.464 373.927 L
455.248 373.921 L
457.033 373.931 L
458.817 373.933 L
460.602 373.937 L
462.387 373.928 L
464.171 373.93 L
465.956 373.929 L
467.74 373.923 L
469.525 373.931 L
471.309 373.926 L
473.094 373.934 L
474.878 373.938 L
476.663 373.941 L
478.447 373.939 L
480.232 373.938 L
482.016 373.939 L
483.801 373.937 L
485.586 373.932 L
487.37 373.934 L
489.155 373.935 L
490.939 373.938 L
492.724 373.936 L
494.508 373.944 L
496.293 373.943 L
498.077 373.949 L
499.862 373.947 L
501.646 373.946 L
503.431 373.944 L
505.215 373.94 L
507 373.94 L
S
GR
GS
[0.75 0 0 0.75 0 0] CT
0.549 0.549 1 RC
1 LJ
0.667 LW
N
72.948 31.577 M
73.357 66.076 L
75.141 118.564 L
76.926 193.626 L
78.711 240.174 L
80.495 255.77 L
82.28 278.596 L
84.064 291.529 L
85.849 305.385 L
87.633 318.716 L
89.418 312.29 L
91.202 318.858 L
92.987 324.913 L
94.771 335.571 L
96.556 324.279 L
98.34 327.187 L
100.125 329.059 L
101.91 331.603 L
103.694 339.722 L
105.479 334.43 L
107.263 337.39 L
109.048 343.983 L
110.832 339.07 L
112.617 350.581 L
114.401 346.504 L
116.186 350.56 L
117.97 335.513 L
119.755 349.339 L
121.539 352.167 L
123.324 353.002 L
125.109 343.897 L
126.893 349.339 L
128.678 351.767 L
130.462 356.271 L
132.247 358.014 L
134.031 353.543 L
135.816 354.646 L
137.6 361.477 L
139.385 360.626 L
141.169 363.311 L
142.954 362.969 L
144.738 365.359 L
146.523 364.871 L
148.308 365.452 L
150.092 366.088 L
151.877 366.406 L
153.661 366.799 L
155.446 368.256 L
157.23 368.173 L
159.015 368.16 L
160.799 368.964 L
162.584 369.202 L
164.368 368.71 L
166.153 368.814 L
167.938 369.338 L
169.722 369.687 L
171.507 370.641 L
173.291 370.85 L
175.076 370.803 L
176.86 370.272 L
178.645 371.212 L
180.429 371.473 L
182.214 371.376 L
183.998 371.613 L
185.783 371.476 L
187.567 371.557 L
189.352 371.805 L
191.137 371.948 L
192.921 372.181 L
194.706 372.282 L
196.49 372.371 L
198.275 372.179 L
200.059 372.046 L
201.844 372.412 L
203.628 372.468 L
205.413 372.493 L
207.197 372.475 L
208.982 372.637 L
210.766 372.75 L
212.551 372.761 L
214.336 372.695 L
216.12 372.867 L
217.905 372.743 L
219.689 372.816 L
221.474 372.955 L
223.258 372.839 L
225.043 372.9 L
226.827 372.948 L
228.612 372.955 L
230.396 373.19 L
232.181 373.18 L
233.965 373.103 L
235.75 373.169 L
237.535 373.073 L
239.319 373.143 L
241.104 373.145 L
242.888 373.22 L
244.673 373.333 L
246.457 373.259 L
248.242 373.357 L
250.026 373.318 L
251.811 373.337 L
253.595 373.321 L
255.38 373.375 L
257.164 373.291 L
258.949 373.293 L
260.734 373.28 L
262.518 373.355 L
264.303 373.367 L
266.087 373.411 L
267.872 373.418 L
269.656 373.452 L
271.441 373.429 L
273.225 373.371 L
275.01 373.481 L
276.794 373.435 L
278.579 373.368 L
280.363 373.451 L
282.148 373.466 L
283.933 373.518 L
285.717 373.539 L
287.502 373.514 L
289.286 373.525 L
291.071 373.543 L
292.855 373.557 L
294.64 373.524 L
296.424 373.499 L
298.209 373.566 L
299.993 373.556 L
301.778 373.596 L
303.563 373.624 L
305.347 373.602 L
307.132 373.638 L
308.916 373.658 L
310.701 373.669 L
312.485 373.62 L
314.27 373.606 L
316.054 373.609 L
317.839 373.614 L
319.623 373.608 L
321.408 373.675 L
323.192 373.693 L
324.977 373.701 L
326.762 373.682 L
328.546 373.692 L
330.331 373.694 L
332.115 373.69 L
333.9 373.655 L
335.684 373.671 L
337.469 373.664 L
339.253 373.68 L
341.038 373.74 L
342.822 373.732 L
344.607 373.74 L
346.391 373.742 L
348.176 373.76 L
349.961 373.734 L
351.745 373.713 L
353.53 373.67 L
355.314 373.681 L
357.099 373.688 L
358.883 373.717 L
360.668 373.748 L
362.452 373.777 L
364.237 373.781 L
366.021 373.781 L
367.806 373.783 L
369.59 373.73 L
371.375 373.742 L
373.16 373.718 L
374.944 373.738 L
376.729 373.745 L
378.513 373.757 L
380.298 373.804 L
382.082 373.796 L
383.867 373.805 L
385.651 373.808 L
387.436 373.788 L
389.22 373.768 L
391.005 373.752 L
392.789 373.742 L
394.574 373.765 L
396.359 373.777 L
398.143 373.817 L
399.928 373.807 L
401.712 373.81 L
403.497 373.789 L
405.281 373.802 L
407.066 373.794 L
408.85 373.758 L
410.635 373.795 L
412.419 373.798 L
414.204 373.785 L
415.988 373.807 L
417.773 373.784 L
419.558 373.816 L
421.342 373.821 L
423.127 373.81 L
424.911 373.814 L
426.696 373.826 L
428.48 373.803 L
430.265 373.815 L
432.049 373.822 L
433.834 373.843 L
435.618 373.819 L
437.403 373.861 L
439.188 373.845 L
440.972 373.84 L
442.757 373.838 L
444.541 373.826 L
446.326 373.825 L
448.11 373.825 L
449.895 373.834 L
451.679 373.827 L
453.464 373.823 L
455.248 373.829 L
457.033 373.864 L
458.817 373.861 L
460.602 373.847 L
462.387 373.86 L
464.171 373.853 L
465.956 373.844 L
467.74 373.827 L
469.525 373.847 L
471.309 373.845 L
473.094 373.861 L
474.878 373.853 L
476.663 373.852 L
478.447 373.87 L
480.232 373.85 L
482.016 373.857 L
483.801 373.86 L
485.586 373.856 L
487.37 373.862 L
489.155 373.861 L
490.939 373.855 L
492.724 373.831 L
494.508 373.851 L
496.293 373.866 L
498.077 373.864 L
499.862 373.875 L
501.646 373.836 L
503.431 373.869 L
505.215 373.87 L
507 373.871 L
S
GR
GS
[0.75 0 0 0.75 0 0] CT
0 0 1 RC
1 LJ
0.667 LW
N
72.948 89.196 M
73.357 109.609 L
75.141 159.807 L
76.926 237.753 L
78.711 260.448 L
80.495 286.027 L
82.28 304.076 L
84.064 315.108 L
85.849 320.917 L
87.633 324.525 L
89.418 330.331 L
91.202 329.505 L
92.987 338.155 L
94.771 340.369 L
96.556 339.247 L
98.34 344.368 L
100.125 345.707 L
101.91 347.005 L
103.694 350.524 L
105.479 351.007 L
107.263 352.997 L
109.048 351.318 L
110.832 354.276 L
112.617 355.96 L
114.401 356.127 L
116.186 357.265 L
117.97 357.087 L
119.755 359.669 L
121.539 359.052 L
123.324 361.005 L
125.109 358.98 L
126.893 362.464 L
128.678 358.785 L
130.462 364.532 L
132.247 363.858 L
134.031 363.109 L
135.816 363.966 L
137.6 364.827 L
139.385 365.081 L
141.169 365.989 L
142.954 365.754 L
144.738 367.388 L
146.523 366.967 L
148.308 367.428 L
150.092 368.549 L
151.877 368.281 L
153.661 368.925 L
155.446 369.643 L
157.23 369.396 L
159.015 370.107 L
160.799 370.068 L
162.584 370.205 L
164.368 370.264 L
166.153 369.926 L
167.938 370.6 L
169.722 370.784 L
171.507 371.228 L
173.291 371.812 L
175.076 371.931 L
176.86 371.82 L
178.645 371.636 L
180.429 371.85 L
182.214 371.807 L
183.998 372.007 L
185.783 372.169 L
187.567 372.313 L
189.352 372.474 L
191.137 372.38 L
192.921 372.635 L
194.706 372.608 L
196.49 372.669 L
198.275 372.65 L
200.059 372.759 L
201.844 372.703 L
203.628 372.629 L
205.413 372.779 L
207.197 372.764 L
208.982 373.021 L
210.766 373.065 L
212.551 373.137 L
214.336 373.186 L
216.12 373.15 L
217.905 373.032 L
219.689 373.159 L
221.474 373.152 L
223.258 373.184 L
225.043 373.237 L
226.827 373.174 L
228.612 373.285 L
230.396 373.371 L
232.181 373.314 L
233.965 373.368 L
235.75 373.376 L
237.535 373.376 L
239.319 373.385 L
241.104 373.411 L
242.888 373.441 L
244.673 373.375 L
246.457 373.407 L
248.242 373.462 L
250.026 373.466 L
251.811 373.49 L
253.595 373.515 L
255.38 373.507 L
257.164 373.511 L
258.949 373.466 L
260.734 373.525 L
262.518 373.478 L
264.303 373.485 L
266.087 373.547 L
267.872 373.577 L
269.656 373.52 L
271.441 373.574 L
273.225 373.566 L
275.01 373.571 L
276.794 373.6 L
278.579 373.601 L
280.363 373.561 L
282.148 373.623 L
283.933 373.611 L
285.717 373.627 L
287.502 373.607 L
289.286 373.608 L
291.071 373.648 L
292.855 373.618 L
294.64 373.695 L
296.424 373.671 L
298.209 373.662 L
299.993 373.671 L
301.778 373.674 L
303.563 373.677 L
305.347 373.669 L
307.132 373.7 L
308.916 373.712 L
310.701 373.712 L
312.485 373.738 L
314.27 373.72 L
316.054 373.734 L
317.839 373.726 L
319.623 373.731 L
321.408 373.741 L
323.192 373.748 L
324.977 373.761 L
326.762 373.762 L
328.546 373.756 L
330.331 373.769 L
332.115 373.759 L
333.9 373.777 L
335.684 373.774 L
337.469 373.79 L
339.253 373.781 L
341.038 373.783 L
342.822 373.783 L
344.607 373.787 L
346.391 373.791 L
348.176 373.808 L
349.961 373.802 L
351.745 373.82 L
353.53 373.818 L
355.314 373.805 L
357.099 373.817 L
358.883 373.811 L
360.668 373.824 L
362.452 373.825 L
364.237 373.829 L
366.021 373.818 L
367.806 373.819 L
369.59 373.836 L
371.375 373.835 L
373.16 373.845 L
374.944 373.839 L
376.729 373.837 L
378.513 373.84 L
380.298 373.84 L
382.082 373.834 L
383.867 373.842 L
385.651 373.843 L
387.436 373.851 L
389.22 373.849 L
391.005 373.858 L
392.789 373.86 L
394.574 373.864 L
396.359 373.854 L
398.143 373.858 L
399.928 373.859 L
401.712 373.859 L
403.497 373.859 L
405.281 373.867 L
407.066 373.868 L
408.85 373.858 L
410.635 373.874 L
412.419 373.872 L
414.204 373.867 L
415.988 373.879 L
417.773 373.873 L
419.558 373.881 L
421.342 373.886 L
423.127 373.872 L
424.911 373.875 L
426.696 373.874 L
428.48 373.888 L
430.265 373.888 L
432.049 373.888 L
433.834 373.886 L
435.618 373.889 L
437.403 373.888 L
439.188 373.888 L
440.972 373.879 L
442.757 373.889 L
444.541 373.885 L
446.326 373.896 L
448.11 373.897 L
449.895 373.892 L
451.679 373.902 L
453.464 373.899 L
455.248 373.892 L
457.033 373.891 L
458.817 373.893 L
460.602 373.897 L
462.387 373.892 L
464.171 373.896 L
465.956 373.905 L
467.74 373.908 L
469.525 373.909 L
471.309 373.91 L
473.094 373.905 L
474.878 373.909 L
476.663 373.906 L
478.447 373.909 L
480.232 373.905 L
482.016 373.904 L
483.801 373.91 L
485.586 373.909 L
487.37 373.913 L
489.155 373.92 L
490.939 373.914 L
492.724 373.915 L
494.508 373.913 L
496.293 373.919 L
498.077 373.914 L
499.862 373.915 L
501.646 373.914 L
503.431 373.919 L
505.215 373.919 L
507 373.922 L
S
GR
GS
[0.75 0 0 0.75 0 0] CT
1 0.8 0.8 RC
N
72.948 91.748 M
72.948 175.602 L
73.357 183.273 L
75.141 254.977 L
76.926 272.151 L
78.711 289.268 L
80.495 298.02 L
82.28 317.2 L
84.064 322.676 L
85.849 327.708 L
87.633 335.658 L
89.418 331.466 L
91.202 338.062 L
92.987 339.057 L
94.771 341.88 L
96.556 344.739 L
98.34 349.13 L
100.125 349.606 L
101.91 349.463 L
103.694 354.975 L
105.479 355.396 L
107.263 357.077 L
109.048 356.235 L
110.832 359.996 L
112.617 360.307 L
114.401 361.242 L
116.186 362.439 L
117.97 363.002 L
119.755 363.69 L
121.539 364.493 L
123.324 363.01 L
125.109 364.72 L
126.893 366.799 L
128.678 365.705 L
130.462 366.573 L
132.247 367.029 L
134.031 368.006 L
135.816 368.942 L
137.6 368.11 L
139.385 368.49 L
141.169 368.765 L
142.954 369.997 L
144.738 369.822 L
146.523 369.622 L
148.308 370.281 L
150.092 370.62 L
151.877 370.346 L
153.661 370.363 L
155.446 370.678 L
157.23 370.673 L
159.015 370.617 L
160.799 370.657 L
162.584 371.6 L
164.368 371.754 L
166.153 371.486 L
167.938 371.312 L
169.722 371.638 L
171.507 371.632 L
173.291 371.914 L
175.076 371.628 L
176.86 371.78 L
178.645 372.321 L
180.429 372.773 L
182.214 372.549 L
183.998 372.443 L
185.783 372.289 L
187.567 372.478 L
189.352 372.991 L
191.137 372.74 L
192.921 373.055 L
194.706 372.891 L
196.49 373 L
198.275 372.974 L
200.059 373.053 L
201.844 373.233 L
203.628 373.308 L
205.413 373.266 L
207.197 373.368 L
208.982 373.382 L
210.766 373.342 L
212.551 373.335 L
214.336 373.418 L
216.12 373.483 L
217.905 373.48 L
219.689 373.463 L
221.474 373.488 L
223.258 373.426 L
225.043 373.494 L
226.827 373.503 L
228.612 373.615 L
230.396 373.541 L
232.181 373.607 L
233.965 373.613 L
235.75 373.552 L
237.535 373.616 L
239.319 373.613 L
241.104 373.633 L
242.888 373.662 L
244.673 373.629 L
246.457 373.692 L
248.242 373.698 L
250.026 373.74 L
251.811 373.708 L
253.595 373.69 L
255.38 373.704 L
257.164 373.728 L
258.949 373.71 L
260.734 373.684 L
262.518 373.719 L
264.303 373.74 L
266.087 373.723 L
267.872 373.74 L
269.656 373.794 L
271.441 373.788 L
273.225 373.792 L
275.01 373.773 L
276.794 373.786 L
278.579 373.798 L
280.363 373.769 L
282.148 373.817 L
283.933 373.831 L
285.717 373.82 L
287.502 373.828 L
289.286 373.841 L
291.071 373.832 L
292.855 373.839 L
294.64 373.823 L
296.424 373.818 L
298.209 373.829 L
299.993 373.861 L
301.778 373.839 L
303.563 373.871 L
305.347 373.864 L
307.132 373.891 L
308.916 373.873 L
310.701 373.861 L
312.485 373.887 L
314.27 373.885 L
316.054 373.88 L
317.839 373.89 L
319.623 373.872 L
321.408 373.898 L
323.192 373.906 L
324.977 373.897 L
326.762 373.898 L
328.546 373.904 L
330.331 373.906 L
332.115 373.903 L
333.9 373.912 L
335.684 373.91 L
337.469 373.913 L
339.253 373.903 L
341.038 373.912 L
342.822 373.926 L
344.607 373.917 L
346.391 373.91 L
348.176 373.921 L
349.961 373.914 L
351.745 373.911 L
353.53 373.919 L
355.314 373.926 L
357.099 373.921 L
358.883 373.923 L
360.668 373.932 L
362.452 373.93 L
364.237 373.931 L
366.021 373.93 L
367.806 373.932 L
369.59 373.93 L
371.375 373.925 L
373.16 373.928 L
374.944 373.932 L
376.729 373.939 L
378.513 373.929 L
380.298 373.931 L
382.082 373.941 L
383.867 373.942 L
385.651 373.938 L
387.436 373.938 L
389.22 373.943 L
391.005 373.937 L
392.789 373.936 L
394.574 373.939 L
396.359 373.947 L
398.143 373.943 L
399.928 373.946 L
401.712 373.95 L
403.497 373.948 L
405.281 373.95 L
407.066 373.946 L
408.85 373.948 L
410.635 373.944 L
412.419 373.948 L
414.204 373.951 L
415.988 373.952 L
417.773 373.948 L
419.558 373.951 L
421.342 373.951 L
423.127 373.952 L
424.911 373.95 L
426.696 373.953 L
428.48 373.952 L
430.265 373.95 L
432.049 373.956 L
433.834 373.956 L
435.618 373.956 L
437.403 373.957 L
439.188 373.956 L
440.972 373.956 L
442.757 373.957 L
444.541 373.958 L
446.326 373.958 L
448.11 373.957 L
449.895 373.956 L
451.679 373.956 L
453.464 373.961 L
455.248 373.962 L
457.033 373.961 L
458.817 373.96 L
460.602 373.961 L
462.387 373.961 L
464.171 373.961 L
465.956 373.962 L
467.74 373.961 L
469.525 373.959 L
471.309 373.959 L
473.094 373.963 L
474.878 373.963 L
476.663 373.964 L
478.447 373.966 L
480.232 373.962 L
482.016 373.963 L
483.801 373.966 L
485.586 373.967 L
487.37 373.963 L
489.155 373.964 L
490.939 373.964 L
492.724 373.966 L
494.508 373.969 L
496.293 373.968 L
498.077 373.966 L
499.862 373.966 L
501.646 373.968 L
503.431 373.966 L
505.215 373.967 L
507 373.964 L
507 373.91 L
505.215 373.91 L
503.431 373.92 L
501.646 373.915 L
499.862 373.918 L
498.077 373.921 L
496.293 373.919 L
494.508 373.919 L
492.724 373.909 L
490.939 373.911 L
489.155 373.898 L
487.37 373.909 L
485.586 373.912 L
483.801 373.907 L
482.016 373.918 L
480.232 373.914 L
478.447 373.919 L
476.663 373.911 L
474.878 373.918 L
473.094 373.909 L
471.309 373.901 L
469.525 373.899 L
467.74 373.896 L
465.956 373.905 L
464.171 373.906 L
462.387 373.902 L
460.602 373.908 L
458.817 373.91 L
457.033 373.899 L
455.248 373.9 L
453.464 373.895 L
451.679 373.899 L
449.895 373.888 L
448.11 373.882 L
446.326 373.895 L
444.541 373.901 L
442.757 373.897 L
440.972 373.9 L
439.188 373.9 L
437.403 373.901 L
435.618 373.901 L
433.834 373.876 L
432.049 373.881 L
430.265 373.884 L
428.48 373.875 L
426.696 373.881 L
424.911 373.89 L
423.127 373.888 L
421.342 373.885 L
419.558 373.885 L
417.773 373.88 L
415.988 373.87 L
414.204 373.875 L
412.419 373.877 L
410.635 373.86 L
408.85 373.865 L
407.066 373.866 L
405.281 373.876 L
403.497 373.876 L
401.712 373.871 L
399.928 373.88 L
398.143 373.869 L
396.359 373.862 L
394.574 373.852 L
392.789 373.846 L
391.005 373.848 L
389.22 373.848 L
387.436 373.859 L
385.651 373.861 L
383.867 373.868 L
382.082 373.864 L
380.298 373.85 L
378.513 373.84 L
376.729 373.833 L
374.944 373.835 L
373.16 373.831 L
371.375 373.83 L
369.59 373.836 L
367.806 373.831 L
366.021 373.848 L
364.237 373.838 L
362.452 373.837 L
360.668 373.824 L
358.883 373.809 L
357.099 373.807 L
355.314 373.79 L
353.53 373.794 L
351.745 373.792 L
349.961 373.807 L
348.176 373.824 L
346.391 373.828 L
344.607 373.8 L
342.822 373.817 L
341.038 373.8 L
339.253 373.785 L
337.469 373.763 L
335.684 373.775 L
333.9 373.78 L
332.115 373.766 L
330.331 373.785 L
328.546 373.801 L
326.762 373.744 L
324.977 373.76 L
323.192 373.789 L
321.408 373.743 L
319.623 373.738 L
317.839 373.719 L
316.054 373.725 L
314.27 373.719 L
312.485 373.744 L
310.701 373.705 L
308.916 373.725 L
307.132 373.718 L
305.347 373.748 L
303.563 373.677 L
301.778 373.641 L
299.993 373.641 L
298.209 373.649 L
296.424 373.645 L
294.64 373.641 L
292.855 373.62 L
291.071 373.573 L
289.286 373.515 L
287.502 373.636 L
285.717 373.567 L
283.933 373.607 L
282.148 373.625 L
280.363 373.599 L
278.579 373.566 L
276.794 373.582 L
275.01 373.54 L
273.225 373.517 L
271.441 373.442 L
269.656 373.579 L
267.872 373.383 L
266.087 373.419 L
264.303 373.404 L
262.518 373.484 L
260.734 373.377 L
258.949 373.43 L
257.164 373.347 L
255.38 373.366 L
253.595 373.374 L
251.811 373.279 L
250.026 373.321 L
248.242 373.26 L
246.457 373.3 L
244.673 373.271 L
242.888 373.276 L
241.104 373.204 L
239.319 373.157 L
237.535 373.171 L
235.75 373.105 L
233.965 373.201 L
232.181 373.029 L
230.396 373.008 L
228.612 373.055 L
226.827 372.867 L
225.043 372.929 L
223.258 372.665 L
221.474 372.739 L
219.689 372.596 L
217.905 372.539 L
216.12 372.456 L
214.336 372.268 L
212.551 372.311 L
210.766 372.147 L
208.982 371.533 L
207.197 371.775 L
205.413 371.254 L
203.628 370.108 L
201.844 370.837 L
200.059 370.451 L
198.275 370.228 L
196.49 369.552 L
194.706 369.251 L
192.921 369.804 L
191.137 369.093 L
189.352 368.791 L
187.567 367.935 L
185.783 367.199 L
183.998 368.221 L
182.214 368.245 L
180.429 366.59 L
178.645 365.478 L
176.86 368.549 L
175.076 363.283 L
173.291 364.044 L
171.507 365.467 L
169.722 365.577 L
167.938 365.872 L
166.153 365.252 L
164.368 362.338 L
162.584 367.467 L
160.799 365.857 L
159.015 367.055 L
157.23 363.507 L
155.446 364.109 L
153.661 362.359 L
151.877 364.98 L
150.092 360.962 L
148.308 361.965 L
146.523 363.656 L
144.738 362.19 L
142.954 360.742 L
141.169 360.145 L
139.385 356.945 L
137.6 357.589 L
135.816 358.935 L
134.031 357.631 L
132.247 353.691 L
130.462 350.58 L
128.678 351.688 L
126.893 351.038 L
125.109 349.133 L
123.324 349.51 L
121.539 344.862 L
119.755 346.145 L
117.97 349.295 L
116.186 349.654 L
114.401 345.138 L
112.617 347.006 L
110.832 344.181 L
109.048 341.494 L
107.263 341.642 L
105.479 339.449 L
103.694 328.379 L
101.91 332.144 L
100.125 324.919 L
98.34 326.805 L
96.556 321.339 L
94.771 314.532 L
92.987 300.969 L
91.202 319.421 L
89.418 312.31 L
87.633 299.098 L
85.849 289.35 L
84.064 297.952 L
82.28 269.851 L
80.495 245.323 L
78.711 229.969 L
76.926 195.375 L
75.141 130.223 L
73.357 74.515 L
72.948 48.917 L
cp
f
GR
GS
[0.75 0 0 0.75 0 0] CT
1 0.549 0.549 RC
1 LJ
0.667 LW
N
72.948 175.602 M
73.357 183.273 L
75.141 254.977 L
76.926 272.151 L
78.711 289.268 L
80.495 298.02 L
82.28 317.2 L
84.064 322.676 L
85.849 327.708 L
87.633 335.658 L
89.418 331.466 L
91.202 338.062 L
92.987 339.057 L
94.771 341.88 L
96.556 344.739 L
98.34 349.13 L
100.125 349.606 L
101.91 349.463 L
103.694 354.975 L
105.479 355.396 L
107.263 357.077 L
109.048 356.235 L
110.832 359.996 L
112.617 360.307 L
114.401 361.242 L
116.186 362.439 L
117.97 363.002 L
119.755 363.69 L
121.539 364.493 L
123.324 363.01 L
125.109 364.72 L
126.893 366.799 L
128.678 365.705 L
130.462 366.573 L
132.247 367.029 L
134.031 368.006 L
135.816 368.942 L
137.6 368.11 L
139.385 368.49 L
141.169 368.765 L
142.954 369.997 L
144.738 369.822 L
146.523 369.622 L
148.308 370.281 L
150.092 370.62 L
151.877 370.346 L
153.661 370.363 L
155.446 370.678 L
157.23 370.673 L
159.015 370.617 L
160.799 370.657 L
162.584 371.6 L
164.368 371.754 L
166.153 371.486 L
167.938 371.312 L
169.722 371.638 L
171.507 371.632 L
173.291 371.914 L
175.076 371.628 L
176.86 371.78 L
178.645 372.321 L
180.429 372.773 L
182.214 372.549 L
183.998 372.443 L
185.783 372.289 L
187.567 372.478 L
189.352 372.991 L
191.137 372.74 L
192.921 373.055 L
194.706 372.891 L
196.49 373 L
198.275 372.974 L
200.059 373.053 L
201.844 373.233 L
203.628 373.308 L
205.413 373.266 L
207.197 373.368 L
208.982 373.382 L
210.766 373.342 L
212.551 373.335 L
214.336 373.418 L
216.12 373.483 L
217.905 373.48 L
219.689 373.463 L
221.474 373.488 L
223.258 373.426 L
225.043 373.494 L
226.827 373.503 L
228.612 373.615 L
230.396 373.541 L
232.181 373.607 L
233.965 373.613 L
235.75 373.552 L
237.535 373.616 L
239.319 373.613 L
241.104 373.633 L
242.888 373.662 L
244.673 373.629 L
246.457 373.692 L
248.242 373.698 L
250.026 373.74 L
251.811 373.708 L
253.595 373.69 L
255.38 373.704 L
257.164 373.728 L
258.949 373.71 L
260.734 373.684 L
262.518 373.719 L
264.303 373.74 L
266.087 373.723 L
267.872 373.74 L
269.656 373.794 L
271.441 373.788 L
273.225 373.792 L
275.01 373.773 L
276.794 373.786 L
278.579 373.798 L
280.363 373.769 L
282.148 373.817 L
283.933 373.831 L
285.717 373.82 L
287.502 373.828 L
289.286 373.841 L
291.071 373.832 L
292.855 373.839 L
294.64 373.823 L
296.424 373.818 L
298.209 373.829 L
299.993 373.861 L
301.778 373.839 L
303.563 373.871 L
305.347 373.864 L
307.132 373.891 L
308.916 373.873 L
310.701 373.861 L
312.485 373.887 L
314.27 373.885 L
316.054 373.88 L
317.839 373.89 L
319.623 373.872 L
321.408 373.898 L
323.192 373.906 L
324.977 373.897 L
326.762 373.898 L
328.546 373.904 L
330.331 373.906 L
332.115 373.903 L
333.9 373.912 L
335.684 373.91 L
337.469 373.913 L
339.253 373.903 L
341.038 373.912 L
342.822 373.926 L
344.607 373.917 L
346.391 373.91 L
348.176 373.921 L
349.961 373.914 L
351.745 373.911 L
353.53 373.919 L
355.314 373.926 L
357.099 373.921 L
358.883 373.923 L
360.668 373.932 L
362.452 373.93 L
364.237 373.931 L
366.021 373.93 L
367.806 373.932 L
369.59 373.93 L
371.375 373.925 L
373.16 373.928 L
374.944 373.932 L
376.729 373.939 L
378.513 373.929 L
380.298 373.931 L
382.082 373.941 L
383.867 373.942 L
385.651 373.938 L
387.436 373.938 L
389.22 373.943 L
391.005 373.937 L
392.789 373.936 L
394.574 373.939 L
396.359 373.947 L
398.143 373.943 L
399.928 373.946 L
401.712 373.95 L
403.497 373.948 L
405.281 373.95 L
407.066 373.946 L
408.85 373.948 L
410.635 373.944 L
412.419 373.948 L
414.204 373.951 L
415.988 373.952 L
417.773 373.948 L
419.558 373.951 L
421.342 373.951 L
423.127 373.952 L
424.911 373.95 L
426.696 373.953 L
428.48 373.952 L
430.265 373.95 L
432.049 373.956 L
433.834 373.956 L
435.618 373.956 L
437.403 373.957 L
439.188 373.956 L
440.972 373.956 L
442.757 373.957 L
444.541 373.958 L
446.326 373.958 L
448.11 373.957 L
449.895 373.956 L
451.679 373.956 L
453.464 373.961 L
455.248 373.962 L
457.033 373.961 L
458.817 373.96 L
460.602 373.961 L
462.387 373.961 L
464.171 373.961 L
465.956 373.962 L
467.74 373.961 L
469.525 373.959 L
471.309 373.959 L
473.094 373.963 L
474.878 373.963 L
476.663 373.964 L
478.447 373.966 L
480.232 373.962 L
482.016 373.963 L
483.801 373.966 L
485.586 373.967 L
487.37 373.963 L
489.155 373.964 L
490.939 373.964 L
492.724 373.966 L
494.508 373.969 L
496.293 373.968 L
498.077 373.966 L
499.862 373.966 L
501.646 373.968 L
503.431 373.966 L
505.215 373.967 L
507 373.964 L
S
GR
GS
[0.75 0 0 0.75 0 0] CT
1 0.549 0.549 RC
1 LJ
0.667 LW
N
72.948 48.917 M
73.357 74.515 L
75.141 130.223 L
76.926 195.375 L
78.711 229.969 L
80.495 245.323 L
82.28 269.851 L
84.064 297.952 L
85.849 289.35 L
87.633 299.098 L
89.418 312.31 L
91.202 319.421 L
92.987 300.969 L
94.771 314.532 L
96.556 321.339 L
98.34 326.805 L
100.125 324.919 L
101.91 332.144 L
103.694 328.379 L
105.479 339.449 L
107.263 341.642 L
109.048 341.494 L
110.832 344.181 L
112.617 347.006 L
114.401 345.138 L
116.186 349.654 L
117.97 349.295 L
119.755 346.145 L
121.539 344.862 L
123.324 349.51 L
125.109 349.133 L
126.893 351.038 L
128.678 351.688 L
130.462 350.58 L
132.247 353.691 L
134.031 357.631 L
135.816 358.935 L
137.6 357.589 L
139.385 356.945 L
141.169 360.145 L
142.954 360.742 L
144.738 362.19 L
146.523 363.656 L
148.308 361.965 L
150.092 360.962 L
151.877 364.98 L
153.661 362.359 L
155.446 364.109 L
157.23 363.507 L
159.015 367.055 L
160.799 365.857 L
162.584 367.467 L
164.368 362.338 L
166.153 365.252 L
167.938 365.872 L
169.722 365.577 L
171.507 365.467 L
173.291 364.044 L
175.076 363.283 L
176.86 368.549 L
178.645 365.478 L
180.429 366.59 L
182.214 368.245 L
183.998 368.221 L
185.783 367.199 L
187.567 367.935 L
189.352 368.791 L
191.137 369.093 L
192.921 369.804 L
194.706 369.251 L
196.49 369.552 L
198.275 370.228 L
200.059 370.451 L
201.844 370.837 L
203.628 370.108 L
205.413 371.254 L
207.197 371.775 L
208.982 371.533 L
210.766 372.147 L
212.551 372.311 L
214.336 372.268 L
216.12 372.456 L
217.905 372.539 L
219.689 372.596 L
221.474 372.739 L
223.258 372.665 L
225.043 372.929 L
226.827 372.867 L
228.612 373.055 L
230.396 373.008 L
232.181 373.029 L
233.965 373.201 L
235.75 373.105 L
237.535 373.171 L
239.319 373.157 L
241.104 373.204 L
242.888 373.276 L
244.673 373.271 L
246.457 373.3 L
248.242 373.26 L
250.026 373.321 L
251.811 373.279 L
253.595 373.374 L
255.38 373.366 L
257.164 373.347 L
258.949 373.43 L
260.734 373.377 L
262.518 373.484 L
264.303 373.404 L
266.087 373.419 L
267.872 373.383 L
269.656 373.579 L
271.441 373.442 L
273.225 373.517 L
275.01 373.54 L
276.794 373.582 L
278.579 373.566 L
280.363 373.599 L
282.148 373.625 L
283.933 373.607 L
285.717 373.567 L
287.502 373.636 L
289.286 373.515 L
291.071 373.573 L
292.855 373.62 L
294.64 373.641 L
296.424 373.645 L
298.209 373.649 L
299.993 373.641 L
301.778 373.641 L
303.563 373.677 L
305.347 373.748 L
307.132 373.718 L
308.916 373.725 L
310.701 373.705 L
312.485 373.744 L
314.27 373.719 L
316.054 373.725 L
317.839 373.719 L
319.623 373.738 L
321.408 373.743 L
323.192 373.789 L
324.977 373.76 L
326.762 373.744 L
328.546 373.801 L
330.331 373.785 L
332.115 373.766 L
333.9 373.78 L
335.684 373.775 L
337.469 373.763 L
339.253 373.785 L
341.038 373.8 L
342.822 373.817 L
344.607 373.8 L
346.391 373.828 L
348.176 373.824 L
349.961 373.807 L
351.745 373.792 L
353.53 373.794 L
355.314 373.79 L
357.099 373.807 L
358.883 373.809 L
360.668 373.824 L
362.452 373.837 L
364.237 373.838 L
366.021 373.848 L
367.806 373.831 L
369.59 373.836 L
371.375 373.83 L
373.16 373.831 L
374.944 373.835 L
376.729 373.833 L
378.513 373.84 L
380.298 373.85 L
382.082 373.864 L
383.867 373.868 L
385.651 373.861 L
387.436 373.859 L
389.22 373.848 L
391.005 373.848 L
392.789 373.846 L
394.574 373.852 L
396.359 373.862 L
398.143 373.869 L
399.928 373.88 L
401.712 373.871 L
403.497 373.876 L
405.281 373.876 L
407.066 373.866 L
408.85 373.865 L
410.635 373.86 L
412.419 373.877 L
414.204 373.875 L
415.988 373.87 L
417.773 373.88 L
419.558 373.885 L
421.342 373.885 L
423.127 373.888 L
424.911 373.89 L
426.696 373.881 L
428.48 373.875 L
430.265 373.884 L
432.049 373.881 L
433.834 373.876 L
435.618 373.901 L
437.403 373.901 L
439.188 373.9 L
440.972 373.9 L
442.757 373.897 L
444.541 373.901 L
446.326 373.895 L
448.11 373.882 L
449.895 373.888 L
451.679 373.899 L
453.464 373.895 L
455.248 373.9 L
457.033 373.899 L
458.817 373.91 L
460.602 373.908 L
462.387 373.902 L
464.171 373.906 L
465.956 373.905 L
467.74 373.896 L
469.525 373.899 L
471.309 373.901 L
473.094 373.909 L
474.878 373.918 L
476.663 373.911 L
478.447 373.919 L
480.232 373.914 L
482.016 373.918 L
483.801 373.907 L
485.586 373.912 L
487.37 373.909 L
489.155 373.898 L
490.939 373.911 L
492.724 373.909 L
494.508 373.919 L
496.293 373.919 L
498.077 373.921 L
499.862 373.918 L
501.646 373.915 L
503.431 373.92 L
505.215 373.91 L
507 373.91 L
S
GR
GS
[0.75 0 0 0.75 0 0] CT
1 0 0 RC
1 LJ
0.667 LW
N
72.948 131.445 M
73.357 147.616 L
75.141 200.044 L
76.926 223.931 L
78.711 260.665 L
80.495 275.913 L
82.28 286.797 L
84.064 308.86 L
85.849 313.314 L
87.633 317.958 L
89.418 324.44 L
91.202 332.667 L
92.987 327.906 L
94.771 329.839 L
96.556 336.895 L
98.34 335.066 L
100.125 339.622 L
101.91 339.339 L
103.694 341.097 L
105.479 348.191 L
107.263 349.436 L
109.048 348.903 L
110.832 352.815 L
112.617 355.133 L
114.401 351.491 L
116.186 354.924 L
117.97 354.366 L
119.755 358.301 L
121.539 357.165 L
123.324 357.491 L
125.109 360.03 L
126.893 360.169 L
128.678 360.839 L
130.462 360.456 L
132.247 361.75 L
134.031 365.106 L
135.816 365.766 L
137.6 363.916 L
139.385 364.515 L
141.169 365.602 L
142.954 365.496 L
144.738 366.224 L
146.523 366.496 L
148.308 367.623 L
150.092 366.848 L
151.877 369.048 L
153.661 367.627 L
155.446 368.624 L
157.23 369.61 L
159.015 369.264 L
160.799 368.595 L
162.584 369.285 L
164.368 369.747 L
166.153 369.74 L
167.938 369.978 L
169.722 370.602 L
171.507 369.775 L
173.291 369.685 L
175.076 369.205 L
176.86 369.994 L
178.645 370.818 L
180.429 370.427 L
182.214 370.628 L
183.998 370.551 L
185.783 371.039 L
187.567 371.686 L
189.352 371.247 L
191.137 371.648 L
192.921 372.058 L
194.706 372.042 L
196.49 371.505 L
198.275 372.209 L
200.059 372.178 L
201.844 371.9 L
203.628 372.007 L
205.413 372.535 L
207.197 372.601 L
208.982 372.646 L
210.766 372.7 L
212.551 372.866 L
214.336 372.885 L
216.12 372.914 L
217.905 373.116 L
219.689 372.962 L
221.474 373.158 L
223.258 373.152 L
225.043 373.181 L
226.827 373.211 L
228.612 373.374 L
230.396 373.312 L
232.181 373.262 L
233.965 373.476 L
235.75 373.341 L
237.535 373.31 L
239.319 373.433 L
241.104 373.482 L
242.888 373.416 L
244.673 373.454 L
246.457 373.52 L
248.242 373.554 L
250.026 373.577 L
251.811 373.587 L
253.595 373.582 L
255.38 373.487 L
257.164 373.549 L
258.949 373.571 L
260.734 373.553 L
262.518 373.663 L
264.303 373.64 L
266.087 373.582 L
267.872 373.641 L
269.656 373.691 L
271.441 373.68 L
273.225 373.663 L
275.01 373.634 L
276.794 373.695 L
278.579 373.677 L
280.363 373.715 L
282.148 373.718 L
283.933 373.708 L
285.717 373.736 L
287.502 373.732 L
289.286 373.742 L
291.071 373.737 L
292.855 373.751 L
294.64 373.746 L
296.424 373.766 L
298.209 373.758 L
299.993 373.765 L
301.778 373.78 L
303.563 373.779 L
305.347 373.773 L
307.132 373.835 L
308.916 373.808 L
310.701 373.788 L
312.485 373.799 L
314.27 373.794 L
316.054 373.808 L
317.839 373.811 L
319.623 373.807 L
321.408 373.818 L
323.192 373.817 L
324.977 373.821 L
326.762 373.833 L
328.546 373.822 L
330.331 373.836 L
332.115 373.827 L
333.9 373.825 L
335.684 373.828 L
337.469 373.83 L
339.253 373.826 L
341.038 373.836 L
342.822 373.846 L
344.607 373.866 L
346.391 373.869 L
348.176 373.869 L
349.961 373.863 L
351.745 373.849 L
353.53 373.856 L
355.314 373.858 L
357.099 373.865 L
358.883 373.869 L
360.668 373.883 L
362.452 373.882 L
364.237 373.896 L
366.021 373.89 L
367.806 373.894 L
369.59 373.888 L
371.375 373.873 L
373.16 373.877 L
374.944 373.887 L
376.729 373.886 L
378.513 373.889 L
380.298 373.899 L
382.082 373.904 L
383.867 373.913 L
385.651 373.902 L
387.436 373.9 L
389.22 373.898 L
391.005 373.896 L
392.789 373.899 L
394.574 373.897 L
396.359 373.908 L
398.143 373.907 L
399.928 373.918 L
401.712 373.915 L
403.497 373.919 L
405.281 373.921 L
407.066 373.911 L
408.85 373.907 L
410.635 373.906 L
412.419 373.905 L
414.204 373.906 L
415.988 373.909 L
417.773 373.914 L
419.558 373.926 L
421.342 373.929 L
423.127 373.925 L
424.911 373.925 L
426.696 373.917 L
428.48 373.917 L
430.265 373.913 L
432.049 373.92 L
433.834 373.918 L
435.618 373.928 L
437.403 373.927 L
439.188 373.934 L
440.972 373.93 L
442.757 373.931 L
444.541 373.929 L
446.326 373.922 L
448.11 373.924 L
449.895 373.928 L
451.679 373.924 L
453.464 373.93 L
455.248 373.931 L
457.033 373.935 L
458.817 373.939 L
460.602 373.94 L
462.387 373.939 L
464.171 373.935 L
465.956 373.931 L
467.74 373.935 L
469.525 373.934 L
471.309 373.93 L
473.094 373.937 L
474.878 373.941 L
476.663 373.946 L
478.447 373.943 L
480.232 373.948 L
482.016 373.942 L
483.801 373.94 L
485.586 373.937 L
487.37 373.935 L
489.155 373.937 L
490.939 373.94 L
492.724 373.938 L
494.508 373.948 L
496.293 373.945 L
498.077 373.949 L
499.862 373.948 L
501.646 373.945 L
503.431 373.94 L
505.215 373.937 L
507 373.938 L
S
GR
GS
[0.75 0 0 0.75 0 0] CT
1 GC
N
496 78 M
496 42 L
400 42 L
400 78 L
cp
f
GR
GS
[0.75 0 0 0.75 335.25 38.89726] CT
/Helvetica 12 F
GS
[1 0 0 1 0 0] CT
0 5 moveto 
1 -1 scale
(pre term) t 
GR
GR
GS
[0.75 0 0 0.75 0 0] CT
0 0 1 RC
1 LJ
0.667 LW
N
404 51.863 M
444 51.863 L
S
GR
GS
[0.75 0 0 0.75 335.25 51.10274] CT
/Helvetica 12 F
GS
[1 0 0 1 0 0] CT
0 5 moveto 
1 -1 scale
(full term) t 
GR
GR
GS
[0.75 0 0 0.75 0 0] CT
1 0 0 RC
1 LJ
0.667 LW
N
404 68.137 M
444 68.137 L
S
GR
GS
[0.75 0 0 0.75 0 0] CT
0.149 GC
10.0 ML
0.667 LW
N
400 78 M
400 42 L
496 42 L
496 78 L
cp
S
GR
%%Trailer
%%Pages: 1
%%EOF
